v 20050820 2
B 300 300 2400 2400 3 0 0 0 -1 -1 0 -1 -1 -1 -1 -1
T 1000 1800 9 10 1 1 0 0 1
device=MC10E137
P 300 2400 0 2400 1 0 1
{
T 50 2450 5 8 1 1 0 0 1
pinnumber=26
T 50 2450 5 8 0 0 0 0 1
pinseq=26
T 350 2350 3 8 1 1 0 0 1
pinlabel=AStart
}
P 300 2100 0 2100 1 0 1
{
T 50 2150 5 8 1 1 0 0 1
pinnumber=27
T 50 2150 5 8 0 0 0 0 1
pinseq=27
T 350 2050 3 8 1 1 0 0 1
pinlabel=EN1
}
P 300 1800 0 1800 1 0 1
{
T 50 1850 5 8 1 1 0 0 1
pinnumber=28
T 50 1850 5 8 0 0 0 0 1
pinseq=28
T 350 1750 3 8 1 1 0 0 1
pinlabel=EN2
}
P 300 1500 0 1500 1 0 1
{
T 100 1550 5 8 1 1 0 0 1
pinnumber=1
T 100 1550 5 8 0 0 0 0 1
pinseq=1
T 350 1450 3 8 1 1 0 0 1
pinlabel=VEE
}
P 300 1200 0 1200 1 0 1
{
T 100 1250 5 8 1 1 0 0 1
pinnumber=2
T 100 1250 5 8 0 0 0 0 1
pinseq=2
T 350 1200 3 8 1 1 0 0 1
pinlabel=CLK
}
P 300 600 0 600 1 0 1
{
T 100 650 5 8 1 1 0 0 1
pinnumber=3
T 100 650 5 8 0 0 0 0 1
pinseq=3
T 350 550 3 8 1 1 0 0 1
pinlabel=CLK\\
}
P 300 900 0 900 1 0 1
{
T 100 950 5 8 1 1 0 0 1
pinnumber=4
T 100 950 5 8 0 0 0 0 1
pinseq=4
T 350 850 3 8 1 1 0 0 1
pinlabel=VBB
}
P 600 2700 600 3000 1 0 1
{
T 650 2800 5 8 1 1 0 0 1
pinnumber=25
T 650 2800 5 8 0 0 0 0 1
pinseq=25
T 500 2500 3 8 1 1 0 0 1
pinlabel=Q7
}
P 900 2700 900 3000 1 0 1
{
T 950 2800 5 8 1 1 0 0 1
pinnumber=24
T 950 2800 5 8 0 0 0 0 1
pinseq=24
T 800 2500 3 8 1 1 0 0 1
pinlabel=Q7\\
}
P 1200 2700 1200 3000 1 0 1
{
T 1250 2800 5 8 1 1 0 0 1
pinnumber=23
T 1250 2800 5 8 0 0 0 0 1
pinseq=23
T 1100 2500 3 8 1 1 0 0 1
pinlabel=Q6
}
P 1500 2700 1500 3000 1 0 1
{
T 1550 2800 5 8 1 1 0 0 1
pinnumber=22
T 1550 2800 5 8 0 0 0 0 1
pinseq=22
T 1400 2500 3 8 1 1 0 0 1
pinlabel=Q6\\
}
P 1800 2700 1800 3000 1 0 1
{
T 1850 2800 5 8 1 1 0 0 1
pinnumber=21
T 1850 2800 5 8 0 0 0 0 1
pinseq=21
T 1800 2300 3 8 1 1 90 0 1
pinlabel=Vcco
}
P 2100 2700 2100 3000 1 0 1
{
T 2150 2800 5 8 1 1 0 0 1
pinnumber=20
T 2150 2800 5 8 0 0 0 0 1
pinseq=20
T 2000 2500 3 8 1 1 0 0 1
pinlabel=Q5
}
P 2400 2700 2400 3000 1 0 1
{
T 2450 2800 5 8 1 1 0 0 1
pinnumber=19
T 2450 2800 5 8 0 0 0 0 1
pinseq=19
T 2300 2500 3 8 1 1 0 0 1
pinlabel=Q5\\
}
P 2700 2400 3000 2400 1 0 1
{
T 2800 2450 5 8 1 1 0 0 1
pinnumber=18
T 2800 2450 5 8 0 0 0 0 1
pinseq=18
T 2350 2350 3 8 1 1 0 0 1
pinlabel=Q4\\
}
P 2700 2100 3000 2100 1 0 1
{
T 2800 2150 5 8 1 1 0 0 1
pinnumber=17
T 2800 2150 5 8 0 0 0 0 1
pinseq=17
T 2350 2050 3 8 1 1 0 0 1
pinlabel=Q4
}
P 2700 1800 3000 1800 1 0 1
{
T 2800 1850 5 8 1 1 0 0 1
pinnumber=16
T 2800 1850 5 8 0 0 0 0 1
pinseq=16
T 2350 1750 3 8 1 1 0 0 1
pinlabel=Vcc
}
P 2700 1500 3000 1500 1 0 1
{
T 2800 1550 5 8 1 1 0 0 1
pinnumber=15
T 2800 1550 5 8 0 0 0 0 1
pinseq=15
T 2350 1450 3 8 1 1 0 0 1
pinlabel=Q3\\
}
P 2700 1200 3000 1200 1 0 1
{
T 2800 1250 5 8 1 1 0 0 1
pinnumber=14
T 2800 1250 5 8 0 0 0 0 1
pinseq=14
T 2350 1150 3 8 1 1 0 0 1
pinlabel=Q3
}
P 2700 900 3000 900 1 0 1
{
T 2800 950 5 8 1 1 0 0 1
pinnumber=13
T 2800 950 5 8 0 0 0 0 1
pinseq=13
T 2350 850 3 8 1 1 0 0 1
pinlabel=Q2
}
P 2700 600 3000 600 1 0 1
{
T 2800 650 5 8 1 1 0 0 1
pinnumber=12
T 2800 650 5 8 0 0 0 0 1
pinseq=12
T 2350 550 3 8 1 1 0 0 1
pinlabel=Q2\\
}
P 600 300 600 0 1 0 1
{
T 500 150 5 8 1 1 0 0 1
pinnumber=5
T 500 150 5 8 0 0 0 0 1
pinseq=5
T 450 350 3 8 1 1 0 0 1
pinlabel=MR
}
P 900 300 900 0 1 0 1
{
T 800 150 5 8 1 1 0 0 1
pinnumber=6
T 800 150 5 8 0 0 0 0 1
pinseq=6
T 950 400 3 8 1 1 90 0 1
pinlabel=Vcco
}
P 1200 300 1200 0 1 0 1
{
T 1100 150 5 8 1 1 0 0 1
pinnumber=7
T 1100 150 5 8 0 0 0 0 1
pinseq=7
T 1100 350 3 8 1 1 0 0 1
pinlabel=Q0
}
P 1500 300 1500 0 1 0 1
{
T 1400 150 5 8 1 1 0 0 1
pinnumber=8
T 1400 150 5 8 0 0 0 0 1
pinseq=8
T 1400 350 3 8 1 1 0 0 1
pinlabel=Q0\\
}
P 1800 300 1800 0 1 0 1
{
T 1700 150 5 8 1 1 0 0 1
pinnumber=9
T 1700 150 5 8 0 0 0 0 1
pinseq=9
T 1700 350 3 8 1 1 0 0 1
pinlabel=Q1
}
P 2100 300 2100 0 1 0 1
{
T 1950 150 5 8 1 1 0 0 1
pinnumber=10
T 1950 150 5 8 0 0 0 0 1
pinseq=10
T 2000 350 3 8 1 1 0 0 1
pinlabel=Q1\\
}
P 2400 300 2400 0 1 0 1
{
T 2250 150 5 8 1 1 0 0 1
pinnumber=11
T 2250 150 5 8 0 0 0 0 1
pinseq=11
T 2300 350 3 8 1 1 0 0 1
pinlabel=Vcco
}
T 2800 2800 8 10 1 1 0 0 1
refdes=U?
T 3200 2500 5 10 0 0 0 0 1
footprint=PLCC 28
T 3200 2300 5 10 0 0 0 0 1
device=MC10E137
T 3200 2100 5 10 0 0 0 0 1
documentation=http://www.onsemi.com/pub/Collateral/MC10E137-D.PDF
