!PADS-POWERPCB-V3.0-MILS!

*PART*
A1	unknown
A2	unknown
A3	unknown
C1	unknown
C2	unknown
CE1	unknown
CE2	unknown
COUT	unknown
Q1	unknown
Q2	unknown
R1	unknown
R2	unknown
R3	unknown
R4	unknown
R5	unknown
R8	unknown
RC1	unknown
RC2	unknown
RE1	unknown
RE2	unknown
RL	unknown
VCC	none
VINPUT	none

*NET*
*SIGNAL* UNNAMED_NET2
 C2.1 R8.2
*SIGNAL* VBASE2
 C2.2 Q2.2 R3.1 R4.2
*SIGNAL* VEM2
 CE2.2 Q2.1 RE2.2
*SIGNAL* VOUT
 COUT.2 RL.2
*SIGNAL* VCOLL2
 COUT.1 Q2.3 RC2.1
*SIGNAL* GND
 CE1.1 CE2.1 R2.1 R4.1 RE1.1 RE2.1 RL.1 VCC.2 VINPUT.2
*SIGNAL* VCC
 R1.2 R3.2 RC1.2 RC2.2 VCC.1
*SIGNAL* VIN
 R5.1 VINPUT.1
*SIGNAL* UNNAMED_NET1
 C1.1 R5.2
*SIGNAL* VBASE1
 C1.2 Q1.2 R1.1 R2.2
*SIGNAL* VEM1
 CE1.2 Q1.1 RE1.2
*SIGNAL* VCOLL1
 Q1.3 R8.1 RC1.1

*END*
