v 20031231 2
B 200 200 1000 1000 3 0 0 0 -1 -1 0 -1 -1 -1 -1 -1
P 0 700 200 700 1 0 0
{
T 100 800 5 10 1 1 0 0 1
pinnumber=1
T 0 700 5 10 0 1 0 0 1
pinseq=1
}
P 700 1400 700 1200 1 0 0
{
T 500 1300 5 10 1 1 0 0 1
pinnumber=5
T 700 1400 5 10 0 1 0 0 1
pinseq=5
}
P 1400 700 1200 700 1 0 0
{
T 1300 800 5 10 1 1 0 0 1
pinnumber=2
T 1400 700 5 10 0 1 0 0 1
pinseq=2
}
P 500 0 500 200 1 0 0
{
T 300 0 5 10 1 1 0 0 1
pinnumber=3
T 500 0 5 10 0 1 0 0 1
pinseq=3
}
P 900 0 900 200 1 0 0
{
T 1000 0 5 10 1 1 0 0 1
pinnumber=4
T 900 0 5 10 0 1 0 0 1
pinseq=4
}
T 500 700 9 10 1 0 0 0 1
L200
T 1000 1300 8 10 1 1 0 0 1
refdes=U?
T 200 1600 8 10 0 0 0 0 1
device=L200
