v 20031231 2
T 400 600 9 8 1 0 0 0 1
IN
T 948 600 9 8 1 0 0 0 1
OUT
T 900 100 9 8 1 0 0 0 1
7815
B 300 300 1000 600 3 0 0 0 -1 -1 0 -1 -1 -1 -1 -1
T 1600 1300 5 10 0 0 0 0 1
device=7815
T 656 401 9 8 1 0 0 0 1
GND
P 300 600 0 600 1 0 1
{
T 100 650 5 8 1 1 0 0 1
pinnumber=1
T 100 650 5 8 0 0 0 0 1
pinseq=1
}
P 800 0 800 300 1 0 0
{
T 700 100 5 8 1 1 0 0 1
pinnumber=2
T 700 100 5 8 0 0 0 0 1
pinseq=2
}
P 1300 600 1600 600 1 0 1
{
T 1430 650 5 8 1 1 0 0 1
pinnumber=3
T 1430 650 5 8 0 0 0 0 1
pinseq=3
}
T 1400 1000 8 10 1 1 0 6 1
refdes=U?
T 1600 1100 5 10 0 0 0 0 1
pins=3
T 1600 900 5 10 0 0 0 0 1
net=GND:2
