v 20031231 2
P 300 2100 0 2100 1 0 1
{
T 100 2150 5 8 1 1 0 0 1
pinnumber=2
T 100 2150 5 8 0 0 0 0 1
pinseq=2
}
P 300 1800 0 1800 1 0 1
{
T 100 1850 5 8 1 1 0 0 1
pinnumber=3
T 100 1850 5 8 0 0 0 0 1
pinseq=3
}
P 300 1500 0 1500 1 0 1
{
T 100 1550 5 8 1 1 0 0 1
pinnumber=4
T 100 1550 5 8 0 0 0 0 1
pinseq=4
}
P 300 1200 0 1200 1 0 1
{
T 100 1250 5 8 1 1 0 0 1
pinnumber=5
T 100 1250 5 8 0 0 0 0 1
pinseq=5
}
P 300 900 0 900 1 0 1
{
T 100 950 5 8 1 1 0 0 1
pinnumber=6
T 100 950 5 8 0 0 0 0 1
pinseq=6
}
P 300 600 0 600 1 0 1
{
T 100 650 5 8 1 1 0 0 1
pinnumber=7
T 100 650 5 8 0 0 0 0 1
pinseq=7
}
P 300 300 0 300 1 0 1
{
T 100 350 5 8 1 1 0 0 1
pinnumber=8
T 100 350 5 8 0 0 0 0 1
pinseq=8
}
T 400 1150 9 10 1 0 0 0 1
C2-
T 400 850 9 10 1 0 0 0 1
V-
T 400 550 9 10 1 0 0 0 1
Tx2 Out
T 400 2350 9 10 1 0 0 0 1
C1+
T 400 2050 9 10 1 0 0 0 1
V+
T 400 1750 9 10 1 0 0 0 1
C1-
T 400 1450 9 10 1 0 0 0 1
C2+
T 350 2850 9 10 1 0 0 0 1
LT1181
P 2300 300 2600 300 1 0 1
{
T 2400 350 5 8 1 1 0 0 1
pinnumber=9
T 2400 350 5 8 0 0 0 0 1
pinseq=9
}
P 2300 600 2600 600 1 0 1
{
T 2400 650 5 8 1 1 0 0 1
pinnumber=10
T 2400 650 5 8 0 0 0 0 1
pinseq=10
}
P 2300 900 2600 900 1 0 1
{
T 2400 950 5 8 1 1 0 0 1
pinnumber=11
T 2400 950 5 8 0 0 0 0 1
pinseq=11
}
P 2300 1200 2600 1200 1 0 1
{
T 2400 1250 5 8 1 1 0 0 1
pinnumber=12
T 2400 1250 5 8 0 0 0 0 1
pinseq=12
}
T 1700 550 9 10 1 0 0 0 1
Tx2 In
T 1600 1750 9 10 1 0 0 0 1
Tx1 Out
T 1700 1450 9 10 1 0 0 0 1
Rx1 In
T 1600 1150 9 10 1 0 0 0 1
Rx1 Out
T 1700 850 9 10 1 0 0 0 1
Tx1 In
P 2300 1500 2600 1500 1 0 1
{
T 2400 1550 5 8 1 1 0 0 1
pinnumber=13
T 2400 1550 5 8 0 0 0 0 1
pinseq=13
}
T 2450 2600 5 10 0 0 0 0 1
device=LT1181
P 2300 1800 2600 1800 1 0 1
{
T 2400 1850 5 8 1 1 0 0 1
pinnumber=14
T 2400 1850 5 8 0 0 0 0 1
pinseq=14
}
P 300 2400 0 2400 1 0 1
{
T 100 2450 5 8 1 1 0 0 1
pinnumber=1
T 100 2450 5 8 0 0 0 0 1
pinseq=1
}
T 400 250 9 10 1 0 0 0 1
Rx2 In
T 1500 250 9 10 1 0 0 0 1
Rx2 Out
B 300 0 2000 2800 3 0 0 0 -1 -1 0 -1 -1 -1 -1 -1
T 2300 2900 8 10 1 1 0 6 1
refdes=U?
