v 20080706 2
C 38100 60100 1 0 0 7400-1.sym
{
T 38400 61000 5 10 1 1 0 0 1
refdes=U100
T 39000 60200 5 10 1 1 0 0 1
net=netattrib:5
}
C 41000 58800 1 0 0 7404-1.sym
{
T 41300 59700 5 10 1 1 0 0 1
refdes=U200
}
N 40000 59300 41000 59300 4
{
T 40100 59400 5 10 1 1 0 0 1
netname=two
}
N 40000 59300 40000 61300 4
N 40000 61300 41200 61300 4
{
T 40200 61400 5 10 1 1 0 0 1
netname=one
}
C 41200 60800 1 0 0 7404-1.sym
{
T 41500 61700 5 10 1 1 0 0 1
refdes=U300
}
N 39400 60600 40000 60600 4
N 42100 59300 43300 59300 4
{
T 42500 59400 5 10 1 1 0 0 1
netname=netattrib
}
N 42300 61300 43000 61300 4
N 38400 58600 39100 58600 4
{
T 38500 58700 5 10 1 1 0 0 1
netname=two
}
C 39100 58600 1 0 0 fuse-1.sym
{
T 39300 58800 5 10 1 1 0 0 1
refdes=F1
}
