v 20031231 2
B 0 0 44000 34000 15 0 0 0 -1 -1 0 -1 -1 -1 -1 -1
T 26500 1800 5 10 0 0 0 0 1
graphical=1
L 39700 800 39700 200 15 0 0 0 -1 -1
T 36300 600 15 8 1 0 0 0 1
FILE:
T 39800 600 15 8 1 0 0 0 1
REVISION:
T 39800 300 15 8 1 0 0 0 1
DRAWN BY: 
T 36300 300 15 8 1 0 0 0 1
PAGE
T 38000 300 15 8 1 0 0 0 1
OF
T 36300 900 15 8 1 0 0 0 1
TITLE
B 36200 200 7600 1400 15 0 0 0 -1 -1 0 -1 -1 -1 -1 -1
L 36200 800 43800 800 15 0 0 0 -1 -1
B 200 200 43600 33600 15 0 0 0 -1 -1 0 -1 -1 -1 -1 -1
L 44000 18000 43800 18000 15 0 0 0 -1 -1
L 44000 20000 43800 20000 15 0 0 0 -1 -1
L 44000 16100 43800 16100 15 0 0 0 -1 -1
L 44000 14100 43800 14100 15 0 0 0 -1 -1
L 44000 12100 43800 12100 15 0 0 0 -1 -1
L 44000 10100 43800 10100 15 0 0 0 -1 -1
L 44000 8100 43800 8100 15 0 0 0 -1 -1
L 44000 6100 43800 6100 15 0 0 0 -1 -1
L 44000 4100 43800 4100 15 0 0 0 -1 -1
L 44000 2100 43800 2100 15 0 0 0 -1 -1
T 43900 17000 15 8 1 0 0 4 1
I
T 43900 19000 15 8 1 0 0 4 1
J
T 43900 21000 15 8 1 0 0 4 1
K
T 43900 15100 15 8 1 0 0 4 1
H
T 43900 13100 15 8 1 0 0 4 1
G
T 43900 11100 15 8 1 0 0 4 1
F
T 43900 9100 15 8 1 0 0 4 1
E
T 43900 7100 15 8 1 0 0 4 1
D
T 43900 5100 15 8 1 0 0 4 1
C
T 43900 3100 15 8 1 0 0 4 1
B
T 43900 1100 15 8 1 0 0 4 1
A
L 44000 29900 43800 29900 15 0 0 0 -1 -1
L 44000 31900 43800 31900 15 0 0 0 -1 -1
L 44000 28000 43800 28000 15 0 0 0 -1 -1
L 44000 26000 43800 26000 15 0 0 0 -1 -1
L 44000 24000 43800 24000 15 0 0 0 -1 -1
L 44000 22000 43800 22000 15 0 0 0 -1 -1
T 43900 28900 15 8 1 0 0 4 1
O
T 43900 30900 15 8 1 0 0 4 1
P
T 43900 32900 15 8 1 0 0 4 1
Q
T 43900 27000 15 8 1 0 0 4 1
N
T 43900 25000 15 8 1 0 0 4 1
M
T 43900 23000 15 8 1 0 0 4 1
L
L 200 17900 0 17900 15 0 0 0 -1 -1
L 200 19900 0 19900 15 0 0 0 -1 -1
L 200 16000 0 16000 15 0 0 0 -1 -1
L 200 14000 0 14000 15 0 0 0 -1 -1
L 200 12000 0 12000 15 0 0 0 -1 -1
L 200 10000 0 10000 15 0 0 0 -1 -1
L 200 8000 0 8000 15 0 0 0 -1 -1
L 200 6000 0 6000 15 0 0 0 -1 -1
L 200 4000 0 4000 15 0 0 0 -1 -1
L 200 2000 0 2000 15 0 0 0 -1 -1
L 200 29800 0 29800 15 0 0 0 -1 -1
L 200 31800 0 31800 15 0 0 0 -1 -1
L 200 27900 0 27900 15 0 0 0 -1 -1
L 200 25900 0 25900 15 0 0 0 -1 -1
L 200 23900 0 23900 15 0 0 0 -1 -1
L 200 21900 0 21900 15 0 0 0 -1 -1
T 100 16900 15 8 1 0 0 4 1
I
T 100 18900 15 8 1 0 0 4 1
J
T 100 20900 15 8 1 0 0 4 1
K
T 100 15000 15 8 1 0 0 4 1
H
T 100 13000 15 8 1 0 0 4 1
G
T 100 11000 15 8 1 0 0 4 1
F
T 100 9000 15 8 1 0 0 4 1
E
T 100 7000 15 8 1 0 0 4 1
D
T 100 5000 15 8 1 0 0 4 1
C
T 100 3000 15 8 1 0 0 4 1
B
T 100 1000 15 8 1 0 0 4 1
A
T 100 28800 15 8 1 0 0 4 1
O
T 100 30800 15 8 1 0 0 4 1
P
T 100 32800 15 8 1 0 0 4 1
Q
T 100 26900 15 8 1 0 0 4 1
N
T 100 24900 15 8 1 0 0 4 1
M
T 100 22900 15 8 1 0 0 4 1
L
L 2000 34000 2000 33800 15 0 0 0 -1 -1
L 4000 34000 4000 33800 15 0 0 0 -1 -1
L 6000 34000 6000 33800 15 0 0 0 -1 -1
L 8000 34000 8000 33800 15 0 0 0 -1 -1
L 10000 34000 10000 33800 15 0 0 0 -1 -1
L 12000 34000 12000 33800 15 0 0 0 -1 -1
L 14000 34000 14000 33800 15 0 0 0 -1 -1
L 16000 34000 16000 33800 15 0 0 0 -1 -1
L 18000 34000 18000 33800 15 0 0 0 -1 -1
L 20000 34000 20000 33800 15 0 0 0 -1 -1
L 22000 34000 22000 33800 15 0 0 0 -1 -1
L 24000 34000 24000 33800 15 0 0 0 -1 -1
L 26000 34000 26000 33800 15 0 0 0 -1 -1
L 28000 34000 28000 33800 15 0 0 0 -1 -1
L 30000 34000 30000 33800 15 0 0 0 -1 -1
L 32000 34000 32000 33800 15 0 0 0 -1 -1
T 1000 33900 15 8 1 0 0 4 1
1
T 3000 33900 15 8 1 0 0 4 1
2
T 5000 33900 15 8 1 0 0 4 1
3
T 7000 33900 15 8 1 0 0 4 1
4
T 9000 33900 15 8 1 0 0 4 1
5
T 11000 33900 15 8 1 0 0 4 1
6
T 13000 33900 15 8 1 0 0 4 1
7
T 15000 33900 15 8 1 0 0 4 1
8
T 17000 33900 15 8 1 0 0 4 1
9
T 19000 33900 15 8 1 0 0 4 1
10
T 21000 33900 15 8 1 0 0 4 1
11
T 23000 33900 15 8 1 0 0 4 1
12
T 25000 33900 15 8 1 0 0 4 1
13
T 27000 33900 15 8 1 0 0 4 1
14
T 29000 33900 15 8 1 0 0 4 1
15
T 31000 33900 15 8 1 0 0 4 1
16
T 33000 33900 15 8 1 0 0 4 1
17
L 34000 34000 34000 33800 15 0 0 0 -1 -1
L 36000 34000 36000 33800 15 0 0 0 -1 -1
L 38000 34000 38000 33800 15 0 0 0 -1 -1
L 40000 34000 40000 33800 15 0 0 0 -1 -1
L 42000 34000 42000 33800 15 0 0 0 -1 -1
T 35000 33900 15 8 1 0 0 4 1
18
T 37000 33900 15 8 1 0 0 4 1
19
T 39000 33900 15 8 1 0 0 4 1
20
T 41000 33900 15 8 1 0 0 4 1
21
T 43000 33900 15 8 1 0 0 4 1
22
L 2000 200 2000 0 15 0 0 0 -1 -1
L 4000 200 4000 0 15 0 0 0 -1 -1
L 6000 200 6000 0 15 0 0 0 -1 -1
L 8000 200 8000 0 15 0 0 0 -1 -1
L 10000 200 10000 0 15 0 0 0 -1 -1
L 12000 200 12000 0 15 0 0 0 -1 -1
L 14000 200 14000 0 15 0 0 0 -1 -1
L 16000 200 16000 0 15 0 0 0 -1 -1
L 18000 200 18000 0 15 0 0 0 -1 -1
L 20000 200 20000 0 15 0 0 0 -1 -1
L 22000 200 22000 0 15 0 0 0 -1 -1
L 24000 200 24000 0 15 0 0 0 -1 -1
L 26000 200 26000 0 15 0 0 0 -1 -1
L 28000 200 28000 0 15 0 0 0 -1 -1
L 30000 200 30000 0 15 0 0 0 -1 -1
L 32000 200 32000 0 15 0 0 0 -1 -1
L 34000 200 34000 0 15 0 0 0 -1 -1
L 36000 200 36000 0 15 0 0 0 -1 -1
L 38000 200 38000 0 15 0 0 0 -1 -1
L 40000 200 40000 0 15 0 0 0 -1 -1
L 42000 200 42000 0 15 0 0 0 -1 -1
T 1000 100 15 8 1 0 0 4 1
1
T 3000 100 15 8 1 0 0 4 1
2
T 5000 100 15 8 1 0 0 4 1
3
T 7000 100 15 8 1 0 0 4 1
4
T 9000 100 15 8 1 0 0 4 1
5
T 11000 100 15 8 1 0 0 4 1
6
T 13000 100 15 8 1 0 0 4 1
7
T 15000 100 15 8 1 0 0 4 1
8
T 17000 100 15 8 1 0 0 4 1
9
T 19000 100 15 8 1 0 0 4 1
10
T 21000 100 15 8 1 0 0 4 1
11
T 23000 100 15 8 1 0 0 4 1
12
T 25000 100 15 8 1 0 0 4 1
13
T 27000 100 15 8 1 0 0 4 1
14
T 29000 100 15 8 1 0 0 4 1
15
T 31000 100 15 8 1 0 0 4 1
16
T 33000 100 15 8 1 0 0 4 1
17
T 35000 100 15 8 1 0 0 4 1
18
T 37000 100 15 8 1 0 0 4 1
19
T 39000 100 15 8 1 0 0 4 1
20
T 41000 100 15 8 1 0 0 4 1
21
T 43000 100 15 8 1 0 0 4 1
22
