v 20031231 2
B 300 0 1400 2700 3 0 0 0 -1 -1 0 -1 -1 -1 -1 -1
T 400 2800 9 10 1 1 0 0 1
device=HCTL-2000
T 400 3000 8 10 1 1 0 0 1
refdes=U?
T 400 3200 5 10 0 0 0 0 1
footprint=DIP16
T 400 3600 5 10 0 1 0 0 1
description=Quadrature Decoder/Counter Interface
T 400 3400 5 10 0 0 0 0 1
numslots=0
T 708 2500 3 10 0 1 0 0 1
net=Vcc:16
T 682 50 3 10 0 1 0 0 1
net=GND:8
P 1700 2400 2000 2400 1 0 1
{
T 1900 2450 5 10 1 1 0 0 1
pinnumber=1
T 2100 2450 5 10 0 0 0 0 1
pinseq=1
T 2100 2350 5 10 0 0 0 0 1
pintype=tri
T 1400 2400 9 10 1 1 0 1 1
pinlabel=D0
}
P 1700 2100 2000 2100 1 0 1
{
T 1800 2150 5 10 1 1 0 0 1
pinnumber=15
T 2100 2150 5 10 0 0 0 0 1
pinseq=2
T 2100 2050 5 10 0 0 0 0 1
pintype=tri
T 1400 2100 9 10 1 1 0 1 1
pinlabel=D1
}
P 1700 1800 2000 1800 1 0 1
{
T 1800 1850 5 10 1 1 0 0 1
pinnumber=14
T 2100 1850 5 10 0 0 0 0 1
pinseq=3
T 2100 1750 5 10 0 0 0 0 1
pintype=tri
T 1400 1800 9 10 1 1 0 1 1
pinlabel=D2
}
P 1700 1500 2000 1500 1 0 1
{
T 1800 1550 5 10 1 1 0 0 1
pinnumber=13
T 2100 1550 5 10 0 0 0 0 1
pinseq=4
T 2100 1450 5 10 0 0 0 0 1
pintype=tri
T 1400 1500 9 10 1 1 0 1 1
pinlabel=D3
}
P 1700 1200 2000 1200 1 0 1
{
T 1800 1250 5 10 1 1 0 0 1
pinnumber=12
T 2100 1250 5 10 0 0 0 0 1
pinseq=5
T 2100 1150 5 10 0 0 0 0 1
pintype=tri
T 1400 1200 9 10 1 1 0 1 1
pinlabel=D4
}
P 1700 900 2000 900 1 0 1
{
T 1800 950 5 10 1 1 0 0 1
pinnumber=11
T 2100 950 5 10 0 0 0 0 1
pinseq=6
T 2100 850 5 10 0 0 0 0 1
pintype=tri
T 1400 900 9 10 1 1 0 1 1
pinlabel=D5
}
P 1700 600 2000 600 1 0 1
{
T 1800 650 5 10 1 1 0 0 1
pinnumber=10
T 2100 650 5 10 0 0 0 0 1
pinseq=7
T 2100 550 5 10 0 0 0 0 1
pintype=tri
T 1400 600 9 10 1 1 0 1 1
pinlabel=D6
}
P 1700 300 2000 300 1 0 1
{
T 1900 350 5 10 1 1 0 0 1
pinnumber=9
T 2100 350 5 10 0 0 0 0 1
pinseq=8
T 2100 250 5 10 0 0 0 0 1
pintype=tri
T 1400 300 9 10 1 1 0 1 1
pinlabel=D7
}
L 300 2200 400 2100 3 0 0 0 -1 -1
L 400 2100 300 2000 3 0 0 0 -1 -1
P 300 2100 0 2100 1 0 1
{
T 100 2150 5 10 1 1 0 0 1
pinnumber=2
T 400 2150 5 10 0 0 0 0 1
pinseq=9
T 400 2050 5 10 0 0 0 0 1
pintype=clk
T 400 2100 9 10 1 1 0 1 1
pinlabel=CLK
}
P 300 600 0 600 1 0 1
{
T 100 650 5 10 1 1 0 0 1
pinnumber=7
T 400 650 5 10 0 0 0 0 1
pinseq=10
T 400 550 5 10 0 0 0 0 1
pintype=in
T 400 600 9 10 1 1 0 1 1
pinlabel=CHA
}
P 300 300 0 300 1 0 1
{
T 100 350 5 10 1 1 0 0 1
pinnumber=6
T 400 350 5 10 0 0 0 0 1
pinseq=11
T 400 250 5 10 0 0 0 0 1
pintype=in
T 400 300 9 10 1 1 0 1 1
pinlabel=CHB
}
P 300 2400 0 2400 1 0 1
{
T 100 2450 5 10 1 1 0 0 1
pinnumber=3
T 400 2450 5 10 0 0 0 0 1
pinseq=12
T 400 2350 5 10 0 0 0 0 1
pintype=in
T 400 2400 9 10 1 1 0 1 1
pinlabel=SEL
}
V 250 1800 50 6 0 0 0 -1 -1 0 -1 -1 -1 -1 -1
P 200 1800 0 1800 1 0 1
{
T 100 1850 5 10 1 1 0 0 1
pinnumber=4
T 400 1850 5 10 0 0 0 0 1
pinseq=13
T 400 1750 5 10 0 0 0 0 1
pintype=in
T 400 1800 9 10 1 1 0 1 1
pinlabel=/OE
}
V 250 1500 50 6 0 0 0 -1 -1 0 -1 -1 -1 -1 -1
P 200 1500 0 1500 1 0 1
{
T 100 1550 5 10 1 1 0 0 1
pinnumber=5
T 400 1550 5 10 0 0 0 0 1
pinseq=14
T 400 1450 5 10 0 0 0 0 1
pintype=in
T 400 1500 9 10 1 1 0 1 1
pinlabel=/RST
}
