v 20031011 2
L 300 200 300 800 3 0 0 0 -1 -1
L 300 800 800 500 3 0 0 0 -1 -1
L 800 500 300 200 3 0 0 0 -1 -1
V 850 500 50 6 0 0 0 -1 -1 0 -1 -1 -1 -1 -1
P 0 500 300 500 1 0 0
{
T 100 600 5 10 1 1 0 0 1
pinnumber=1
T 100 600 5 10 0 0 0 0 1
pinseq=1
}
P 1200 500 900 500 1 0 0
{
T 1000 600 5 10 1 1 0 0 1
pinnumber=2
T 1000 600 5 10 0 0 0 0 1
pinseq=2
}
T 500 800 8 10 0 1 0 0 1
slot=1
T 700 200 5 10 0 1 0 0 1
numslots=6
T 300 0 9 10 1 1 0 0 1
device=7414
L 390 560 390 360 3 0 0 0 -1 -1
L 390 360 450 400 3 0 0 0 -1 -1
L 390 560 450 600 3 0 0 0 -1 -1
L 390 360 330 320 3 0 0 0 -1 -1
L 450 400 450 600 3 0 0 0 -1 -1
L 450 600 520 640 3 0 0 0 -1 -1
T 880 800 8 10 0 1 0 0 1
slotdef=1:1,2
T 870 650 5 10 0 1 0 0 1
slotdef=2:3,4
T 880 510 5 10 0 1 0 0 1
slotdef=3:5,6
T 880 350 5 10 0 1 0 0 1
slotdef=4:9,8
T 840 190 5 10 0 1 0 0 1
slotdef=5:11,10
T 830 20 5 10 0 1 0 0 1
slotdef=6:13,12
T 800 800 8 10 1 1 0 0 1
refdes=U?
T 300 1400 9 10 0 0 0 0 1
pins=14
