v 20031011 2
V 600 500 300 3 0 0 0 -1 -1 0 0 -1 -1 -1 -1
P 700 700 700 1000 1 0 1
{
T 750 800 5 10 0 0 0 0 1
pinnumber=1
T 750 800 5 10 0 2 0 0 1
pinseq=1
}
P 700 300 700 0 1 0 1
{
T 750 50 5 10 0 0 0 0 1
pinnumber=3
T 750 50 5 10 0 0 0 0 1
pinseq=3
}
P 0 500 300 500 1 0 0
{
T 150 550 5 10 0 0 0 0 1
pinnumber=2
T 150 550 5 10 0 0 0 0 1
pinseq=2
}
L 300 500 500 500 3 0 0 0 -1 -1
L 500 700 500 300 3 0 0 0 -1 -1
L 700 700 500 550 3 0 0 0 -1 -1
L 500 450 700 300 3 0 0 0 -1 -1
L 634 350 606 419 3 0 0 0 -1 -1
L 634 350 560 350 3 0 0 0 -1 -1
L 560 350 606 419 3 0 0 0 -1 -1
