v 20080706 2
L 300 800 800 500 3 0 0 0 -1 -1
L 800 500 300 200 3 0 0 0 -1 -1
L 300 800 300 500 3 0 0 0 -1 -1
L 300 500 300 200 3 0 0 0 -1 -1
V 850 500 50 6 0 0 0 -1 -1 0 0 -1 -1 -1 -1
P 1100 500 900 500 1 0 0
{
T 915 550 5 8 0 1 0 0 1
pinnumber=Z
T 915 550 5 8 0 0 0 0 1
pinlabel=Z
T 915 550 5 8 0 0 0 0 1
pintype=out
T 915 550 5 8 0 0 0 0 1
pinseq=1
}
P 300 500 0 500 1 0 1
{
T 100 550 5 8 0 1 0 0 1
pinnumber=D
T 100 550 5 8 0 1 0 0 1
pinlabel=D
T 100 550 5 8 0 1 0 0 1
pintype=in
T 100 550 5 8 0 0 0 0 1
pinseq=2
}
T 500 200 5 10 1 1 0 2 1
refdes=INV?
T 700 765 8 6 1 0 0 0 1
P=2u
T 700 665 8 6 1 0 0 0 1
N=1u
T 0 165 8 10 0 1 0 0 1
source=inv.sch
