.PCB
.REM CREATED BY gEDA GNETLIST
.CON
.COD 2

.REM Vdd1
M1 B M1 S Rlp 2 Vdd 1 X1 6
.REM GND
Cm 2 Cp 2 Rb 1 Rlm 2 V1 2 Vdd 2 X1 2 X1 7
.REM LVH
M1 D M1 G Rb 2 X1 3
.REM i
V1 1 X1 1
.REM p
Cp 1 Rlp 1 Rt 1 X1 5
.REM m
Cm 1 Rlm 1 Rt 2 X1 4
.EOD
