.PCB
.REM CREATED BY gEDA GNETLIST
.CON
.COD 2

.REM ten
C3 1 R1 2 R2 1 U2 1
.REM eleven
C4 1 R2 2 U2 2
.REM GND
CONN1 3
.REM one
CONN1 1 S1 1
.REM five
CONN1 2 T1 2
.REM three
F1 2 T1 1
.REM two
F1 1 S1 2
.REM six
T1 3 U1 4
.REM seven
T1 4 U1 3
.REM nine
C1 2 C2 2 C3 2 C4 2 R1 1 R1 3 U1 2
.REM eight
C1 1 C2 1 U1 1 U2 3
.EOD
