.PCB
.REM CREATED BY gEDA GNETLIST
.CON
.COD 2

.REM unnamed_net2
C2 1 R8 2
.REM Vbase2
C2 2 Q2 2 R3 1 R4 2
.REM Vem2
CE2 2 Q2 1 RE2 2
.REM Vout
Cout 2 RL 2
.REM VColl2
Cout 1 Q2 3 RC2 1
.REM GND
CE1 1 CE2 1 R2 1 R4 1 RE1 1 RE2 1 RL 1 VCC 2
VCC 2 Vinput 2
.REM Vcc
R1 2 R3 2 RC1 2 RC2 2 VCC 1
.REM Vin
R5 1 Vinput 1
.REM unnamed_net1
C1 1 R5 2
.REM Vbase1
C1 2 Q1 2 R1 1 R2 2
.REM Vem1
CE1 2 Q1 1 RE1 2
.REM Vcoll1
Q1 3 R8 1 RC1 1
.EOD
