v 20080706 2
T 0 1400 8 10 1 1 0 0 1
refdes=T?
A 500 1200 98 270 180 3 0 0 0 -1 -1
A 500 1000 98 270 180 3 0 0 0 -1 -1
A 500 800 98 270 180 3 0 0 0 -1 -1
A 500 600 100 270 180 3 0 0 0 -1 -1
A 1000 1200 98 90 180 3 0 0 0 -1 -1
A 500 400 98 270 180 3 0 0 0 -1 -1
A 500 200 98 270 180 3 0 0 0 -1 -1
A 1000 1000 98 90 180 3 0 0 0 -1 -1
A 1000 800 98 90 180 3 0 0 0 -1 -1
A 1000 600 98 90 180 3 0 0 0 -1 -1
A 1000 400 98 90 180 3 0 0 0 -1 -1
A 1000 200 98 90 180 3 0 0 0 -1 -1
L 500 1300 200 1300 3 0 0 0 -1 -1
L 500 100 200 100 3 0 0 0 -1 -1
L 1000 1300 1300 1300 3 0 0 0 -1 -1
L 1000 100 1300 100 3 0 0 0 -1 -1
L 700 1400 700 0 3 0 0 0 -1 -1
L 800 1400 800 0 3 0 0 0 -1 -1
P 200 1300 0 1300 1 0 1
{
T 200 1100 5 10 1 1 0 0 1
pinnumber=4
T 300 1400 5 10 0 0 0 0 1
pinseq=4
T 200 1300 5 10 0 1 0 0 1
pintype=pas
T 200 1300 5 10 0 1 0 0 1
pinlabel=4
}
P 200 100 0 100 1 0 1
{
T 200 200 5 10 1 1 0 0 1
pinnumber=6
T 200 0 5 10 0 0 0 0 1
pinseq=6
T 200 100 5 10 0 0 0 0 1
pintype=pas
T 200 100 5 10 0 1 0 0 1
pinlabel=6
}
P 1300 1300 1500 1300 1 0 1
{
T 1300 1100 5 10 1 1 0 0 1
pinnumber=3
T 1300 1400 5 10 0 0 0 0 1
pinseq=3
T 1300 1300 5 10 0 1 0 0 1
pintype=pas
T 1300 1300 5 10 0 1 0 0 1
pinlabel=3
}
P 1300 100 1500 100 1 0 1
{
T 1300 200 5 10 1 1 0 0 1
pinnumber=1
T 1300 0 5 10 0 0 0 0 1
pinseq=1
T 1300 100 5 10 0 1 0 0 1
pintype=pas
T 1300 100 5 10 0 1 0 0 1
pinlabel=1
}
T 0 1800 8 10 0 0 0 0 1
device=T1-1T-W38
L 1000 700 1300 700 3 0 0 0 -1 -1
P 1300 700 1500 700 1 0 1
{
T 1300 800 5 10 1 1 0 0 1
pinnumber=2
T 1300 600 5 10 0 0 0 0 1
pinseq=2
T 1300 700 5 10 0 0 0 0 1
pintype=pas
T 1300 700 5 10 0 1 0 0 1
pinlabel=2
}
T 0 2000 8 10 0 0 0 0 1
footprint=MINICIRCUITS_W38
V 600 1450 52 3 0 0 0 -1 -1 0 -1 -1 -1 -1 -1
V 900 1450 52 3 0 0 0 -1 -1 0 -1 -1 -1 -1 -1
T 300 1600 8 10 1 1 0 0 1
value=T1-1T-W38
