PINLIST,2
(DRAWING,GEDA.PIN,1-1
(SYM,1
DATA,2,A1
DATA,3,model
DATA,4,unknown
)
(SYM,2
DATA,2,CM
DATA,3,20p
DATA,4,unknown
PIN,,GND,1-1,5,23,2
PIN,,M,1-1,5,23,1
)
(SYM,3
DATA,2,CP
DATA,3,20p
DATA,4,unknown
PIN,,GND,1-1,5,23,2
PIN,,P,1-1,5,23,1
)
(SYM,4
DATA,2,M1
DATA,3,PMOS_TRANSISTOR
DATA,4,unknown
PIN,,LVH,1-1,5,23,G
PIN,,LVH,1-1,5,23,D
PIN,,VDD1,1-1,5,23,B
PIN,,VDD1,1-1,5,23,S
)
(SYM,5
DATA,2,RB
DATA,3,5.6k
DATA,4,unknown
PIN,,GND,1-1,5,23,1
PIN,,LVH,1-1,5,23,2
)
(SYM,6
DATA,2,RLM
DATA,3,500k
DATA,4,unknown
PIN,,M,1-1,5,23,1
PIN,,GND,1-1,5,23,2
)
(SYM,7
DATA,2,RLP
DATA,3,1meg
DATA,4,unknown
PIN,,P,1-1,5,23,1
PIN,,VDD1,1-1,5,23,2
)
(SYM,8
DATA,2,RT
DATA,3,1k
DATA,4,unknown
PIN,,P,1-1,5,23,1
PIN,,M,1-1,5,23,2
)
(SYM,9
DATA,2,V1
DATA,3,pulse 3.3 0 1u 10p 10p 1.25u 2.5u
DATA,4,none
PIN,,GND,1-1,5,23,2
PIN,,I,1-1,5,23,1
)
(SYM,10
DATA,2,VDD
DATA,3,DC 3.3V
DATA,4,none
PIN,,GND,1-1,5,23,2
PIN,,VDD1,1-1,5,23,1
)
(SYM,11
DATA,2,X1
DATA,3,LVD
DATA,4,unknown
PIN,,GND,1-1,5,23,7
PIN,,VDD1,1-1,5,23,6
PIN,,GND,1-1,5,23,2
PIN,,LVH,1-1,5,23,3
PIN,,I,1-1,5,23,1
PIN,,P,1-1,5,23,5
PIN,,M,1-1,5,23,4
)
)
SIG,VDD1,1-1,5,VDD1
SIG,GND,1-1,5,GND
SIG,LVH,1-1,5,LVH
SIG,I,1-1,5,I
SIG,P,1-1,5,P
SIG,M,1-1,5,M
)
