v 20031231 2
T 400 8000 5 10 0 0 0 0 1
device=FND5148
T 400 7700 5 10 0 0 0 0 1
description=Dual 7-segment + dot red led display
T 400 7400 5 10 0 0 0 0 1
documentation=Unknown
T 400 7100 5 10 0 0 0 0 1
author=Jan Stap stapATdse.nl
T 400 6500 5 10 0 0 0 0 1
date=$Date$
T 400 6200 5 10 0 0 0 0 1
rev=$Revision$
T 400 5900 5 10 0 0 0 0 1
auth=$Author$
T 400 5600 5 10 0 0 0 0 1
fname=$Source$
T 400 5300 5 10 0 0 0 0 1
footprint=DIL 18 600
T 400 5000 5 10 0 0 0 0 1
slot=1
T 400 4700 5 10 0 0 0 0 1
numslots=2
T 400 4400 5 10 0 0 0 0 1
slotdef=1:7,9,6,8,10,12,11,13,5
T 400 4100 5 10 0 0 0 0 1
slotdef=2:2,3,1,16,14,17,15,18,4
T 2600 3700 8 10 1 1 0 6 1
refdes=U?
T 400 3650 9 10 1 0 0 0 1
FND5148
B 300 0 2300 3600 3 0 0 0 -1 -1 0 -1 -1 -1 -1 -1
P 300 3400 0 3400 1 0 1
{
T 200 3450 5 8 1 1 0 6 1
pinnumber=7
T 200 3350 5 8 0 1 0 8 1
pinseq=1
T 350 3400 9 8 1 1 0 0 1
pinlabel=L1
T 350 3350 5 8 0 1 0 2 1
pintype=pas
}
P 300 3000 0 3000 1 0 1
{
T 200 3050 5 8 1 1 0 6 1
pinnumber=9
T 200 2950 5 8 0 1 0 8 1
pinseq=2
T 350 3000 9 8 1 1 0 0 1
pinlabel=L2
T 350 2950 5 8 0 1 0 2 1
pintype=pas
}
P 300 2600 0 2600 1 0 1
{
T 200 2650 5 8 1 1 0 6 1
pinnumber=6
T 200 2550 5 8 0 1 0 8 1
pinseq=3
T 350 2600 9 8 1 1 0 0 1
pinlabel=L3
T 350 2550 5 8 0 1 0 2 1
pintype=pas
}
P 300 2200 0 2200 1 0 1
{
T 200 2250 5 8 1 1 0 6 1
pinnumber=8
T 200 2150 5 8 0 1 0 8 1
pinseq=4
T 350 2200 9 8 1 1 0 0 1
pinlabel=L4
T 350 2150 5 8 0 1 0 2 1
pintype=pas
}
P 300 1800 0 1800 1 0 1
{
T 200 1850 5 8 1 1 0 6 1
pinnumber=10
T 200 1750 5 8 0 1 0 8 1
pinseq=5
T 350 1800 9 8 1 1 0 0 1
pinlabel=L5
T 350 1750 5 8 0 1 0 2 1
pintype=pas
}
P 300 1400 0 1400 1 0 1
{
T 200 1450 5 8 1 1 0 6 1
pinnumber=12
T 200 1350 5 8 0 1 0 8 1
pinseq=6
T 350 1400 9 8 1 1 0 0 1
pinlabel=L6
T 350 1350 5 8 0 1 0 2 1
pintype=pas
}
P 300 1000 0 1000 1 0 1
{
T 200 1050 5 8 1 1 0 6 1
pinnumber=11
T 200 950 5 8 0 1 0 8 1
pinseq=7
T 350 1000 9 8 1 1 0 0 1
pinlabel=L7
T 350 950 5 8 0 1 0 2 1
pintype=pas
}
P 300 600 0 600 1 0 1
{
T 200 650 5 8 1 1 0 6 1
pinnumber=13
T 200 550 5 8 0 1 0 8 1
pinseq=8
T 350 600 9 8 1 1 0 0 1
pinlabel=L8
T 350 550 5 8 0 1 0 2 1
pintype=pas
}
P 300 200 0 200 1 0 1
{
T 200 250 5 8 1 1 0 6 1
pinnumber=5
T 200 150 5 8 0 1 0 8 1
pinseq=9
T 350 200 9 8 1 1 0 0 1
pinlabel=Com
T 350 150 5 8 0 1 0 2 1
pintype=pas
}
L 1000 3100 900 1900 3 0 0 0 -1 -1
L 1200 3100 1100 1900 3 0 0 0 -1 -1
L 2100 3100 2000 1900 3 0 0 0 -1 -1
L 2300 3100 2200 1900 3 0 0 0 -1 -1
L 900 1700 800 500 3 0 0 0 -1 -1
L 2200 1700 2100 500 3 0 0 0 -1 -1
L 1200 3100 2100 3100 3 0 0 0 -1 -1
L 1100 1900 2000 1900 3 0 0 0 -1 -1
L 1100 1700 2000 1700 3 0 0 0 -1 -1
L 1100 1700 1000 500 3 0 0 0 -1 -1
L 1000 500 1900 500 3 0 0 0 -1 -1
L 1900 500 2000 1700 3 0 0 0 -1 -1
L 900 1900 1100 1700 3 0 0 0 -1 -1
L 1100 1900 900 1700 3 0 0 0 -1 -1
L 2000 1900 2200 1700 3 0 0 0 -1 -1
L 2200 1900 2000 1700 3 0 0 0 -1 -1
L 1200 3300 2100 3300 3 0 0 0 -1 -1
L 1000 300 1900 300 3 0 0 0 -1 -1
L 1200 3300 1000 3100 3 0 0 0 -1 -1
L 1100 3200 1200 3100 3 0 0 0 -1 -1
L 2100 3300 2300 3100 3 0 0 0 -1 -1
L 2200 3200 2100 3100 3 0 0 0 -1 -1
L 800 500 1000 300 3 0 0 0 -1 -1
L 1000 500 900 400 3 0 0 0 -1 -1
L 1900 300 2100 500 3 0 0 0 -1 -1
L 1900 500 2000 400 3 0 0 0 -1 -1
V 2300 400 102 3 0 0 0 -1 -1 0 -1 -1 -1 -1 -1
T 1610 3158 9 7 1 0 0 0 1
L1
T 998 2500 9 7 1 0 0 0 1
L2
T 2100 2500 9 7 1 0 0 0 1
L3
T 1500 1754 9 7 1 0 0 0 1
L4
T 895 1100 9 7 1 0 0 0 1
L5
T 1993 1100 9 7 1 0 0 0 1
L6
T 1410 355 9 7 1 0 0 0 1
L7
T 2240 361 9 7 1 0 0 0 1
L8
