v 20031231 2
P 0 200 300 200 1 0 0
{
T 100 400 5 10 0 0 0 0 1
pinnumber=1
T 100 400 5 10 0 0 0 0 1
pinseq=1
}
L 300 200 500 0 3 0 0 0 -1 -1
L 500 0 1100 0 3 0 0 0 -1 -1
L 1300 200 1100 400 3 0 0 0 -1 -1
L 1100 400 500 400 3 0 0 0 -1 -1
T 300 600 5 10 0 0 0 0 1
device=interpage_bidir
T 300 800 5 10 0 0 0 0 1
graphical=1
L 500 400 300 200 3 0 0 0 -1 -1
L 1100 0 1300 200 3 0 0 0 -1 -1
T 1500 200 5 10 1 1 0 0 1
pages=?
