v 20031231 2
L 300 1500 300 100 3 0 0 0 -1 -1
L 1700 800 300 1500 3 0 0 0 -1 -1
P 300 1100 0 1100 1 0 1
{
T 150 1125 5 8 1 1 0 0 1
pinnumber=14
T 150 1125 5 8 0 0 0 0 1
pinseq=14
}
P 300 500 0 500 1 0 1
{
T 150 525 5 8 1 1 0 0 1
pinnumber=1
T 150 525 5 8 0 0 0 0 1
pinseq=1
}
P 500 1700 500 1400 1 0 0
{
T 550 1475 5 8 1 1 0 0 1
pinnumber=12
T 550 1475 5 8 0 0 0 0 1
pinseq=12
}
P 500 200 500 -100 1 0 1
{
T 525 50 5 8 1 1 0 0 1
pinnumber=3
T 525 50 5 8 0 0 0 0 1
pinseq=3
}
L 400 1150 400 1050 3 0 0 0 -1 -1
L 350 1100 450 1100 3 0 0 0 -1 -1
L 350 500 450 500 3 0 0 0 -1 -1
L 1700 800 300 100 3 0 0 0 -1 -1
T 1125 1750 8 8 0 0 0 0 1
device=NE592
T 425 750 9 10 1 0 0 0 1
NE592
T 100 1600 8 10 1 1 0 0 1
refdes=U?
P 700 1600 700 1300 1 0 0
{
T 750 1375 5 8 1 1 0 0 1
pinnumber=11
T 750 1375 5 8 0 0 0 0 1
pinseq=11
}
P 1600 1000 1300 1000 1 0 0
{
T 1350 1075 5 8 1 1 0 0 1
pinnumber=8
T 1350 1075 5 8 0 0 0 0 1
pinseq=8
}
P 1600 600 1300 600 1 0 0
{
T 1350 475 5 8 1 1 0 0 1
pinnumber=7
T 1350 475 5 8 0 0 0 0 1
pinseq=7
}
P 700 300 700 0 1 0 1
{
T 725 150 5 8 1 1 0 0 1
pinnumber=4
T 725 150 5 8 0 0 0 0 1
pinseq=12
}
P 1100 1400 1100 1100 1 0 0
{
T 1150 1175 5 8 1 1 0 0 1
pinnumber=10
T 1150 1175 5 8 0 0 0 0 1
pinseq=10
}
P 1100 500 1100 200 1 0 1
{
T 1125 350 5 8 1 1 0 0 1
pinnumber=5
T 1125 350 5 8 0 0 0 0 1
pinseq=5
}
T 1100 1900 8 10 0 0 0 0 1
footprint=DIP14
