v 20031231 2
P 1200 500 900 500 1 0 0
{
T 950 550 5 10 1 1 0 0 1
pinnumber=8
T 950 550 5 10 0 0 0 0 1
pinseq=8
}
T 0 0 9 8 1 0 0 0 1
OSC
B 0 200 900 600 3 0 0 0 -1 -1 0 -1 -1 -1 -1 -1
T 900 900 5 10 0 0 0 0 1
device=OSC
T 0 900 8 10 1 1 0 0 1
refdes=U?
