v 20031231 2
P 0 2500 300 2500 1 0 0
{
T 250 2550 5 8 1 1 0 6 1
pinnumber=3
T 100 2550 5 8 0 0 0 0 1
pinseq=3
T 0 2500 5 10 0 1 0 0 1
pintype=in
T 360 2500 9 8 1 1 0 0 1
pinlabel=A14
}
P 0 3100 300 3100 1 0 0
{
T 250 3150 5 8 1 1 0 6 1
pinnumber=4
T 100 3150 5 8 0 0 0 0 1
pinseq=4
T 0 3100 5 10 0 1 0 0 1
pintype=in
T 360 3100 9 8 1 1 0 0 1
pinlabel=A12
}
P 0 4600 300 4600 1 0 0
{
T 250 4650 5 8 1 1 0 6 1
pinnumber=5
T 100 4650 5 8 0 0 0 0 1
pinseq=5
T 0 4600 5 10 0 1 0 0 1
pintype=in
T 360 4600 9 8 1 1 0 0 1
pinlabel=A7
}
P 0 4900 300 4900 1 0 0
{
T 250 4950 5 8 1 1 0 6 1
pinnumber=6
T 100 4950 5 8 0 0 0 0 1
pinseq=6
T 0 4900 5 10 0 1 0 0 1
pintype=in
T 360 4900 9 8 1 1 0 0 1
pinlabel=A6
}
P 0 5200 300 5200 1 0 0
{
T 250 5250 5 8 1 1 0 6 1
pinnumber=7
T 100 5250 5 8 0 0 0 0 1
pinseq=7
T 0 5200 5 10 0 1 0 0 1
pintype=in
T 360 5200 9 8 1 1 0 0 1
pinlabel=A5 
}
P 0 5500 300 5500 1 0 0
{
T 250 5550 5 8 1 1 0 6 1
pinnumber=8
T 100 5550 5 8 0 0 0 0 1
pinseq=8
T 0 5500 5 10 0 1 0 0 1
pintype=in
T 360 5500 9 8 1 1 0 0 1
pinlabel=A4
}
P 0 5800 300 5800 1 0 0
{
T 250 5850 5 8 1 1 0 6 1
pinnumber=9
T 100 5850 5 8 0 0 0 0 1
pinseq=9
T 0 5800 5 10 0 1 0 0 1
pintype=in
T 360 5800 9 8 1 1 0 0 1
pinlabel=A3
}
P 0 6100 300 6100 1 0 0
{
T 250 6150 5 8 1 1 0 6 1
pinnumber=10
T 100 6150 5 8 0 0 0 0 1
pinseq=10
T 0 6100 5 10 0 1 0 0 1
pintype=in
T 360 6100 9 8 1 1 0 0 1
pinlabel=A2
}
P 0 6400 300 6400 1 0 0
{
T 250 6450 5 8 1 1 0 6 1
pinnumber=11
T 100 6450 5 8 0 0 0 0 1
pinseq=11
T 0 6400 5 10 0 1 0 0 1
pintype=in
T 360 6400 9 8 1 1 0 0 1
pinlabel=A1
}
P 0 6700 300 6700 1 0 0
{
T 250 6750 5 8 1 1 0 6 1
pinnumber=12
T 100 6750 5 8 0 0 0 0 1
pinseq=12
T 0 6700 5 10 0 1 0 0 1
pintype=in
T 360 6700 9 8 1 1 0 0 1
pinlabel=A0
}
P 2300 6700 2600 6700 1 0 1
{
T 2385 6750 5 8 1 1 0 0 1
pinnumber=13
T 2385 6750 5 8 0 0 0 0 1
pinseq=13
T 2300 6700 5 10 0 1 0 0 1
pintype=tri
T 2060 6700 9 8 1 1 0 0 1
pinlabel=D0 
}
P 2300 6400 2600 6400 1 0 1
{
T 2385 6450 5 8 1 1 0 0 1
pinnumber=14
T 2385 6450 5 8 0 0 0 0 1
pinseq=14
T 2300 6400 5 10 0 1 0 0 1
pintype=tri
T 2060 6400 9 8 1 1 0 0 1
pinlabel=D1
}
P 2300 6100 2600 6100 1 0 1
{
T 2385 6150 5 8 1 1 0 0 1
pinnumber=15
T 2385 6150 5 8 0 0 0 0 1
pinseq=15
T 2300 6100 5 10 0 1 0 0 1
pintype=tri
T 2060 6100 9 8 1 1 0 0 1
pinlabel=D2
}
P 0 800 300 800 1 0 0
{
T 250 850 5 8 1 1 0 6 1
pinnumber=29
T 100 850 5 8 0 0 0 0 1
pinseq=29
T 0 800 5 10 0 1 0 0 1
pintype=in
T 360 800 9 8 1 1 0 0 1
pinlabel=WE
}
L 360 934 560 934 3 0 0 0 -1 -1
P 0 2800 300 2800 1 0 0
{
T 250 2850 5 8 1 1 0 6 1
pinnumber=28
T 100 2850 5 8 0 0 0 0 1
pinseq=28
T 0 2800 5 10 0 1 0 0 1
pintype=in
T 360 2800 9 8 1 1 0 0 1
pinlabel=A13
}
P 0 4300 300 4300 1 0 0
{
T 250 4350 5 8 1 1 0 6 1
pinnumber=27
T 50 4350 5 8 0 0 0 0 1
pinseq=27
T -50 4300 5 10 0 1 0 0 1
pintype=in
T 360 4300 9 8 1 1 0 0 1
pinlabel=A8
}
P 0 4000 300 4000 1 0 0
{
T 250 4050 5 8 1 1 0 6 1
pinnumber=26
T 100 4050 5 8 0 0 0 0 1
pinseq=26
T 0 4000 5 10 0 1 0 0 1
pintype=in
T 360 4000 9 8 1 1 0 0 1
pinlabel=A9
}
P 0 3400 300 3400 1 0 0
{
T 250 3450 5 8 1 1 0 6 1
pinnumber=25
T 100 3450 5 8 0 0 0 0 1
pinseq=25
T 0 3400 5 10 0 1 0 0 1
pintype=in
T 360 3400 9 8 1 1 0 0 1
pinlabel=A11
}
V 250 500 50 6 0 0 0 -1 -1 0 -1 -1 -1 -1 -1
P 0 500 200 500 1 0 0
{
T 215 550 5 8 1 1 0 6 1
pinnumber=24
T 15 550 5 8 0 0 0 0 1
pinseq=24
T 0 500 5 10 0 1 0 0 1
pintype=in
T 360 500 9 8 1 1 0 0 1
pinlabel=OE
}
L 360 634 560 634 3 0 0 0 -1 -1
P 0 3700 300 3700 1 0 0
{
T 250 3750 5 8 1 1 0 6 1
pinnumber=23
T 100 3750 5 8 0 0 0 0 1
pinseq=23
T 0 3700 5 10 0 1 0 0 1
pintype=in
T 360 3700 9 8 1 1 0 0 1
pinlabel=A10
}
V 250 210 50 6 0 0 0 -1 -1 0 -1 -1 -1 -1 -1
P 0 200 200 200 1 0 0
{
T 215 250 5 8 1 1 0 6 1
pinnumber=22
T 15 250 5 8 0 0 0 0 1
pinseq=22
T 0 200 5 10 0 1 0 0 1
pintype=in
T 360 200 9 8 1 1 0 0 1
pinlabel=CS
}
L 360 334 560 334 3 0 0 0 -1 -1
P 2300 4600 2600 4600 1 0 1
{
T 2385 4650 5 8 1 1 0 0 1
pinnumber=21
T 2385 4650 5 8 0 0 0 0 1
pinseq=21
T 2300 4600 5 10 0 1 0 0 1
pintype=tri
T 2060 4600 9 8 1 1 0 0 1
pinlabel=D7
}
P 2300 4900 2600 4900 1 0 1
{
T 2385 4950 5 8 1 1 0 0 1
pinnumber=20
T 2385 4950 5 8 0 0 0 0 1
pinseq=20
T 2300 4900 5 10 0 1 0 0 1
pintype=tri
T 2060 4900 9 8 1 1 0 0 1
pinlabel=D6
}
P 2300 5200 2600 5200 1 0 1
{
T 2385 5250 5 8 1 1 0 0 1
pinnumber=19
T 2385 5250 5 8 0 0 0 0 1
pinseq=19
T 2300 5200 5 10 0 1 0 0 1
pintype=tri
T 2060 5200 9 8 1 1 0 0 1
pinlabel=D5
}
P 2300 5500 2600 5500 1 0 1
{
T 2385 5550 5 8 1 1 0 0 1
pinnumber=18
T 2385 5550 5 8 0 0 0 0 1
pinseq=18
T 2300 5500 5 10 0 1 0 0 1
pintype=tri
T 2060 5500 9 8 1 1 0 0 1
pinlabel=D4
}
P 2300 5800 2600 5800 1 0 1
{
T 2385 5850 5 8 1 1 0 0 1
pinnumber=17
T 2385 5850 5 8 0 0 0 0 1
pinseq=17
T 2300 5800 5 10 0 1 0 0 1
pintype=tri
T 2060 5800 9 8 1 1 0 0 1
pinlabel=D3
}
T 300 7050 9 10 1 0 0 0 1
628512
B 300 0 2000 7000 3 0 0 0 -1 -1 0 -1 -1 -1 -1 -1
T 2400 7000 5 10 0 0 0 0 1
device=628512
T 2300 7100 8 10 1 1 0 6 1
refdes=U?
P 0 2200 300 2200 1 0 0
{
T 250 2250 5 8 1 1 0 6 1
pinnumber=31
T 100 2250 5 8 0 0 0 0 1
pinseq=31
T 0 2200 5 10 0 1 0 0 1
pintype=in
T 360 2200 9 8 1 1 0 0 1
pinlabel=A15
}
P 0 1900 300 1900 1 0 0
{
T 250 1950 5 8 1 1 0 6 1
pinnumber=2
T 100 1950 5 8 0 0 0 0 1
pinseq=2
T 0 1900 5 10 0 1 0 0 1
pintype=in
T 360 1900 9 8 1 1 0 0 1
pinlabel=A16
}
P 0 1600 300 1600 1 0 0
{
T 250 1650 5 8 1 1 0 6 1
pinnumber=30
T 100 1650 5 8 0 0 0 0 1
pinseq=30
T 0 1600 5 10 0 1 0 0 1
pintype=in
T 360 1600 9 8 1 1 0 0 1
pinlabel=A17
}
P 0 1300 300 1300 1 0 0
{
T 250 1350 5 8 1 1 0 6 1
pinnumber=1
T 100 1350 5 8 0 0 0 0 1
pinseq=1
T 0 1300 5 10 0 1 0 0 1
pintype=in
T 360 1300 9 8 1 1 0 0 1
pinlabel=A18
}
T 2400 7400 5 10 0 0 0 0 1
net=Vcc:32
T 2400 7600 5 10 0 0 0 0 1
numslots=0
T 2400 7200 5 10 0 0 0 0 1
net=GND:16
T 2400 7800 5 10 0 0 0 0 1
footprint=none
