v 20031231 2
P 1900 6300 2200 6300 1 0 1
{
T 2000 6350 5 8 1 1 0 0 1
pinnumber=2
T 2000 6250 5 8 0 1 0 2 1
pinseq=2
T 1850 6300 5 8 0 1 0 8 1
pintype=io
T 1850 6300 9 8 1 1 0 6 1
pinlabel=PA0
}
P 1900 6000 2200 6000 1 0 1
{
T 2000 6050 5 8 1 1 0 0 1
pinnumber=3
T 2000 5950 5 8 0 1 0 2 1
pinseq=3
T 1850 6000 5 8 0 1 0 8 1
pintype=io
T 1850 6000 9 8 1 1 0 6 1
pinlabel=PA1
}
P 1900 5700 2200 5700 1 0 1
{
T 2000 5750 5 8 1 1 0 0 1
pinnumber=4
T 2000 5650 5 8 0 1 0 2 1
pinseq=4
T 1850 5700 5 8 0 1 0 8 1
pintype=io
T 1850 5700 9 8 1 1 0 6 1
pinlabel=PA2
}
P 1900 5400 2200 5400 1 0 1
{
T 2000 5450 5 8 1 1 0 0 1
pinnumber=5
T 2000 5350 5 8 0 1 0 2 1
pinseq=5
T 1850 5400 5 8 0 1 0 8 1
pintype=io
T 1850 5400 9 8 1 1 0 6 1
pinlabel=PA3
}
P 1900 5100 2200 5100 1 0 1
{
T 2000 5150 5 8 1 1 0 0 1
pinnumber=6
T 2000 5050 5 8 0 1 0 2 1
pinseq=6
T 1850 5100 5 8 0 1 0 8 1
pintype=io
T 1850 5100 9 8 1 1 0 6 1
pinlabel=PA4
}
P 1900 4800 2200 4800 1 0 1
{
T 2000 4850 5 8 1 1 0 0 1
pinnumber=7
T 2000 4750 5 8 0 1 0 2 1
pinseq=7
T 1850 4800 5 8 0 1 0 8 1
pintype=io
T 1850 4800 9 8 1 1 0 6 1
pinlabel=PA5
}
P 1900 4500 2200 4500 1 0 1
{
T 2000 4550 5 8 1 1 0 0 1
pinnumber=8
T 2000 4450 5 8 0 1 0 2 1
pinseq=8
T 1850 4500 5 8 0 1 0 8 1
pintype=io
T 1850 4500 9 8 1 1 0 6 1
pinlabel=PA6
}
P 1900 4200 2200 4200 1 0 1
{
T 2000 4250 5 8 1 1 0 0 1
pinnumber=9
T 2000 4150 5 8 0 1 0 2 1
pinseq=9
T 1850 4200 5 8 0 1 0 8 1
pintype=io
T 1850 4200 9 8 1 1 0 6 1
pinlabel=PA7
}
P 1900 3600 2200 3600 1 0 1
{
T 2000 3650 5 8 1 1 0 0 1
pinnumber=10
T 2000 3550 5 8 0 1 0 2 1
pinseq=10
T 1850 3600 5 8 0 1 0 8 1
pintype=io
T 1850 3600 9 8 1 1 0 6 1
pinlabel=PB0
}
P 1900 3300 2200 3300 1 0 1
{
T 2000 3350 5 8 1 1 0 0 1
pinnumber=11
T 2000 3250 5 8 0 1 0 2 1
pinseq=11
T 1850 3300 5 8 0 1 0 8 1
pintype=io
T 1850 3300 9 8 1 1 0 6 1
pinlabel=PB1
}
P 1900 3000 2200 3000 1 0 1
{
T 2000 3050 5 8 1 1 0 0 1
pinnumber=12
T 2000 2950 5 8 0 1 0 2 1
pinseq=12
T 1850 3000 5 8 0 1 0 8 1
pintype=io
T 1850 3000 9 8 1 1 0 6 1
pinlabel=PB2
}
P 1900 2700 2200 2700 1 0 1
{
T 2000 2750 5 8 1 1 0 0 1
pinnumber=13
T 2000 2650 5 8 0 1 0 2 1
pinseq=13
T 1850 2700 5 8 0 1 0 8 1
pintype=io
T 1850 2700 9 8 1 1 0 6 1
pinlabel=PB3
}
P 1900 2400 2200 2400 1 0 1
{
T 2000 2450 5 8 1 1 0 0 1
pinnumber=14
T 2000 2350 5 8 0 1 0 2 1
pinseq=14
T 1850 2400 5 8 0 1 0 8 1
pintype=io
T 1850 2400 9 8 1 1 0 6 1
pinlabel=PB4
}
P 1900 2100 2200 2100 1 0 1
{
T 2000 2150 5 8 1 1 0 0 1
pinnumber=15
T 2000 2050 5 8 0 1 0 2 1
pinseq=15
T 1850 2100 5 8 0 1 0 8 1
pintype=io
T 1850 2100 9 8 1 1 0 6 1
pinlabel=PB5
}
P 1900 1800 2200 1800 1 0 1
{
T 2000 1850 5 8 1 1 0 0 1
pinnumber=16
T 2000 1750 5 8 0 1 0 2 1
pinseq=16
T 1850 1800 5 8 0 1 0 8 1
pintype=io
T 1850 1800 9 8 1 1 0 6 1
pinlabel=PB6
}
P 1900 1500 2200 1500 1 0 1
{
T 2000 1550 5 8 1 1 0 0 1
pinnumber=17
T 2000 1450 5 8 0 1 0 2 1
pinseq=17
T 1850 1500 5 8 0 1 0 8 1
pintype=io
T 1850 1500 9 8 1 1 0 6 1
pinlabel=PB7
}
P 1900 900 2200 900 1 0 1
{
T 2000 950 5 8 1 1 0 0 1
pinnumber=18
T 2000 850 5 8 0 1 0 2 1
pinseq=18
T 1850 900 5 8 0 1 0 8 1
pintype=in
T 1850 900 9 8 1 1 0 6 1
pinlabel=CB1
}
P 1900 600 2200 600 1 0 1
{
T 2000 650 5 8 1 1 0 0 1
pinnumber=19
T 2000 550 5 8 0 1 0 2 1
pinseq=19
T 1850 600 5 8 0 1 0 8 1
pintype=io
T 1850 600 9 8 1 1 0 6 1
pinlabel=CB2
}
P 1900 6900 2200 6900 1 0 1
{
T 2000 6950 5 8 1 1 0 0 1
pinnumber=39
T 2000 6850 5 8 0 1 0 2 1
pinseq=39
T 1850 6900 5 8 0 1 0 8 1
pintype=io
T 1850 6900 9 8 1 1 0 6 1
pinlabel=CA2
}
P 1900 7200 2200 7200 1 0 1
{
T 2000 7250 5 8 1 1 0 0 1
pinnumber=40
T 2000 7150 5 8 0 1 0 2 1
pinseq=40
T 1850 7200 5 8 0 1 0 8 1
pintype=in
T 1850 7200 9 8 1 1 0 6 1
pinlabel=CA1
}
P 1600 7600 1600 7900 1 0 1
{
T 1650 7700 5 8 1 1 0 0 1
pinnumber=20
T 1650 7700 5 8 0 1 0 2 1
pinseq=20
T 1600 7450 5 8 0 1 0 5 1
pintype=pwr
T 1600 7550 9 8 1 1 0 5 1
pinlabel=VCC
}
P 700 400 700 100 1 0 1
{
T 750 200 5 8 1 1 0 0 1
pinnumber=1
T 750 200 5 8 0 1 0 2 1
pinseq=1
T 700 575 5 8 0 1 0 3 1
pintype=pwr
T 700 450 9 8 1 1 0 3 1
pinlabel=VSS
}
V 350 1200 50 6 0 0 0 -1 -1 0 0 -1 -1 -1 -1
P 100 1200 300 1200 1 0 0
{
T 300 1250 5 8 1 1 0 6 1
pinnumber=37
T 300 1150 5 8 0 1 0 8 1
pinseq=37
T 450 1200 5 8 0 1 0 2 1
pintype=out
T 450 1200 9 8 1 1 0 0 1
pinlabel=IRQB
}
V 350 1500 50 6 0 0 0 -1 -1 0 0 -1 -1 -1 -1
P 100 1500 300 1500 1 0 0
{
T 300 1550 5 8 1 1 0 6 1
pinnumber=38
T 300 1450 5 8 0 1 0 8 1
pinseq=38
T 450 1500 5 8 0 1 0 2 1
pintype=out
T 450 1500 9 8 1 1 0 0 1
pinlabel=IRQA
}
V 350 2100 50 6 0 0 0 -1 -1 0 0 -1 -1 -1 -1
P 100 2100 300 2100 1 0 0
{
T 300 2150 5 8 1 1 0 6 1
pinnumber=23
T 300 2050 5 8 0 1 0 8 1
pinseq=23
T 450 2100 5 8 0 1 0 2 1
pintype=in
T 450 2100 9 8 1 1 0 0 1
pinlabel=CS2
}
P 400 2400 100 2400 1 0 1
{
T 300 2450 5 8 1 1 0 6 1
pinnumber=24
T 300 2350 5 8 0 1 0 8 1
pinseq=24
T 450 2400 5 8 0 1 0 2 1
pintype=in
T 450 2400 9 8 1 1 0 0 1
pinlabel=CS1
}
P 400 2700 100 2700 1 0 1
{
T 300 2750 5 8 1 1 0 6 1
pinnumber=22
T 300 2650 5 8 0 1 0 8 1
pinseq=22
T 450 2700 5 8 0 1 0 2 1
pintype=in
T 450 2700 9 8 1 1 0 0 1
pinlabel=CS0
}
P 300 3300 100 3300 1 0 1
{
T 300 3350 5 8 1 1 0 6 1
pinnumber=34
T 300 3250 5 8 0 1 0 8 1
pinseq=34
T 450 3300 5 8 0 1 0 2 1
pintype=in
T 450 3300 9 8 1 1 0 0 1
pinlabel=RESET
}
P 400 3600 100 3600 1 0 1
{
T 300 3650 5 8 1 1 0 6 1
pinnumber=21
T 300 3550 5 8 0 1 0 8 1
pinseq=21
T 450 3600 5 8 0 1 0 2 1
pintype=in
T 450 3600 9 8 1 1 0 0 1
pinlabel=R/W
}
P 100 3900 400 3900 1 0 0
{
T 300 3950 5 8 1 1 0 6 1
pinnumber=25
T 300 3850 5 8 0 1 0 8 1
pinseq=25
T 450 3900 5 8 0 1 0 2 1
pintype=in
T 450 3900 9 8 1 1 0 0 1
pinlabel=E
}
P 100 4200 400 4200 1 0 0
{
T 300 4250 5 8 1 1 0 6 1
pinnumber=35
T 300 4150 5 8 0 1 0 8 1
pinseq=35
T 450 4200 5 8 0 1 0 2 1
pintype=in
T 450 4200 9 8 1 1 0 0 1
pinlabel=RS1
}
P 100 4500 400 4500 1 0 0
{
T 300 4550 5 8 1 1 0 6 1
pinnumber=36
T 300 4450 5 8 0 1 0 8 1
pinseq=36
T 450 4500 5 8 0 1 0 2 1
pintype=in
T 450 4500 9 8 1 1 0 0 1
pinlabel=RS0
}
P 100 5100 400 5100 1 0 0
{
T 300 5150 5 8 1 1 0 6 1
pinnumber=26
T 300 5050 5 8 0 1 0 8 1
pinseq=26
T 450 5100 9 8 1 1 0 0 1
pinlabel=D7
T 450 5100 5 8 0 1 0 2 1
pintype=io
}
P 100 5400 400 5400 1 0 0
{
T 300 5450 5 8 1 1 0 6 1
pinnumber=27
T 300 5350 5 8 0 1 0 8 1
pinseq=27
T 450 5400 5 8 0 1 0 2 1
pintype=io
T 450 5400 9 8 1 1 0 0 1
pinlabel=D6
}
P 100 5700 400 5700 1 0 0
{
T 300 5750 5 8 1 1 0 6 1
pinnumber=28
T 300 5650 5 8 0 1 0 8 1
pinseq=28
T 450 5700 5 8 0 1 0 2 1
pintype=io
T 450 5700 9 8 1 1 0 0 1
pinlabel=D5
}
P 100 6000 400 6000 1 0 0
{
T 300 6050 5 8 1 1 0 6 1
pinnumber=29
T 300 5950 5 8 0 1 0 8 1
pinseq=29
T 450 6000 5 8 0 1 0 2 1
pintype=io
T 450 6000 9 8 1 1 0 0 1
pinlabel=D4
}
P 100 6300 400 6300 1 0 0
{
T 300 6350 5 8 1 1 0 6 1
pinnumber=30
T 300 6250 5 8 0 1 0 8 1
pinseq=30
T 450 6300 5 8 0 1 0 2 1
pintype=io
T 450 6300 9 8 1 1 0 0 1
pinlabel=D3
}
P 100 6600 400 6600 1 0 0
{
T 300 6650 5 8 1 1 0 6 1
pinnumber=31
T 300 6550 5 8 0 1 0 8 1
pinseq=31
T 450 6600 5 8 0 1 0 2 1
pintype=io
T 450 6600 9 8 1 1 0 0 1
pinlabel=D2
}
P 100 6900 400 6900 1 0 0
{
T 300 6950 5 8 1 1 0 6 1
pinnumber=32
T 300 6850 5 8 0 1 0 8 1
pinseq=32
T 450 6900 5 8 0 1 0 2 1
pintype=io
T 450 6900 9 8 1 1 0 0 1
pinlabel=D1
}
P 100 7200 400 7200 1 0 0
{
T 300 7250 5 8 1 1 0 6 1
pinnumber=33
T 300 7150 5 8 0 1 0 8 1
pinseq=33
T 450 7200 5 8 0 1 0 2 1
pintype=io
T 450 7200 9 8 1 1 0 0 1
pinlabel=D0
}
B 400 400 1500 7200 3 0 0 0 -1 -1 0 0 -1 -1 -1 -1
T 100 100 8 10 1 1 0 0 1
refdes=U?
T 400 7850 5 10 0 0 0 0 1
device=6821
T 400 8645 5 10 0 0 0 0 1
author=Terry J Porter <techmanATd2.net.au>
T 400 8045 5 10 0 0 0 0 1
footprint=DIP40
T 400 8450 5 10 0 0 0 0 1
description=PIA peripheral interface line
T 400 8250 5 10 0 0 0 0 1
numslots=0
T 400 7650 9 10 0 1 0 0 1
6821
V 350 3300 50 6 0 0 0 -1 -1 0 0 -1 -1 -1 -1
L 450 1325 800 1325 3 0 0 0 -1 -1
L 450 1625 800 1625 3 0 0 0 -1 -1
L 450 3425 950 3425 3 0 0 0 -1 -1
L 625 3725 750 3725 3 0 0 0 -1 -1
