v 20031231 2
B 300 600 1500 6300 3 0 0 0 -1 -1 0 -1 -1 -1 -1 -1
P 300 6600 0 6600 1 0 1
{
T 200 6650 5 8 1 1 0 6 1
pinnumber=1
T 200 6550 5 8 0 1 0 8 1
pinseq=1
T 350 6600 9 8 1 1 0 0 1
pinlabel=P1.0 (T2)
T 350 6600 5 8 0 1 0 2 1
pintype=io
}
P 300 6300 0 6300 1 0 1
{
T 200 6350 5 8 1 1 0 6 1
pinnumber=2
T 200 6250 5 8 0 1 0 8 1
pinseq=2
T 350 6300 9 8 1 1 0 0 1
pinlabel=P1.1 (T2EX)
T 350 6300 5 8 0 1 0 2 1
pintype=io
}
P 300 6000 0 6000 1 0 1
{
T 200 6050 5 8 1 1 0 6 1
pinnumber=3
T 200 5950 5 8 0 1 0 8 1
pinseq=3
T 350 6000 9 8 1 1 0 0 1
pinlabel=P1.2
T 350 6000 5 8 0 1 0 2 1
pintype=io
}
P 300 5700 0 5700 1 0 1
{
T 200 5750 5 8 1 1 0 6 1
pinnumber=4
T 200 5650 5 8 0 1 0 8 1
pinseq=4
T 350 5700 9 8 1 1 0 0 1
pinlabel=P1.3
T 350 5700 5 8 0 1 0 2 1
pintype=io
}
P 300 5400 0 5400 1 0 1
{
T 200 5450 5 8 1 1 0 6 1
pinnumber=5
T 200 5350 5 8 0 1 0 8 1
pinseq=5
T 350 5400 9 8 1 1 0 0 1
pinlabel=P1.4 (INT2)
T 350 5400 5 8 0 1 0 2 1
pintype=io
}
P 300 5100 0 5100 1 0 1
{
T 200 5150 5 8 1 1 0 6 1
pinnumber=6
T 200 5050 5 8 0 1 0 8 1
pinseq=6
T 350 5100 9 8 1 1 0 0 1
pinlabel=P1.5 (INT3)
T 350 5100 5 8 0 1 0 2 1
pintype=io
}
P 300 4800 0 4800 1 0 1
{
T 200 4850 5 8 1 1 0 6 1
pinnumber=7
T 200 4750 5 8 0 1 0 8 1
pinseq=7
T 350 4800 9 8 1 1 0 0 1
pinlabel=P1.6 (INT4)
T 350 4800 5 8 0 1 0 2 1
pintype=io
}
P 300 4500 0 4500 1 0 1
{
T 200 4550 5 8 1 1 0 6 1
pinnumber=8
T 200 4450 5 8 0 1 0 8 1
pinseq=8
T 350 4500 9 8 1 1 0 0 1
pinlabel=P1.7 (INT5)
T 350 4500 5 8 0 1 0 2 1
pintype=io
}
P 300 4200 0 4200 1 0 1
{
T 200 4250 5 8 1 1 0 6 1
pinnumber=10
T 200 4150 5 8 0 1 0 8 1
pinseq=9
T 350 4200 9 8 1 1 0 0 1
pinlabel=P3.0 (RXD0)
T 350 4200 5 8 0 1 0 2 1
pintype=io
}
P 300 3900 0 3900 1 0 1
{
T 200 3950 5 8 1 1 0 6 1
pinnumber=11
T 200 3850 5 8 0 1 0 8 1
pinseq=10
T 350 3900 9 8 1 1 0 0 1
pinlabel=P3.1 (TXD0)
T 350 3900 5 8 0 1 0 2 1
pintype=io
}
P 300 3600 0 3600 1 0 1
{
T 200 3650 5 8 1 1 0 6 1
pinnumber=12
T 200 3550 5 8 0 1 0 8 1
pinseq=11
T 350 3600 9 8 1 1 0 0 1
pinlabel=P3.2 (INT0)
T 350 3600 5 8 0 1 0 2 1
pintype=io
}
P 300 3300 0 3300 1 0 1
{
T 200 3350 5 8 1 1 0 6 1
pinnumber=13
T 200 3250 5 8 0 1 0 8 1
pinseq=12
T 350 3300 9 8 1 1 0 0 1
pinlabel=P3.3 (INT1)
T 350 3300 5 8 0 1 0 2 1
pintype=io
}
P 300 3000 0 3000 1 0 1
{
T 200 3050 5 8 1 1 0 6 1
pinnumber=14
T 200 2950 5 8 0 1 0 8 1
pinseq=13
T 350 3000 9 8 1 1 0 0 1
pinlabel=P3.4 (T0)
T 350 3000 5 8 0 1 0 2 1
pintype=io
}
P 300 2700 0 2700 1 0 1
{
T 200 2750 5 8 1 1 0 6 1
pinnumber=15
T 200 2650 5 8 0 1 0 8 1
pinseq=14
T 350 2700 9 8 1 1 0 0 1
pinlabel=P3.5 (T1)
T 350 2700 5 8 0 1 0 2 1
pintype=io
}
P 300 2400 0 2400 1 0 1
{
T 200 2450 5 8 1 1 0 6 1
pinnumber=9
T 200 2350 5 8 0 1 0 8 1
pinseq=15
T 350 2400 9 8 1 1 0 0 1
pinlabel=RST
T 350 2400 5 8 0 1 0 2 1
pintype=in
}
P 300 1200 0 1200 1 0 1
{
T 200 1250 5 8 1 1 0 6 1
pinnumber=18
T 200 1150 5 8 0 1 0 8 1
pinseq=16
T 350 1200 9 8 1 1 0 0 1
pinlabel=XTAL2
T 350 1200 5 8 0 1 0 2 1
pintype=out
}
P 300 1500 0 1500 1 0 1
{
T 200 1550 5 8 1 1 0 6 1
pinnumber=19
T 200 1450 5 8 0 1 0 8 1
pinseq=17
T 350 1500 9 8 1 1 0 0 1
pinlabel=XTAL1
T 350 1500 5 8 0 1 0 2 1
pintype=in
}
V 250 1800 50 6 0 0 0 -1 -1 0 -1 -1 -1 -1 -1
P 200 1800 0 1800 1 0 1
{
T 200 1850 5 8 1 1 0 6 1
pinnumber=31
T 200 1750 5 8 0 1 0 8 1
pinseq=18
T 350 1800 9 8 1 1 0 0 1
pinlabel=EA
T 350 1800 5 8 0 1 0 2 1
pintype=in
}
P 1800 6600 2100 6600 1 0 1
{
T 1900 6650 5 8 1 1 0 0 1
pinnumber=39
T 1900 6550 5 8 0 1 0 2 1
pinseq=19
T 1750 6600 9 8 1 1 0 6 1
pinlabel=AD0
T 1750 6600 5 8 0 1 0 8 1
pintype=io
}
P 1800 6300 2100 6300 1 0 1
{
T 1900 6350 5 8 1 1 0 0 1
pinnumber=38
T 1900 6250 5 8 0 1 0 2 1
pinseq=20
T 1750 6300 9 8 1 1 0 6 1
pinlabel=AD1
T 1750 6300 5 8 0 1 0 8 1
pintype=io
}
P 1800 6000 2100 6000 1 0 1
{
T 1900 6050 5 8 1 1 0 0 1
pinnumber=37
T 1900 5950 5 8 0 1 0 2 1
pinseq=21
T 1750 6000 9 8 1 1 0 6 1
pinlabel=AD2
T 1750 6000 5 8 0 1 0 8 1
pintype=io
}
P 1800 5700 2100 5700 1 0 1
{
T 1900 5750 5 8 1 1 0 0 1
pinnumber=36
T 1900 5650 5 8 0 1 0 2 1
pinseq=22
T 1750 5700 9 8 1 1 0 6 1
pinlabel=AD3
T 1750 5700 5 8 0 1 0 8 1
pintype=io
}
P 1800 5400 2100 5400 1 0 1
{
T 1900 5450 5 8 1 1 0 0 1
pinnumber=35
T 1900 5350 5 8 0 1 0 2 1
pinseq=23
T 1750 5400 9 8 1 1 0 6 1
pinlabel=AD4
T 1750 5400 5 8 0 1 0 8 1
pintype=io
}
P 1800 5100 2100 5100 1 0 1
{
T 1900 5150 5 8 1 1 0 0 1
pinnumber=34
T 1900 5050 5 8 0 1 0 2 1
pinseq=24
T 1750 5100 9 8 1 1 0 6 1
pinlabel=AD5
T 1750 5100 5 8 0 1 0 8 1
pintype=io
}
P 1800 4800 2100 4800 1 0 1
{
T 1900 4850 5 8 1 1 0 0 1
pinnumber=33
T 1900 4750 5 8 0 1 0 2 1
pinseq=25
T 1750 4800 9 8 1 1 0 6 1
pinlabel=AD6
T 1750 4800 5 8 0 1 0 8 1
pintype=io
}
P 1800 4500 2100 4500 1 0 1
{
T 1900 4550 5 8 1 1 0 0 1
pinnumber=32
T 1900 4450 5 8 0 1 0 2 1
pinseq=26
T 1750 4500 9 8 1 1 0 6 1
pinlabel=AD7
T 1750 4500 5 8 0 1 0 8 1
pintype=io
}
P 1800 4200 2100 4200 1 0 1
{
T 1900 4250 5 8 1 1 0 0 1
pinnumber=21
T 1900 4150 5 8 0 1 0 2 1
pinseq=27
T 1750 4200 9 8 1 1 0 6 1
pinlabel=A8
T 1750 4200 5 8 0 1 0 8 1
pintype=io
}
P 1800 3900 2100 3900 1 0 1
{
T 1900 3950 5 8 1 1 0 0 1
pinnumber=22
T 1900 3850 5 8 0 1 0 2 1
pinseq=28
T 1750 3900 9 8 1 1 0 6 1
pinlabel=A9
T 1750 3900 5 8 0 1 0 8 1
pintype=io
}
P 1800 3600 2100 3600 1 0 1
{
T 1900 3650 5 8 1 1 0 0 1
pinnumber=23
T 1900 3550 5 8 0 1 0 2 1
pinseq=29
T 1750 3600 9 8 1 1 0 6 1
pinlabel=A10
T 1750 3600 5 8 0 1 0 8 1
pintype=io
}
P 1800 3300 2100 3300 1 0 1
{
T 1900 3350 5 8 1 1 0 0 1
pinnumber=24
T 1900 3250 5 8 0 1 0 2 1
pinseq=30
T 1750 3300 9 8 1 1 0 6 1
pinlabel=A11
T 1750 3300 5 8 0 1 0 8 1
pintype=io
}
P 1800 3000 2100 3000 1 0 1
{
T 1900 3050 5 8 1 1 0 0 1
pinnumber=25
T 1900 2950 5 8 0 1 0 2 1
pinseq=31
T 1750 3000 9 8 1 1 0 6 1
pinlabel=A12
T 1750 3000 5 8 0 1 0 8 1
pintype=io
}
P 1800 2700 2100 2700 1 0 1
{
T 1900 2750 5 8 1 1 0 0 1
pinnumber=26
T 1900 2650 5 8 0 1 0 2 1
pinseq=32
T 1750 2700 9 8 1 1 0 6 1
pinlabel=A13
T 1750 2700 5 8 0 1 0 8 1
pintype=io
}
P 1800 2400 2100 2400 1 0 1
{
T 1900 2450 5 8 1 1 0 0 1
pinnumber=27
T 1900 2350 5 8 0 1 0 2 1
pinseq=33
T 1750 2400 9 8 1 1 0 6 1
pinlabel=A14
T 1750 2400 5 8 0 1 0 8 1
pintype=io
}
P 1800 1800 2100 1800 1 0 1
{
T 1900 1850 5 8 1 1 0 0 1
pinnumber=30
T 1900 1750 5 8 0 1 0 2 1
pinseq=34
T 1750 1800 9 8 1 1 0 6 1
pinlabel=ALE
T 1750 1800 5 8 0 1 0 8 1
pintype=out
}
V 1850 1500 50 6 0 0 0 -1 -1 0 -1 -1 -1 -1 -1
P 1900 1500 2100 1500 1 0 1
{
T 1900 1550 5 8 1 1 0 0 1
pinnumber=29
T 1900 1450 5 8 0 1 0 2 1
pinseq=35
T 1750 1500 9 8 1 1 0 6 1
pinlabel=PSEN
T 1750 1500 5 8 0 1 0 8 1
pintype=out
}
P 1800 1200 2100 1200 1 0 1
{
T 1900 1250 5 8 1 1 0 0 1
pinnumber=17
T 1900 1150 5 8 0 1 0 2 1
pinseq=36
T 1750 1200 9 8 1 1 0 6 1
pinlabel=(RD) P3.7
T 1750 1200 5 8 0 1 0 8 1
pintype=io
}
P 1800 900 2100 900 1 0 1
{
T 1900 950 5 8 1 1 0 0 1
pinnumber=16
T 1900 850 5 8 0 1 0 2 1
pinseq=37
T 1750 900 9 8 1 1 0 6 1
pinlabel=(WR) P3.6
T 1750 900 5 8 0 1 0 8 1
pintype=io
}
T 1800 7000 8 10 1 1 0 6 1
refdes=U?
T 300 7150 5 10 0 0 0 0 1
device=8031
T 300 7350 5 10 0 0 0 0 1
footprint=DIP40
T 300 8150 5 10 0 0 0 0 1
description=8-bit micro controller
T 300 7950 5 10 0 0 0 0 1
numslots=0
T 300 8350 5 10 0 0 0 0 1
author=Werner Hoch <werner.hoATgmx.de>
T 300 7550 5 10 0 0 0 0 1
net=Vcc:40
T 300 7750 5 10 0 0 0 0 1
net=GND:20
T 300 6950 9 10 1 0 0 0 1
8031
P 1800 2100 2100 2100 1 0 1
{
T 1900 2150 5 8 1 1 0 0 1
pinnumber=28
T 1900 2050 5 8 0 1 0 2 1
pinseq=38
T 1750 2100 9 8 1 1 0 6 1
pinlabel=A15
T 1750 2100 5 8 0 1 0 8 1
pintype=io
}
L 1075 1025 1375 1025 3 0 0 0 -1 -1
L 1125 1325 1400 1325 3 0 0 0 -1 -1
L 1750 1625 1350 1625 3 0 0 0 -1 -1
L 350 1925 550 1925 3 0 0 0 -1 -1
L 750 3425 1050 3425 3 0 0 0 -1 -1
L 775 3725 1100 3725 3 0 0 0 -1 -1
L 725 4625 1050 4625 3 0 0 0 -1 -1
L 725 5225 1050 5225 3 0 0 0 -1 -1
