v 20031231 2
T 2400 5900 8 10 1 1 0 6 1
refdes=U?
T 400 6050 5 10 0 0 0 0 1
device=AT90S4433_DIP
T 400 6250 5 10 0 0 0 0 1
footprint=DIP28
T 400 6450 5 10 0 0 0 0 1
net=Vcc:7
T 400 6650 5 10 0 0 0 0 1
net=GND:8
T 400 6850 5 10 0 0 0 0 1
net=AVcc:20
T 400 7050 5 10 0 0 0 0 1
net=AGND:22
P 1700 100 1700 400 1 0 0
{
T 1750 200 5 8 1 1 0 0 1
pinnumber=10
T 1750 200 5 8 0 1 0 2 1
pinseq=1
T 1700 450 9 8 1 1 0 3 1
pinlabel=XTAL2
T 1700 600 5 8 0 1 0 3 1
pintype=out
}
P 1100 100 1100 400 1 0 0
{
T 1150 200 5 8 1 1 0 0 1
pinnumber=9
T 1150 200 5 8 0 1 0 2 1
pinseq=2
T 1100 450 9 8 1 1 0 3 1
pinlabel=XTAL1
T 1100 600 5 8 0 1 0 3 1
pintype=in
}
P 100 800 300 800 1 0 0
{
T 300 850 5 8 1 1 0 6 1
pinnumber=1
T 300 750 5 8 0 1 0 8 1
pinseq=3
T 450 800 9 8 1 1 0 0 1
pinlabel=Reset
T 450 800 5 8 0 1 0 2 1
pintype=in
}
L 450 924 834 924 3 0 0 0 -1 -1
V 350 800 50 6 0 0 0 -1 -1 0 -1 -1 -1 -1 -1
P 100 2600 400 2600 1 0 0
{
T 300 2650 5 8 1 1 0 6 1
pinnumber=13
T 300 2550 5 8 0 1 0 8 1
pinseq=4
T 450 2600 9 8 1 1 0 0 1
pinlabel=PD7 (AIN1)
T 450 2600 5 8 0 1 0 2 1
pintype=io
}
P 100 3000 400 3000 1 0 0
{
T 300 3050 5 8 1 1 0 6 1
pinnumber=12
T 300 2950 5 8 0 1 0 8 1
pinseq=5
T 450 3000 9 8 1 1 0 0 1
pinlabel=PD6 (AIN0)
T 450 3000 5 8 0 1 0 2 1
pintype=io
}
P 100 3400 400 3400 1 0 0
{
T 300 3450 5 8 1 1 0 6 1
pinnumber=11
T 300 3350 5 8 0 1 0 8 1
pinseq=6
T 450 3400 9 8 1 1 0 0 1
pinlabel=PD5 (T1)
T 450 3400 5 8 0 1 0 2 1
pintype=io
}
P 100 3800 400 3800 1 0 0
{
T 300 3850 5 8 1 1 0 6 1
pinnumber=6
T 300 3750 5 8 0 1 0 8 1
pinseq=7
T 450 3800 9 8 1 1 0 0 1
pinlabel=PD4 (T0)
T 450 3800 5 8 0 1 0 2 1
pintype=io
}
P 100 4200 400 4200 1 0 0
{
T 300 4250 5 8 1 1 0 6 1
pinnumber=5
T 300 4150 5 8 0 1 0 8 1
pinseq=8
T 450 4200 9 8 1 1 0 0 1
pinlabel=PD3 (INT1)
T 450 4200 5 8 0 1 0 2 1
pintype=io
}
P 100 4600 400 4600 1 0 0
{
T 300 4650 5 8 1 1 0 6 1
pinnumber=4
T 300 4550 5 8 0 1 0 8 1
pinseq=9
T 450 4600 9 8 1 1 0 0 1
pinlabel=PD2 (INT0)
T 450 4600 5 8 0 1 0 2 1
pintype=io
}
P 100 5000 400 5000 1 0 0
{
T 300 5050 5 8 1 1 0 6 1
pinnumber=3
T 300 4950 5 8 0 1 0 8 1
pinseq=10
T 450 5000 9 8 1 1 0 0 1
pinlabel=PD1 (TXD)
T 450 5000 5 8 0 1 0 2 1
pintype=io
}
P 100 5400 400 5400 1 0 0
{
T 300 5450 5 8 1 1 0 6 1
pinnumber=2
T 300 5350 5 8 0 1 0 8 1
pinseq=11
T 450 5400 9 8 1 1 0 0 1
pinlabel=PD0 (RXD)
T 450 5400 5 8 0 1 0 2 1
pintype=io
}
P 100 1200 400 1200 1 0 0
{
T 300 1250 5 8 1 1 0 6 1
pinnumber=21
T 300 1150 5 8 0 1 0 8 1
pinseq=12
T 450 1200 9 8 1 1 0 0 1
pinlabel=AREF
T 450 1200 5 8 0 1 0 2 1
pintype=in
}
P 2700 800 2400 800 1 0 0
{
T 2500 850 5 8 1 1 0 0 1
pinnumber=28
T 2500 750 5 8 0 1 0 2 1
pinseq=13
T 2350 800 9 8 1 1 0 6 1
pinlabel=(ADC5) PC5
T 2350 800 5 8 0 1 0 8 1
pintype=io
}
P 2700 1200 2400 1200 1 0 0
{
T 2500 1250 5 8 1 1 0 0 1
pinnumber=27
T 2500 1150 5 8 0 1 0 2 1
pinseq=14
T 2350 1200 9 8 1 1 0 6 1
pinlabel=(ADC4) PC4
T 2350 1200 5 8 0 1 0 8 1
pintype=io
}
P 2700 1600 2400 1600 1 0 0
{
T 2500 1650 5 8 1 1 0 0 1
pinnumber=26
T 2500 1550 5 8 0 1 0 2 1
pinseq=15
T 2350 1600 9 8 1 1 0 6 1
pinlabel=(ADC3) PC3
T 2350 1600 5 8 0 1 0 8 1
pintype=io
}
P 2700 2000 2400 2000 1 0 0
{
T 2500 2050 5 8 1 1 0 0 1
pinnumber=25
T 2500 1950 5 8 0 1 0 2 1
pinseq=16
T 2350 2000 9 8 1 1 0 6 1
pinlabel=(ADC2) PC2
T 2350 2000 5 8 0 1 0 8 1
pintype=io
}
P 2700 2400 2400 2400 1 0 0
{
T 2500 2450 5 8 1 1 0 0 1
pinnumber=24
T 2500 2350 5 8 0 1 0 2 1
pinseq=17
T 2350 2400 9 8 1 1 0 6 1
pinlabel=(ADC1) PC1
T 2350 2400 5 8 0 1 0 8 1
pintype=io
}
P 2700 2800 2400 2800 1 0 0
{
T 2500 2850 5 8 1 1 0 0 1
pinnumber=23
T 2500 2750 5 8 0 1 0 2 1
pinseq=18
T 2350 2800 9 8 1 1 0 6 1
pinlabel=(ADC0) PC0
T 2350 2800 5 8 0 1 0 8 1
pintype=io
}
P 2700 3400 2400 3400 1 0 0
{
T 2500 3450 5 8 1 1 0 0 1
pinnumber=19
T 2500 3350 5 8 0 1 0 2 1
pinseq=19
T 2350 3400 9 8 1 1 0 6 1
pinlabel=(SCK) PB5
T 2350 3400 5 8 0 1 0 8 1
pintype=io
}
P 2700 3800 2400 3800 1 0 0
{
T 2500 3850 5 8 1 1 0 0 1
pinnumber=18
T 2500 3750 5 8 0 1 0 2 1
pinseq=20
T 2350 3800 9 8 1 1 0 6 1
pinlabel=(MISO) PB4
T 2350 3800 5 8 0 1 0 8 1
pintype=io
}
P 2700 4200 2400 4200 1 0 0
{
T 2500 4250 5 8 1 1 0 0 1
pinnumber=17
T 2500 4150 5 8 0 1 0 2 1
pinseq=21
T 2350 4200 9 8 1 1 0 6 1
pinlabel=(MOSI) PB3
T 2350 4200 5 8 0 1 0 8 1
pintype=io
}
P 2700 4600 2400 4600 1 0 0
{
T 2500 4650 5 8 1 1 0 0 1
pinnumber=16
T 2500 4550 5 8 0 1 0 2 1
pinseq=22
T 2350 4600 9 8 1 1 0 6 1
pinlabel=(SS) PB2
T 2350 4600 5 8 0 1 0 8 1
pintype=io
}
L 1738 4724 1938 4724 3 0 0 0 -1 -1
P 2700 5000 2400 5000 1 0 0
{
T 2500 5050 5 8 1 1 0 0 1
pinnumber=15
T 2500 4950 5 8 0 1 0 2 1
pinseq=23
T 2350 5000 9 8 1 1 0 6 1
pinlabel=(OC1) PB1
T 2350 5000 5 8 0 1 0 8 1
pintype=io
}
P 2700 5400 2400 5400 1 0 0
{
T 2500 5450 5 8 1 1 0 0 1
pinnumber=14
T 2500 5350 5 8 0 1 0 2 1
pinseq=24
T 2350 5400 9 8 1 1 0 6 1
pinlabel=(ICP) PB0
T 2350 5400 5 8 0 1 0 8 1
pintype=io
}
B 400 400 2000 5400 3 0 0 0 -1 -1 0 -1 -1 -1 -1 -1
T 400 7250 5 10 0 0 0 0 1
description=8-bit RISC micro controller (Atmel)
T 400 7450 5 10 0 0 0 0 1
numslots=0
T 400 7650 5 10 0 0 0 0 1
author=Werner Hoch <werner.hoATgmx.de>
T 400 5850 9 10 1 0 0 0 1
AT90S4433
