v 20031231 2
T 2300 2300 8 10 1 1 0 6 1
refdes=U?
T 300 2450 5 10 0 0 0 0 1
device=AT90S2343
T 300 2650 5 10 0 0 0 0 1
footprint=DIP8
T 300 2850 5 10 0 0 0 0 1
net=GND:4
T 300 3050 5 10 0 0 0 0 1
net=Vcc:8
P 0 300 200 300 1 0 0
{
T 200 350 5 8 1 1 0 6 1
pinnumber=1
T 200 250 5 8 0 1 0 8 1
pinseq=1
T 350 300 9 8 1 1 0 0 1
pinlabel=Reset
T 350 300 5 8 0 1 0 2 1
pintype=in
}
L 350 424 734 424 3 0 0 0 -1 -1
V 250 300 50 6 0 0 0 -1 -1 0 -1 -1 -1 -1 -1
P 2600 300 2300 300 1 0 0
{
T 2400 350 5 8 1 1 0 0 1
pinnumber=3
T 2400 250 5 8 0 1 0 2 1
pinseq=2
T 2250 300 9 8 1 1 0 6 1
pinlabel=PB4
T 2250 300 5 8 0 1 0 8 1
pintype=io
}
P 2600 700 2300 700 1 0 0
{
T 2400 750 5 8 1 1 0 0 1
pinnumber=2
T 2400 650 5 8 0 1 0 2 1
pinseq=3
T 2250 700 9 8 1 1 0 6 1
pinlabel=(CLK) PB3
T 2250 700 5 8 0 1 0 8 1
pintype=io
}
P 2600 1100 2300 1100 1 0 0
{
T 2400 1150 5 8 1 1 0 0 1
pinnumber=7
T 2400 1050 5 8 0 1 0 2 1
pinseq=4
T 2250 1100 9 8 1 1 0 6 1
pinlabel=(SCK/T0) PB2
T 2250 1100 5 8 0 1 0 8 1
pintype=io
}
P 2600 1500 2300 1500 1 0 0
{
T 2400 1550 5 8 1 1 0 0 1
pinnumber=6
T 2400 1450 5 8 0 1 0 2 1
pinseq=5
T 2250 1500 9 8 1 1 0 6 1
pinlabel=(MISO/INT0) PB1
T 2250 1500 5 8 0 1 0 8 1
pintype=io
}
P 2600 1900 2300 1900 1 0 0
{
T 2400 1950 5 8 1 1 0 0 1
pinnumber=5
T 2400 1850 5 8 0 1 0 2 1
pinseq=6
T 2250 1900 9 8 1 1 0 6 1
pinlabel=(MOSI) PB0
T 2250 1900 5 8 0 1 0 8 1
pintype=io
}
B 300 0 2000 2200 3 0 0 0 -1 -1 0 -1 -1 -1 -1 -1
T 300 3250 5 10 0 0 0 0 1
description=8-bit RISC micro controller (Atmel)
T 300 3450 5 10 0 0 0 0 1
numslots=0
T 300 3650 5 10 0 0 0 0 1
author=Werner Hoch <werner.hoATgmx.de>
T 300 2250 9 10 1 0 0 0 1
AT90S2343
