v 20031231 2
T 300 5450 9 10 1 0 0 0 1
MC68HC811E2FN
P 0 3800 300 3800 1 0 0
{
T 200 3850 5 8 1 1 0 6 1
pinnumber=43
T 200 3750 5 8 0 1 0 8 1
pinseq=43
T 350 3800 5 8 0 1 0 2 1
pintype=in
T 350 3800 9 8 1 1 0 0 1
pinlabel=PE0/AN0
}
P 0 4000 300 4000 1 0 0
{
T 200 4050 5 8 1 1 0 6 1
pinnumber=45
T 200 3950 5 8 0 1 0 8 1
pinseq=45
T 350 4000 5 8 0 1 0 2 1
pintype=in
T 350 4000 9 8 1 1 0 0 1
pinlabel=PE1/AN1
}
P 3100 600 3400 600 1 0 1
{
T 3200 650 5 8 1 1 0 0 1
pinnumber=17
T 3200 550 5 8 0 1 0 2 1
pinseq=17
T 3050 600 5 8 0 1 0 8 1
pintype=io
T 3050 600 9 8 1 1 0 6 1
pinlabel=~RESET
}
P 3100 800 3400 800 1 0 1
{
T 3200 850 5 8 1 1 0 0 1
pinnumber=2
T 3200 750 5 8 0 1 0 2 1
pinseq=2
T 3050 800 5 8 0 1 0 8 1
pintype=in
T 3050 800 9 8 1 1 0 6 1
pinlabel=MODB/VSTBY
}
P 3100 1000 3400 1000 1 0 1
{
T 3200 1050 5 8 1 1 0 0 1
pinnumber=3
T 3200 950 5 8 0 1 0 2 1
pinseq=3
T 3050 1000 5 8 0 1 0 8 1
pintype=io
T 3050 1000 9 8 1 1 0 6 1
pinlabel=MODA/~LIR
}
P 3100 1200 3400 1200 1 0 1
{
T 3200 1250 5 8 1 1 0 0 1
pinnumber=4
T 3200 1150 5 8 0 1 0 2 1
pinseq=4
T 3050 1200 5 8 0 1 0 8 1
pintype=io
T 3050 1200 9 8 1 1 0 6 1
pinlabel=STRA/AS
}
P 3100 1400 3400 1400 1 0 1
{
T 3200 1450 5 8 1 1 0 0 1
pinnumber=5
T 3200 1350 5 8 0 1 0 2 1
pinseq=5
T 3050 1400 5 8 0 1 0 8 1
pintype=out
T 3050 1400 9 8 1 1 0 6 1
pinlabel=E
}
P 3100 1600 3400 1600 1 0 1
{
T 3200 1650 5 8 1 1 0 0 1
pinnumber=6
T 3200 1550 5 8 0 1 0 2 1
pinseq=6
T 3050 1600 5 8 0 1 0 8 1
pintype=out
T 3050 1600 9 8 1 1 0 6 1
pinlabel=STRB/R/~W
}
P 3100 1800 3400 1800 1 0 1
{
T 3200 1850 5 8 1 1 0 0 1
pinnumber=7
T 3200 1750 5 8 0 1 0 2 1
pinseq=7
T 3050 1800 5 8 0 1 0 8 1
pintype=io
T 3050 1800 9 8 1 1 0 6 1
pinlabel=EXTAL
}
P 3100 2000 3400 2000 1 0 1
{
T 3200 2050 5 8 1 1 0 0 1
pinnumber=8
T 3200 1950 5 8 0 1 0 2 1
pinseq=8
T 3050 2000 5 8 0 1 0 8 1
pintype=io
T 3050 2000 9 8 1 1 0 6 1
pinlabel=XTAL
}
P 3100 3800 3400 3800 1 0 1
{
T 3200 3850 5 8 1 1 0 0 1
pinnumber=42
T 3200 3750 5 8 0 1 0 2 1
pinseq=42
T 3050 3800 5 8 0 1 0 8 1
pintype=out
T 3050 3800 9 8 1 1 0 6 1
pinlabel=PB0/ADDR8
}
P 3100 4000 3400 4000 1 0 1
{
T 3200 4050 5 8 1 1 0 0 1
pinnumber=41
T 3200 3950 5 8 0 1 0 2 1
pinseq=41
T 3050 4000 5 8 0 1 0 8 1
pintype=out
T 3050 4000 9 8 1 1 0 6 1
pinlabel=PB1/ADDR9
}
P 3100 4200 3400 4200 1 0 1
{
T 3200 4250 5 8 1 1 0 0 1
pinnumber=40
T 3200 4150 5 8 0 1 0 2 1
pinseq=40
T 3050 4200 5 8 0 1 0 8 1
pintype=out
T 3050 4200 9 8 1 1 0 6 1
pinlabel=PB2/ADDR10
}
P 3100 4400 3400 4400 1 0 1
{
T 3200 4450 5 8 1 1 0 0 1
pinnumber=39
T 3200 4350 5 8 0 1 0 2 1
pinseq=39
T 3050 4400 5 8 0 1 0 8 1
pintype=out
T 3050 4400 9 8 1 1 0 6 1
pinlabel=PB3/ADDR11
}
P 3100 4600 3400 4600 1 0 1
{
T 3200 4650 5 8 1 1 0 0 1
pinnumber=38
T 3200 4550 5 8 0 1 0 2 1
pinseq=38
T 3050 4600 5 8 0 1 0 8 1
pintype=out
T 3050 4600 9 8 1 1 0 6 1
pinlabel=PB4/ADDR12
}
P 3100 4800 3400 4800 1 0 1
{
T 3200 4850 5 8 1 1 0 0 1
pinnumber=37
T 3200 4750 5 8 0 1 0 2 1
pinseq=37
T 3050 4800 5 8 0 1 0 8 1
pintype=out
T 3050 4800 9 8 1 1 0 6 1
pinlabel=PB5/ADDR13
}
P 3100 5000 3400 5000 1 0 1
{
T 3200 5050 5 8 1 1 0 0 1
pinnumber=36
T 3200 4950 5 8 0 1 0 2 1
pinseq=36
T 3050 5000 5 8 0 1 0 8 1
pintype=out
T 3050 5000 9 8 1 1 0 6 1
pinlabel=PB6/ADDR14
}
P 3100 5200 3400 5200 1 0 1
{
T 3200 5250 5 8 1 1 0 0 1
pinnumber=35
T 3200 5150 5 8 0 1 0 2 1
pinseq=35
T 3050 5200 5 8 0 1 0 8 1
pintype=out
T 3050 5200 9 8 1 1 0 6 1
pinlabel=PB7/ADDR15
}
P 0 4200 300 4200 1 0 0
{
T 200 4250 5 8 1 1 0 6 1
pinnumber=47
T 200 4150 5 8 0 1 0 8 1
pinseq=47
T 350 4200 5 8 0 1 0 2 1
pintype=in
T 350 4200 9 8 1 1 0 0 1
pinlabel=PE2/AN2
}
P 0 4400 300 4400 1 0 0
{
T 200 4450 5 8 1 1 0 6 1
pinnumber=49
T 200 4350 5 8 0 1 0 8 1
pinseq=49
T 350 4400 5 8 0 1 0 2 1
pintype=in
T 350 4400 9 8 1 1 0 0 1
pinlabel=PE3/AN3
}
P 0 4600 300 4600 1 0 0
{
T 200 4650 5 8 1 1 0 6 1
pinnumber=44
T 200 4550 5 8 0 1 0 8 1
pinseq=44
T 350 4600 5 8 0 1 0 2 1
pintype=in
T 350 4600 9 8 1 1 0 0 1
pinlabel=PE4/AN4
}
P 0 4800 300 4800 1 0 0
{
T 200 4850 5 8 1 1 0 6 1
pinnumber=46
T 200 4750 5 8 0 1 0 8 1
pinseq=46
T 350 4800 5 8 0 1 0 2 1
pintype=in
T 350 4800 9 8 1 1 0 0 1
pinlabel=PE5/AN5
}
P 0 5000 300 5000 1 0 0
{
T 200 5050 5 8 1 1 0 6 1
pinnumber=48
T 200 4950 5 8 0 1 0 8 1
pinseq=48
T 350 5000 5 8 0 1 0 2 1
pintype=in
T 350 5000 9 8 1 1 0 0 1
pinlabel=PE6/AN6
}
P 0 5200 300 5200 1 0 0
{
T 200 5250 5 8 1 1 0 6 1
pinnumber=50
T 200 5150 5 8 0 1 0 8 1
pinseq=50
T 350 5200 5 8 0 1 0 2 1
pintype=in
T 350 5200 9 8 1 1 0 0 1
pinlabel=PE7/AN7
}
P 0 1000 300 1000 1 0 0
{
T 200 1050 5 8 1 1 0 6 1
pinnumber=20
T 200 950 5 8 0 1 0 8 1
pinseq=20
T 350 1000 5 8 0 1 0 2 1
pintype=io
T 350 1000 9 8 1 1 0 0 1
pinlabel=PD0/RXD
}
P 0 1200 300 1200 1 0 0
{
T 200 1250 5 8 1 1 0 6 1
pinnumber=21
T 200 1150 5 8 0 1 0 8 1
pinseq=21
T 350 1200 5 8 0 1 0 2 1
pintype=io
T 350 1200 9 8 1 1 0 0 1
pinlabel=PD1/TXD
}
P 0 1400 300 1400 1 0 0
{
T 200 1450 5 8 1 1 0 6 1
pinnumber=22
T 200 1350 5 8 0 1 0 8 1
pinseq=22
T 350 1400 5 8 0 1 0 2 1
pintype=io
T 350 1400 9 8 1 1 0 0 1
pinlabel=PD2/MISO
}
P 0 1600 300 1600 1 0 0
{
T 200 1650 5 8 1 1 0 6 1
pinnumber=23
T 200 1550 5 8 0 1 0 8 1
pinseq=23
T 350 1600 5 8 0 1 0 2 1
pintype=io
T 350 1600 9 8 1 1 0 0 1
pinlabel=PD3/MOSI
}
P 0 1800 300 1800 1 0 0
{
T 200 1850 5 8 1 1 0 6 1
pinnumber=24
T 200 1750 5 8 0 1 0 8 1
pinseq=24
T 350 1800 5 8 0 1 0 2 1
pintype=io
T 350 1800 9 8 1 1 0 0 1
pinlabel=PD4/SCK
}
P 0 2000 300 2000 1 0 0
{
T 200 2050 5 8 1 1 0 6 1
pinnumber=25
T 200 1950 5 8 0 1 0 8 1
pinseq=25
T 350 2000 5 8 0 1 0 2 1
pintype=io
T 350 2000 9 8 1 1 0 0 1
pinlabel=PD5/~SS
}
P 0 2200 300 2200 1 0 0
{
T 200 2250 5 8 1 1 0 6 1
pinnumber=34
T 200 2150 5 8 0 1 0 8 1
pinseq=34
T 350 2200 5 8 0 1 0 2 1
pintype=io
T 350 2200 9 8 1 1 0 0 1
pinlabel=PA0/IC3
}
P 0 2400 300 2400 1 0 0
{
T 200 2450 5 8 1 1 0 6 1
pinnumber=33
T 200 2350 5 8 0 1 0 8 1
pinseq=33
T 350 2400 5 8 0 1 0 2 1
pintype=io
T 350 2400 9 8 1 1 0 0 1
pinlabel=PA1/IC2
}
P 0 2600 300 2600 1 0 0
{
T 200 2650 5 8 1 1 0 6 1
pinnumber=32
T 200 2550 5 8 0 1 0 8 1
pinseq=32
T 350 2600 5 8 0 1 0 2 1
pintype=io
T 350 2600 9 8 1 1 0 0 1
pinlabel=PA2/IC1
}
P 0 2800 300 2800 1 0 0
{
T 200 2850 5 8 1 1 0 6 1
pinnumber=31
T 200 2750 5 8 0 1 0 8 1
pinseq=31
T 350 2800 5 8 0 1 0 2 1
pintype=io
T 350 2800 9 8 1 1 0 0 1
pinlabel=PA3/OC5/IC4/OC1
}
P 0 3000 300 3000 1 0 0
{
T 200 3050 5 8 1 1 0 6 1
pinnumber=30
T 200 2950 5 8 0 1 0 8 1
pinseq=30
T 350 3000 5 8 0 1 0 2 1
pintype=io
T 350 3000 9 8 1 1 0 0 1
pinlabel=PA4/OC4/OC1
}
P 0 3200 300 3200 1 0 0
{
T 200 3250 5 8 1 1 0 6 1
pinnumber=29
T 200 3150 5 8 0 1 0 8 1
pinseq=29
T 350 3200 5 8 0 1 0 2 1
pintype=io
T 350 3200 9 8 1 1 0 0 1
pinlabel=PA5/OC3/OC1
}
P 0 3400 300 3400 1 0 0
{
T 200 3450 5 8 1 1 0 6 1
pinnumber=28
T 200 3350 5 8 0 1 0 8 1
pinseq=28
T 350 3400 5 8 0 1 0 2 1
pintype=io
T 350 3400 9 8 1 1 0 0 1
pinlabel=PA6/OC2/OC1
}
P 0 3600 300 3600 1 0 0
{
T 200 3650 5 8 1 1 0 6 1
pinnumber=27
T 200 3550 5 8 0 1 0 8 1
pinseq=27
T 350 3600 5 8 0 1 0 2 1
pintype=io
T 350 3600 9 8 1 1 0 0 1
pinlabel=PA7/PAI/OC1
}
P 0 200 300 200 1 0 0
{
T 200 250 5 8 1 1 0 6 1
pinnumber=1
T 200 150 5 8 0 1 0 8 1
pinseq=1
T 350 200 5 8 0 1 0 2 1
pintype=pwr
T 350 200 9 8 1 1 0 0 1
pinlabel=VSS
}
P 0 400 300 400 1 0 0
{
T 200 450 5 8 1 1 0 6 1
pinnumber=26
T 200 350 5 8 0 1 0 8 1
pinseq=26
T 350 400 5 8 0 1 0 2 1
pintype=pwr
T 350 400 9 8 1 1 0 0 1
pinlabel=VDD
}
P 0 600 300 600 1 0 0
{
T 200 650 5 8 1 1 0 6 1
pinnumber=51
T 200 550 5 8 0 1 0 8 1
pinseq=51
T 350 600 5 8 0 1 0 2 1
pintype=in
T 350 600 9 8 1 1 0 0 1
pinlabel=VRL
}
P 0 800 300 800 1 0 0
{
T 200 850 5 8 1 1 0 6 1
pinnumber=52
T 200 750 5 8 0 1 0 8 1
pinseq=52
T 350 800 5 8 0 1 0 2 1
pintype=in
T 350 800 9 8 1 1 0 0 1
pinlabel=VRH
}
B 300 0 2800 5400 3 0 0 0 -1 -1 0 0 -1 -1 -1 -1
T 1050 5900 5 10 0 0 0 4 1
footprint=PLCC 52
P 3100 2200 3400 2200 1 0 1
{
T 3200 2250 5 8 1 1 0 0 1
pinnumber=9
T 3200 2150 5 8 0 1 0 2 1
pinseq=9
T 3050 2200 5 8 0 1 0 8 1
pintype=io
T 3050 2200 9 8 1 1 0 6 1
pinlabel=PC0/ADDR0/D0
}
P 3100 2400 3400 2400 1 0 1
{
T 3200 2450 5 8 1 1 0 0 1
pinnumber=10
T 3200 2350 5 8 0 1 0 2 1
pinseq=10
T 3050 2400 5 8 0 1 0 8 1
pintype=io
T 3050 2400 9 8 1 1 0 6 1
pinlabel=PC1/ADDR1/D1
}
P 3100 2600 3400 2600 1 0 1
{
T 3200 2650 5 8 1 1 0 0 1
pinnumber=11
T 3200 2550 5 8 0 1 0 2 1
pinseq=11
T 3050 2600 5 8 0 1 0 8 1
pintype=io
T 3050 2600 9 8 1 1 0 6 1
pinlabel=PC2/ADDR2/D2
}
P 3100 2800 3400 2800 1 0 1
{
T 3200 2850 5 8 1 1 0 0 1
pinnumber=12
T 3200 2750 5 8 0 1 0 2 1
pinseq=12
T 3050 2800 5 8 0 1 0 8 1
pintype=io
T 3050 2800 9 8 1 1 0 6 1
pinlabel=PC3/ADDR3/D3
}
P 3100 3000 3400 3000 1 0 1
{
T 3200 3050 5 8 1 1 0 0 1
pinnumber=13
T 3200 2950 5 8 0 1 0 2 1
pinseq=13
T 3050 3000 5 8 0 1 0 8 1
pintype=io
T 3050 3000 9 8 1 1 0 6 1
pinlabel=PC4/ADDR4/D4
}
P 3100 3200 3400 3200 1 0 1
{
T 3200 3250 5 8 1 1 0 0 1
pinnumber=14
T 3200 3150 5 8 0 1 0 2 1
pinseq=14
T 3050 3200 5 8 0 1 0 8 1
pintype=io
T 3050 3200 9 8 1 1 0 6 1
pinlabel=PC5/ADDR5/D5
}
P 3100 3400 3400 3400 1 0 1
{
T 3200 3450 5 8 1 1 0 0 1
pinnumber=15
T 3200 3350 5 8 0 1 0 2 1
pinseq=15
T 3050 3400 5 8 0 1 0 8 1
pintype=io
T 3050 3400 9 8 1 1 0 6 1
pinlabel=PC6/ADDR6/D6
}
P 3100 3600 3400 3600 1 0 1
{
T 3200 3650 5 8 1 1 0 0 1
pinnumber=16
T 3200 3550 5 8 0 1 0 2 1
pinseq=16
T 3050 3600 5 8 0 1 0 8 1
pintype=io
T 3050 3600 9 8 1 1 0 6 1
pinlabel=PC7/ADDR7/D7
}
P 3100 400 3400 400 1 0 1
{
T 3200 450 5 8 1 1 0 0 1
pinnumber=18
T 3200 350 5 8 0 1 0 2 1
pinseq=18
T 3050 400 5 8 0 1 0 8 1
pintype=in
T 3050 400 9 8 1 1 0 6 1
pinlabel=~XIRQ
}
P 3100 200 3400 200 1 0 1
{
T 3200 250 5 8 1 1 0 0 1
pinnumber=19
T 3200 150 5 8 0 1 0 2 1
pinseq=19
T 3050 200 5 8 0 1 0 8 1
pintype=in
T 3050 200 9 8 1 1 0 6 1
pinlabel=~IRQ
}
T 300 5650 5 10 0 0 0 0 1
device=MC68HC811E2FN
T 3100 5500 8 10 1 1 0 6 1
refdes=U?
T 300 6250 5 10 0 0 0 0 1
description=8-bit microcontroller (M68HC11 family)
T 300 6050 5 10 0 0 0 0 1
numslots=0
T 300 6450 5 10 0 0 0 0 1
documentation=http://e-www.motorola.com/files/microcontrollers/doc/data_sheet/M68HC11E.pdf
