v 20031231 2
B 300 0 3000 4200 3 0 0 0 -1 -1 0 -1 -1 -1 -1 -1
T 300 4475 5 10 0 0 0 0 1
device=MSP430x11x1
T 3250 4250 8 10 1 1 0 6 1
refdes=U?
P 300 3900 0 3900 1 0 1
{
T 200 3950 5 8 1 1 0 6 1
pinnumber=1
T 350 3900 9 8 1 1 0 0 1
pinlabel=TEST
T 200 3850 5 8 0 1 0 8 1
pinseq=1
T 350 3900 5 8 0 1 0 2 1
pintype=in
}
P 300 3500 0 3500 1 0 1
{
T 200 3550 5 8 1 1 0 6 1
pinnumber=2
T 350 3500 9 8 1 1 0 0 1
pinlabel=Vcc
T 200 3450 5 8 0 1 0 8 1
pinseq=2
T 350 3500 5 8 0 1 0 2 1
pintype=pwr
}
P 300 3100 0 3100 1 0 1
{
T 200 3150 5 8 1 1 0 6 1
pinnumber=3
T 350 3100 9 8 1 1 0 0 1
pinlabel=P2.5/Rosc
T 200 3050 5 8 0 1 0 8 1
pinseq=3
T 350 3100 5 8 0 1 0 2 1
pintype=io
}
P 300 2700 0 2700 1 0 1
{
T 200 2750 5 8 1 1 0 6 1
pinnumber=4
T 350 2700 9 8 1 1 0 0 1
pinlabel=Vss
T 200 2650 5 8 0 1 0 8 1
pinseq=4
T 350 2700 5 8 0 1 0 2 1
pintype=pwr
}
P 300 2300 0 2300 1 0 1
{
T 200 2350 5 8 1 1 0 6 1
pinnumber=5
T 350 2300 9 8 1 1 0 0 1
pinlabel=XOUT
T 200 2250 5 8 0 1 0 8 1
pinseq=5
T 350 2300 5 8 0 1 0 2 1
pintype=out
}
P 300 1900 0 1900 1 0 1
{
T 200 1950 5 8 1 1 0 6 1
pinnumber=6
T 350 1900 9 8 1 1 0 0 1
pinlabel=XIN
T 200 1850 5 8 0 1 0 8 1
pinseq=6
T 350 1900 5 8 0 1 0 2 1
pintype=in
}
P 200 1500 0 1500 1 0 1
{
T 200 1550 5 8 1 1 0 6 1
pinnumber=7
T 350 1500 9 8 1 1 0 0 1
pinlabel=RST/NMI
T 200 1450 5 8 0 1 0 8 1
pinseq=7
T 350 1500 5 8 0 1 0 2 1
pintype=in
}
P 300 1100 0 1100 1 0 1
{
T 200 1150 5 8 1 1 0 6 1
pinnumber=8
T 350 1100 9 8 1 1 0 0 1
pinlabel=P2.0/ACLK
T 200 1050 5 8 0 1 0 8 1
pinseq=8
T 350 1100 5 8 0 1 0 2 1
pintype=io
}
P 300 700 0 700 1 0 1
{
T 200 750 5 8 1 1 0 6 1
pinnumber=9
T 350 700 9 8 1 1 0 0 1
pinlabel=P2.1/INCLK
T 200 650 5 8 0 1 0 8 1
pinseq=9
T 350 700 5 8 0 1 0 2 1
pintype=io
}
P 300 300 0 300 1 0 1
{
T 200 350 5 8 1 1 0 6 1
pinnumber=10
T 350 300 9 8 1 1 0 0 1
pinlabel=P2.2/CAOUT/TA0
T 200 250 5 8 0 1 0 8 1
pinseq=10
T 350 300 5 8 0 1 0 2 1
pintype=io
}
P 3300 300 3600 300 1 0 1
{
T 3400 350 5 8 1 1 0 0 1
pinnumber=11
T 3250 300 9 8 1 1 0 6 1
pinlabel=P2.3/CA0/TA1
T 3400 250 5 8 0 1 0 2 1
pinseq=11
T 3250 300 5 8 0 1 0 8 1
pintype=io
}
P 3300 700 3600 700 1 0 1
{
T 3400 750 5 8 1 1 0 0 1
pinnumber=12
T 3250 700 9 8 1 1 0 6 1
pinlabel=P2.4/CA1/TA2
T 3400 650 5 8 0 1 0 2 1
pinseq=12
T 3250 700 5 8 0 1 0 8 1
pintype=io
}
P 3300 1100 3600 1100 1 0 1
{
T 3400 1150 5 8 1 1 0 0 1
pinnumber=13
T 3250 1100 9 8 1 1 0 6 1
pinlabel=P1.0/TACLK
T 3400 1050 5 8 0 1 0 2 1
pinseq=13
T 3250 1100 5 8 0 1 0 8 1
pintype=io
}
P 3300 1500 3600 1500 1 0 1
{
T 3400 1550 5 8 1 1 0 0 1
pinnumber=14
T 3250 1500 9 8 1 1 0 6 1
pinlabel=P1.1/TA0
T 3400 1450 5 8 0 1 0 2 1
pinseq=14
T 3250 1500 5 8 0 1 0 8 1
pintype=io
}
P 3300 1900 3600 1900 1 0 1
{
T 3400 1950 5 8 1 1 0 0 1
pinnumber=15
T 3250 1900 9 8 1 1 0 6 1
pinlabel=P1.2/TA1
T 3400 1850 5 8 0 1 0 2 1
pinseq=15
T 3250 1900 5 8 0 1 0 8 1
pintype=io
}
P 3300 2300 3600 2300 1 0 1
{
T 3400 2350 5 8 1 1 0 0 1
pinnumber=16
T 3250 2300 9 8 1 1 0 6 1
pinlabel=P1.3/TA2
T 3400 2250 5 8 0 1 0 2 1
pinseq=16
T 3250 2300 5 8 0 1 0 8 1
pintype=io
}
P 3300 2700 3600 2700 1 0 1
{
T 3400 2750 5 8 1 1 0 0 1
pinnumber=17
T 3250 2700 9 8 1 1 0 6 1
pinlabel=P1.4/SMCLK/TCK
T 3400 2650 5 8 0 1 0 2 1
pinseq=17
T 3250 2700 5 8 0 1 0 8 1
pintype=io
}
P 3300 3100 3600 3100 1 0 1
{
T 3400 3150 5 8 1 1 0 0 1
pinnumber=18
T 3250 3100 9 8 1 1 0 6 1
pinlabel=P1.5/TA0/TMS
T 3400 3050 5 8 0 1 0 2 1
pinseq=18
T 3250 3100 5 8 0 1 0 8 1
pintype=io
}
P 3300 3500 3600 3500 1 0 1
{
T 3400 3550 5 8 1 1 0 0 1
pinnumber=19
T 3250 3500 9 8 1 1 0 6 1
pinlabel=P1.6/TA1/TDI
T 3400 3450 5 8 0 1 0 2 1
pinseq=19
T 3250 3500 5 8 0 1 0 8 1
pintype=io
}
P 3300 3900 3600 3900 1 0 1
{
T 3400 3950 5 8 1 1 0 0 1
pinnumber=20
T 3250 3900 9 8 1 1 0 6 1
pinlabel=P1.7/TA2/TDO/TDI
T 3400 3850 5 8 0 1 0 2 1
pinseq=20
T 3250 3900 5 8 0 1 0 8 1
pintype=io
}
T 300 4850 5 10 0 0 0 0 1
footprint=none
T 300 4650 5 10 0 0 0 0 1
description=16-bit mixed signal microcontroller
T 300 5050 5 10 0 0 0 0 1
numslots=0
T 300 4250 3 10 1 0 0 0 1
MSP430x11x1
V 250 1500 50 6 0 0 0 -1 -1 0 -1 -1 -1 -1 -1
L 350 1625 625 1625 3 0 0 0 -1 -1
T 300 5250 5 10 0 0 0 0 1
documentation=http://www-s.ti.com/sc/ds/msp430c1101.pdf
