v 20031231 2
B 400 400 12800 10000 3 0 0 0 -1 -1 0 -1 -1 -1 -1 -1
T 2700 7675 5 10 0 0 0 0 1
device=MSP430x44x
T 13150 10450 8 10 1 1 0 6 1
refdes=U?
P 400 10200 100 10200 1 0 1
{
T 300 10250 5 8 1 1 0 6 1
pinnumber=1
T 450 10200 9 8 1 1 0 0 1
pinlabel=DVcc
T 300 10150 5 8 0 1 0 8 1
pinseq=1
T 450 10200 5 8 0 1 0 2 1
pintype=pwr
}
P 400 9800 100 9800 1 0 1
{
T 300 9850 5 8 1 1 0 6 1
pinnumber=2
T 450 9800 9 8 1 1 0 0 1
pinlabel=P6.3/A3
T 300 9750 5 8 0 1 0 8 1
pinseq=2
T 450 9800 5 8 0 1 0 2 1
pintype=io
}
P 400 9400 100 9400 1 0 1
{
T 300 9450 5 8 1 1 0 6 1
pinnumber=3
T 450 9400 9 8 1 1 0 0 1
pinlabel=P6.4/A4
T 300 9350 5 8 0 1 0 8 1
pinseq=3
T 450 9400 5 8 0 1 0 2 1
pintype=io
}
P 400 9000 100 9000 1 0 1
{
T 300 9050 5 8 1 1 0 6 1
pinnumber=4
T 450 9000 9 8 1 1 0 0 1
pinlabel=P6.5/A5
T 300 8950 5 8 0 1 0 8 1
pinseq=4
T 450 9000 5 8 0 1 0 2 1
pintype=io
}
P 400 8600 100 8600 1 0 1
{
T 300 8650 5 8 1 1 0 6 1
pinnumber=5
T 450 8600 9 8 1 1 0 0 1
pinlabel=P6.6/A6
T 300 8550 5 8 0 1 0 8 1
pinseq=5
T 450 8600 5 8 0 1 0 2 1
pintype=io
}
P 400 8200 100 8200 1 0 1
{
T 300 8250 5 8 1 1 0 6 1
pinnumber=6
T 450 8200 9 8 1 1 0 0 1
pinlabel=P6.7/A7
T 300 8150 5 8 0 1 0 8 1
pinseq=6
T 450 8200 5 8 0 1 0 2 1
pintype=io
}
P 400 7800 100 7800 1 0 1
{
T 300 7850 5 8 1 1 0 6 1
pinnumber=7
T 450 7800 9 8 1 1 0 0 1
pinlabel=Vref+
T 300 7750 5 8 0 1 0 8 1
pinseq=7
T 450 7800 5 8 0 1 0 2 1
pintype=out
}
P 400 7400 100 7400 1 0 1
{
T 300 7450 5 8 1 1 0 6 1
pinnumber=8
T 450 7400 9 8 1 1 0 0 1
pinlabel=XIN
T 300 7350 5 8 0 1 0 8 1
pinseq=8
T 450 7400 5 8 0 1 0 2 1
pintype=in
}
P 400 7000 100 7000 1 0 1
{
T 300 7050 5 8 1 1 0 6 1
pinnumber=9
T 450 7000 9 8 1 1 0 0 1
pinlabel=XOUT/TCLK
T 300 6950 5 8 0 1 0 8 1
pinseq=9
T 450 7000 5 8 0 1 0 2 1
pintype=io
}
P 400 6600 100 6600 1 0 1
{
T 300 6650 5 8 1 1 0 6 1
pinnumber=10
T 450 6600 9 8 1 1 0 0 1
pinlabel=VeREF+
T 300 6550 5 8 0 1 0 8 1
pinseq=10
T 450 6600 5 8 0 1 0 2 1
pintype=in
}
P 400 6200 100 6200 1 0 1
{
T 300 6250 5 8 1 1 0 6 1
pinnumber=11
T 450 6200 9 8 1 1 0 0 1
pinlabel=Vref-/VeREF-
T 300 6150 5 8 0 1 0 8 1
pinseq=11
T 450 6200 5 8 0 1 0 2 1
pintype=in
}
P 400 5800 100 5800 1 0 1
{
T 300 5850 5 8 1 1 0 6 1
pinnumber=12
T 450 5800 9 8 1 1 0 0 1
pinlabel=P5.1/S0
T 300 5750 5 8 0 1 0 8 1
pinseq=12
T 450 5800 5 8 0 1 0 2 1
pintype=io
}
P 400 5400 100 5400 1 0 1
{
T 300 5450 5 8 1 1 0 6 1
pinnumber=13
T 450 5400 9 8 1 1 0 0 1
pinlabel=P5.0/S1
T 300 5350 5 8 0 1 0 8 1
pinseq=13
T 450 5400 5 8 0 1 0 2 1
pintype=io
}
P 400 5000 100 5000 1 0 1
{
T 300 5050 5 8 1 1 0 6 1
pinnumber=14
T 450 5000 9 8 1 1 0 0 1
pinlabel=S2
T 300 4950 5 8 0 1 0 8 1
pinseq=14
T 450 5000 5 8 0 1 0 2 1
pintype=out
}
P 400 4600 100 4600 1 0 1
{
T 300 4650 5 8 1 1 0 6 1
pinnumber=15
T 450 4600 9 8 1 1 0 0 1
pinlabel=S3
T 300 4550 5 8 0 1 0 8 1
pinseq=15
T 450 4600 5 8 0 1 0 2 1
pintype=out
}
P 400 4200 100 4200 1 0 1
{
T 300 4250 5 8 1 1 0 6 1
pinnumber=16
T 450 4200 9 8 1 1 0 0 1
pinlabel=S4
T 300 4150 5 8 0 1 0 8 1
pinseq=16
T 450 4200 5 8 0 1 0 2 1
pintype=out
}
P 400 3800 100 3800 1 0 1
{
T 300 3850 5 8 1 1 0 6 1
pinnumber=17
T 450 3800 9 8 1 1 0 0 1
pinlabel=S5
T 300 3750 5 8 0 1 0 8 1
pinseq=17
T 450 3800 5 8 0 1 0 2 1
pintype=out
}
P 400 3400 100 3400 1 0 1
{
T 300 3450 5 8 1 1 0 6 1
pinnumber=18
T 450 3400 9 8 1 1 0 0 1
pinlabel=S6
T 300 3350 5 8 0 1 0 8 1
pinseq=18
T 450 3400 5 8 0 1 0 2 1
pintype=out
}
P 400 3000 100 3000 1 0 1
{
T 300 3050 5 8 1 1 0 6 1
pinnumber=19
T 450 3000 9 8 1 1 0 0 1
pinlabel=S7
T 300 2950 5 8 0 1 0 8 1
pinseq=19
T 450 3000 5 8 0 1 0 2 1
pintype=out
}
P 400 2600 100 2600 1 0 1
{
T 300 2650 5 8 1 1 0 6 1
pinnumber=20
T 450 2600 9 8 1 1 0 0 1
pinlabel=S8
T 300 2550 5 8 0 1 0 8 1
pinseq=20
T 450 2600 5 8 0 1 0 2 1
pintype=out
}
P 400 2200 100 2200 1 0 1
{
T 300 2250 5 8 1 1 0 6 1
pinnumber=21
T 450 2200 9 8 1 1 0 0 1
pinlabel=S9
T 300 2150 5 8 0 1 0 8 1
pinseq=21
T 450 2200 5 8 0 1 0 2 1
pintype=out
}
P 400 1800 100 1800 1 0 1
{
T 300 1850 5 8 1 1 0 6 1
pinnumber=22
T 450 1800 9 8 1 1 0 0 1
pinlabel=S10
T 300 1750 5 8 0 1 0 8 1
pinseq=22
T 450 1800 5 8 0 1 0 2 1
pintype=out
}
P 400 1400 100 1400 1 0 1
{
T 300 1450 5 8 1 1 0 6 1
pinnumber=23
T 450 1400 9 8 1 1 0 0 1
pinlabel=S11
T 300 1350 5 8 0 1 0 8 1
pinseq=23
T 450 1400 5 8 0 1 0 2 1
pintype=out
}
P 400 1000 100 1000 1 0 1
{
T 300 1050 5 8 1 1 0 6 1
pinnumber=24
T 450 1000 9 8 1 1 0 0 1
pinlabel=S12
T 300 950 5 8 0 1 0 8 1
pinseq=24
T 450 1000 5 8 0 1 0 2 1
pintype=out
}
P 400 600 100 600 1 0 1
{
T 300 650 5 8 1 1 0 6 1
pinnumber=25
T 450 600 9 8 1 1 0 0 1
pinlabel=S13
T 300 550 5 8 0 1 0 8 1
pinseq=25
T 450 600 5 8 0 1 0 2 1
pintype=out
}
P 2000 100 2000 400 1 0 0
{
T 1950 300 5 8 1 1 90 6 1
pinnumber=26
T 2000 450 9 8 1 1 90 0 1
pinlabel=S14
T 2050 300 5 8 0 1 90 8 1
pinseq=26
T 2000 450 5 8 0 1 90 2 1
pintype=out
}
P 2400 100 2400 400 1 0 0
{
T 2350 300 5 8 1 1 90 6 1
pinnumber=27
T 2400 450 9 8 1 1 90 0 1
pinlabel=S15
T 2450 300 5 8 0 1 90 8 1
pinseq=27
T 2400 450 5 8 0 1 90 2 1
pintype=out
}
P 2800 100 2800 400 1 0 0
{
T 2750 300 5 8 1 1 90 6 1
pinnumber=28
T 2800 450 9 8 1 1 90 0 1
pinlabel=S16
T 2850 300 5 8 0 1 90 8 1
pinseq=28
T 2800 450 5 8 0 1 90 2 1
pintype=out
}
P 3200 100 3200 400 1 0 0
{
T 3150 300 5 8 1 1 90 6 1
pinnumber=29
T 3200 450 9 8 1 1 90 0 1
pinlabel=S17
T 3250 300 5 8 0 1 90 8 1
pinseq=29
T 3200 450 5 8 0 1 90 2 1
pintype=out
}
P 3600 100 3600 400 1 0 0
{
T 3550 300 5 8 1 1 90 6 1
pinnumber=30
T 3600 450 9 8 1 1 90 0 1
pinlabel=S18
T 3650 300 5 8 0 1 90 8 1
pinseq=30
T 3600 450 5 8 0 1 90 2 1
pintype=out
}
P 4000 100 4000 400 1 0 0
{
T 3950 300 5 8 1 1 90 6 1
pinnumber=31
T 4000 450 9 8 1 1 90 0 1
pinlabel=S19
T 4050 300 5 8 0 1 90 8 1
pinseq=31
T 4000 450 5 8 0 1 90 2 1
pintype=out
}
P 4400 100 4400 400 1 0 0
{
T 4350 300 5 8 1 1 90 6 1
pinnumber=32
T 4400 450 9 8 1 1 90 0 1
pinlabel=S20
T 4450 300 5 8 0 1 90 8 1
pinseq=32
T 4400 450 5 8 0 1 90 2 1
pintype=out
}
P 4800 100 4800 400 1 0 0
{
T 4750 300 5 8 1 1 90 6 1
pinnumber=33
T 4800 450 9 8 1 1 90 0 1
pinlabel=S21
T 4850 300 5 8 0 1 90 8 1
pinseq=33
T 4800 450 5 8 0 1 90 2 1
pintype=out
}
P 5200 100 5200 400 1 0 0
{
T 5150 300 5 8 1 1 90 6 1
pinnumber=34
T 5200 450 9 8 1 1 90 0 1
pinlabel=S22
T 5250 300 5 8 0 1 90 8 1
pinseq=34
T 5200 450 5 8 0 1 90 2 1
pintype=out
}
P 5600 100 5600 400 1 0 0
{
T 5550 300 5 8 1 1 90 6 1
pinnumber=35
T 5600 450 9 8 1 1 90 0 1
pinlabel=S23
T 5650 300 5 8 0 1 90 8 1
pinseq=35
T 5600 450 5 8 0 1 90 2 1
pintype=out
}
P 6000 100 6000 400 1 0 0
{
T 5950 300 5 8 1 1 90 6 1
pinnumber=36
T 6000 450 9 8 1 1 90 0 1
pinlabel=S24
T 6050 300 5 8 0 1 90 8 1
pinseq=36
T 6000 450 5 8 0 1 90 2 1
pintype=out
}
P 6400 100 6400 400 1 0 0
{
T 6350 300 5 8 1 1 90 6 1
pinnumber=37
T 6400 450 9 8 1 1 90 0 1
pinlabel=S25
T 6450 300 5 8 0 1 90 8 1
pinseq=37
T 6400 450 5 8 0 1 90 2 1
pintype=out
}
P 6800 100 6800 400 1 0 0
{
T 6750 300 5 8 1 1 90 6 1
pinnumber=38
T 6800 450 9 8 1 1 90 0 1
pinlabel=S26
T 6850 300 5 8 0 1 90 8 1
pinseq=38
T 6800 450 5 8 0 1 90 2 1
pintype=out
}
P 7200 100 7200 400 1 0 0
{
T 7150 300 5 8 1 1 90 6 1
pinnumber=39
T 7200 450 9 8 1 1 90 0 1
pinlabel=S27
T 7250 300 5 8 0 1 90 8 1
pinseq=39
T 7200 450 5 8 0 1 90 2 1
pintype=out
}
P 7600 100 7600 400 1 0 0
{
T 7550 300 5 8 1 1 90 6 1
pinnumber=40
T 7600 450 9 8 1 1 90 0 1
pinlabel=S28
T 7650 300 5 8 0 1 90 8 1
pinseq=40
T 7600 450 5 8 0 1 90 2 1
pintype=out
}
P 8000 100 8000 400 1 0 0
{
T 7950 300 5 8 1 1 90 6 1
pinnumber=41
T 8000 450 9 8 1 1 90 0 1
pinlabel=S29
T 8050 300 5 8 0 1 90 8 1
pinseq=41
T 8000 450 5 8 0 1 90 2 1
pintype=out
}
P 8400 100 8400 400 1 0 0
{
T 8350 300 5 8 1 1 90 6 1
pinnumber=42
T 8400 450 9 8 1 1 90 0 1
pinlabel=S30
T 8450 300 5 8 0 1 90 8 1
pinseq=42
T 8400 450 5 8 0 1 90 2 1
pintype=out
}
P 8800 100 8800 400 1 0 0
{
T 8750 300 5 8 1 1 90 6 1
pinnumber=43
T 8800 450 9 8 1 1 90 0 1
pinlabel=S31
T 8850 300 5 8 0 1 90 8 1
pinseq=43
T 8800 450 5 8 0 1 90 2 1
pintype=out
}
P 9200 100 9200 400 1 0 0
{
T 9150 300 5 8 1 1 90 6 1
pinnumber=44
T 9200 450 9 8 1 1 90 0 1
pinlabel=S32
T 9250 300 5 8 0 1 90 8 1
pinseq=44
T 9200 450 5 8 0 1 90 2 1
pintype=out
}
P 9600 100 9600 400 1 0 0
{
T 9550 300 5 8 1 1 90 6 1
pinnumber=45
T 9600 450 9 8 1 1 90 0 1
pinlabel=S33
T 9650 300 5 8 0 1 90 8 1
pinseq=45
T 9600 450 5 8 0 1 90 2 1
pintype=out
}
P 10000 100 10000 400 1 0 0
{
T 9950 300 5 8 1 1 90 6 1
pinnumber=46
T 10000 450 9 8 1 1 90 0 1
pinlabel=P4.7/S34
T 10050 300 5 8 0 1 90 8 1
pinseq=46
T 10000 450 5 8 0 1 90 2 1
pintype=io
}
P 10400 100 10400 400 1 0 0
{
T 10350 300 5 8 1 1 90 6 1
pinnumber=47
T 10400 450 9 8 1 1 90 0 1
pinlabel=P4.6/S35
T 10450 300 5 8 0 1 90 8 1
pinseq=47
T 10400 450 5 8 0 1 90 2 1
pintype=io
}
P 10800 100 10800 400 1 0 0
{
T 10750 300 5 8 1 1 90 6 1
pinnumber=48
T 10800 450 9 8 1 1 90 0 1
pinlabel=P4.5/UCLK/S36
T 10850 300 5 8 0 1 90 8 1
pinseq=48
T 10800 450 5 8 0 1 90 2 1
pintype=io
}
P 11200 100 11200 400 1 0 0
{
T 11150 300 5 8 1 1 90 6 1
pinnumber=49
T 11200 450 9 8 1 1 90 0 1
pinlabel=P4.4/SOMI1/S37
T 11250 300 5 8 0 1 90 8 1
pinseq=49
T 11200 450 5 8 0 1 90 2 1
pintype=io
}
P 11600 100 11600 400 1 0 0
{
T 11550 300 5 8 1 1 90 6 1
pinnumber=50
T 11600 450 9 8 1 1 90 0 1
pinlabel=P4.3/SIMO1/S38
T 11650 300 5 8 0 1 90 8 1
pinseq=50
T 11600 450 5 8 0 1 90 2 1
pintype=io
}
P 13200 600 13500 600 1 0 1
{
T 13300 650 5 8 1 1 0 0 1
pinnumber=51
T 13150 600 9 8 1 1 0 6 1
pinlabel=P4.2/STE1/S39
T 13300 550 5 8 0 1 0 2 1
pinseq=51
T 13150 600 5 8 0 1 0 8 1
pintype=io
}
P 13200 1000 13500 1000 1 0 1
{
T 13300 1050 5 8 1 1 0 0 1
pinnumber=52
T 13150 1000 9 8 1 1 0 6 1
pinlabel=COM0
T 13300 950 5 8 0 1 0 2 1
pinseq=52
T 13150 1000 5 8 0 1 0 8 1
pintype=out
}
P 13200 1400 13500 1400 1 0 1
{
T 13300 1450 5 8 1 1 0 0 1
pinnumber=53
T 13150 1400 9 8 1 1 0 6 1
pinlabel=P5.2/COM1
T 13300 1350 5 8 0 1 0 2 1
pinseq=53
T 13150 1400 5 8 0 1 0 8 1
pintype=io
}
P 13200 1800 13500 1800 1 0 1
{
T 13300 1850 5 8 1 1 0 0 1
pinnumber=54
T 13150 1800 9 8 1 1 0 6 1
pinlabel=P5.3/COM2
T 13300 1750 5 8 0 1 0 2 1
pinseq=54
T 13150 1800 5 8 0 1 0 8 1
pintype=io
}
P 13200 2200 13500 2200 1 0 1
{
T 13300 2250 5 8 1 1 0 0 1
pinnumber=55
T 13150 2200 9 8 1 1 0 6 1
pinlabel=P5.4/COM3
T 13300 2150 5 8 0 1 0 2 1
pinseq=55
T 13150 2200 5 8 0 1 0 8 1
pintype=io
}
P 13200 2600 13500 2600 1 0 1
{
T 13300 2650 5 8 1 1 0 0 1
pinnumber=56
T 13150 2600 9 8 1 1 0 6 1
pinlabel=R03
T 13300 2550 5 8 0 1 0 2 1
pinseq=56
T 13150 2600 5 8 0 1 0 8 1
pintype=in
}
P 13200 3000 13500 3000 1 0 1
{
T 13300 3050 5 8 1 1 0 0 1
pinnumber=57
T 13150 3000 9 8 1 1 0 6 1
pinlabel=P5.5/R13
T 13300 2950 5 8 0 1 0 2 1
pinseq=57
T 13150 3000 5 8 0 1 0 8 1
pintype=io
}
P 13200 3400 13500 3400 1 0 1
{
T 13300 3450 5 8 1 1 0 0 1
pinnumber=58
T 13150 3400 9 8 1 1 0 6 1
pinlabel=P5.6/R23
T 13300 3350 5 8 0 1 0 2 1
pinseq=58
T 13150 3400 5 8 0 1 0 8 1
pintype=io
}
P 13200 3800 13500 3800 1 0 1
{
T 13300 3850 5 8 1 1 0 0 1
pinnumber=59
T 13150 3800 9 8 1 1 0 6 1
pinlabel=P5.7/R33
T 13300 3750 5 8 0 1 0 2 1
pinseq=59
T 13150 3800 5 8 0 1 0 8 1
pintype=io
}
P 13200 4200 13500 4200 1 0 1
{
T 13300 4250 5 8 1 1 0 0 1
pinnumber=60
T 13150 4200 9 8 1 1 0 6 1
pinlabel=DVcc2
T 13300 4150 5 8 0 1 0 2 1
pinseq=60
T 13150 4200 5 8 0 1 0 8 1
pintype=pwr
}
P 13200 4600 13500 4600 1 0 1
{
T 13300 4650 5 8 1 1 0 0 1
pinnumber=61
T 13150 4600 9 8 1 1 0 6 1
pinlabel=DVss2
T 13300 4550 5 8 0 1 0 2 1
pinseq=61
T 13150 4600 5 8 0 1 0 8 1
pintype=pwr
}
P 13200 5000 13500 5000 1 0 1
{
T 13300 5050 5 8 1 1 0 0 1
pinnumber=62
T 13150 5000 9 8 1 1 0 6 1
pinlabel=P4.1/URXD1
T 13300 4950 5 8 0 1 0 2 1
pinseq=62
T 13150 5000 5 8 0 1 0 8 1
pintype=io
}
P 13200 5400 13500 5400 1 0 1
{
T 13300 5450 5 8 1 1 0 0 1
pinnumber=63
T 13150 5400 9 8 1 1 0 6 1
pinlabel=P4.0/UTXD1
T 13300 5350 5 8 0 1 0 2 1
pinseq=63
T 13150 5400 5 8 0 1 0 8 1
pintype=io
}
P 13200 5800 13500 5800 1 0 1
{
T 13300 5850 5 8 1 1 0 0 1
pinnumber=64
T 13150 5800 9 8 1 1 0 6 1
pinlabel=P3.7/TB6
T 13300 5750 5 8 0 1 0 2 1
pinseq=64
T 13150 5800 5 8 0 1 0 8 1
pintype=io
}
P 13200 6200 13500 6200 1 0 1
{
T 13300 6250 5 8 1 1 0 0 1
pinnumber=65
T 13150 6200 9 8 1 1 0 6 1
pinlabel=P3.7/TB5
T 13300 6150 5 8 0 1 0 2 1
pinseq=65
T 13150 6200 5 8 0 1 0 8 1
pintype=io
}
P 13200 6600 13500 6600 1 0 1
{
T 13300 6650 5 8 1 1 0 0 1
pinnumber=66
T 13150 6600 9 8 1 1 0 6 1
pinlabel=P3.7/TB4
T 13300 6550 5 8 0 1 0 2 1
pinseq=66
T 13150 6600 5 8 0 1 0 8 1
pintype=io
}
P 13200 7000 13500 7000 1 0 1
{
T 13300 7050 5 8 1 1 0 0 1
pinnumber=67
T 13150 7000 9 8 1 1 0 6 1
pinlabel=P3.7/TB3
T 13300 6950 5 8 0 1 0 2 1
pinseq=67
T 13150 7000 5 8 0 1 0 8 1
pintype=io
}
P 13200 7400 13500 7400 1 0 1
{
T 13300 7450 5 8 1 1 0 0 1
pinnumber=68
T 13150 7400 9 8 1 1 0 6 1
pinlabel=P3.3/UCLK0
T 13300 7350 5 8 0 1 0 2 1
pinseq=68
T 13150 7400 5 8 0 1 0 8 1
pintype=io
}
P 13200 7800 13500 7800 1 0 1
{
T 13300 7850 5 8 1 1 0 0 1
pinnumber=69
T 13150 7800 9 8 1 1 0 6 1
pinlabel=P3.2/SOMI0
T 13300 7750 5 8 0 1 0 2 1
pinseq=69
T 13150 7800 5 8 0 1 0 8 1
pintype=io
}
P 13200 8200 13500 8200 1 0 1
{
T 13300 8250 5 8 1 1 0 0 1
pinnumber=70
T 13150 8200 9 8 1 1 0 6 1
pinlabel=P3.1/SIMO0
T 13300 8150 5 8 0 1 0 2 1
pinseq=70
T 13150 8200 5 8 0 1 0 8 1
pintype=io
}
P 13200 8600 13500 8600 1 0 1
{
T 13300 8650 5 8 1 1 0 0 1
pinnumber=71
T 13150 8600 9 8 1 1 0 6 1
pinlabel=P3.0/STE0
T 13300 8550 5 8 0 1 0 2 1
pinseq=71
T 13150 8600 5 8 0 1 0 8 1
pintype=io
}
P 13200 9000 13500 9000 1 0 1
{
T 13300 9050 5 8 1 1 0 0 1
pinnumber=72
T 13150 9000 9 8 1 1 0 6 1
pinlabel=P2.7/ADC12CLK
T 13300 8950 5 8 0 1 0 2 1
pinseq=72
T 13150 9000 5 8 0 1 0 8 1
pintype=io
}
P 13200 9400 13500 9400 1 0 1
{
T 13300 9450 5 8 1 1 0 0 1
pinnumber=73
T 13150 9400 9 8 1 1 0 6 1
pinlabel=P2.6/CAOUT
T 13300 9350 5 8 0 1 0 2 1
pinseq=73
T 13150 9400 5 8 0 1 0 8 1
pintype=io
}
P 13200 9800 13500 9800 1 0 1
{
T 13300 9850 5 8 1 1 0 0 1
pinnumber=74
T 13150 9800 9 8 1 1 0 6 1
pinlabel=P2.5/URXD0
T 13300 9750 5 8 0 1 0 2 1
pinseq=74
T 13150 9800 5 8 0 1 0 8 1
pintype=io
}
P 13200 10200 13500 10200 1 0 1
{
T 13300 10250 5 8 1 1 0 0 1
pinnumber=75
T 13150 10200 9 8 1 1 0 6 1
pinlabel=P2.4/UTXD0
T 13300 10150 5 8 0 1 0 2 1
pinseq=75
T 13150 10200 5 8 0 1 0 8 1
pintype=io
}
P 11600 10400 11600 10700 1 0 1
{
T 11550 10500 5 8 1 1 90 0 1
pinnumber=76
T 11600 10350 9 8 1 1 90 6 1
pinlabel=P2.3/TB2
T 11650 10500 5 8 0 1 90 2 1
pinseq=76
T 11600 10350 5 8 0 1 90 8 1
pintype=io
}
P 11200 10400 11200 10700 1 0 1
{
T 11150 10500 5 8 1 1 90 0 1
pinnumber=77
T 11200 10350 9 8 1 1 90 6 1
pinlabel=P2.2/TB1
T 11250 10500 5 8 0 1 90 2 1
pinseq=77
T 11200 10350 5 8 0 1 90 8 1
pintype=io
}
P 10800 10400 10800 10700 1 0 1
{
T 10750 10500 5 8 1 1 90 0 1
pinnumber=78
T 10800 10350 9 8 1 1 90 6 1
pinlabel=P2.1/TB0
T 10850 10500 5 8 0 1 90 2 1
pinseq=78
T 10800 10350 5 8 0 1 90 8 1
pintype=io
}
P 10400 10400 10400 10700 1 0 1
{
T 10350 10500 5 8 1 1 90 0 1
pinnumber=79
T 10400 10350 9 8 1 1 90 6 1
pinlabel=P2.0/TA2
T 10450 10500 5 8 0 1 90 2 1
pinseq=79
T 10400 10350 5 8 0 1 90 8 1
pintype=io
}
P 10000 10400 10000 10700 1 0 1
{
T 9950 10500 5 8 1 1 90 0 1
pinnumber=80
T 10000 10350 9 8 1 1 90 6 1
pinlabel=P1.7/CA1
T 10050 10500 5 8 0 1 90 2 1
pinseq=80
T 10000 10350 5 8 0 1 90 8 1
pintype=io
}
P 9600 10400 9600 10700 1 0 1
{
T 9550 10500 5 8 1 1 90 0 1
pinnumber=81
T 9600 10350 9 8 1 1 90 6 1
pinlabel=P1.6/CA0
T 9650 10500 5 8 0 1 90 2 1
pinseq=81
T 9600 10350 5 8 0 1 90 8 1
pintype=io
}
P 9200 10400 9200 10700 1 0 1
{
T 9150 10500 5 8 1 1 90 0 1
pinnumber=82
T 9200 10350 9 8 1 1 90 6 1
pinlabel=P1.5/TACLK/ACLK
T 9250 10500 5 8 0 1 90 2 1
pinseq=82
T 9200 10350 5 8 0 1 90 8 1
pintype=io
}
P 8800 10400 8800 10700 1 0 1
{
T 8750 10500 5 8 1 1 90 0 1
pinnumber=83
T 8800 10350 9 8 1 1 90 6 1
pinlabel=P1.4/TBCLK/SMCLK
T 8850 10500 5 8 0 1 90 2 1
pinseq=83
T 8800 10350 5 8 0 1 90 8 1
pintype=io
}
P 8400 10400 8400 10700 1 0 1
{
T 8350 10500 5 8 1 1 90 0 1
pinnumber=84
T 8400 10350 9 8 1 1 90 6 1
pinlabel=P1.3/TBOUTH/SVSOUT
T 8450 10500 5 8 0 1 90 2 1
pinseq=84
T 8400 10350 5 8 0 1 90 8 1
pintype=io
}
P 8000 10400 8000 10700 1 0 1
{
T 7950 10500 5 8 1 1 90 0 1
pinnumber=85
T 8000 10350 9 8 1 1 90 6 1
pinlabel=P1.2/TA1
T 8050 10500 5 8 0 1 90 2 1
pinseq=85
T 8000 10350 5 8 0 1 90 8 1
pintype=io
}
P 7600 10400 7600 10700 1 0 1
{
T 7550 10500 5 8 1 1 90 0 1
pinnumber=86
T 7600 10350 9 8 1 1 90 6 1
pinlabel=P1.1/TA0/MCLK
T 7650 10500 5 8 0 1 90 2 1
pinseq=86
T 7600 10350 5 8 0 1 90 8 1
pintype=io
}
P 7200 10400 7200 10700 1 0 1
{
T 7150 10500 5 8 1 1 90 0 1
pinnumber=87
T 7200 10350 9 8 1 1 90 6 1
pinlabel=P1.0/TA0
T 7250 10500 5 8 0 1 90 2 1
pinseq=87
T 7200 10350 5 8 0 1 90 8 1
pintype=io
}
P 6800 10400 6800 10700 1 0 1
{
T 6750 10500 5 8 1 1 90 0 1
pinnumber=88
T 6800 10350 9 8 1 1 90 6 1
pinlabel=XT2OUT
T 6850 10500 5 8 0 1 90 2 1
pinseq=88
T 6800 10350 5 8 0 1 90 8 1
pintype=out
}
P 6400 10400 6400 10700 1 0 1
{
T 6350 10500 5 8 1 1 90 0 1
pinnumber=89
T 6400 10350 9 8 1 1 90 6 1
pinlabel=XT2IN
T 6450 10500 5 8 0 1 90 2 1
pinseq=89
T 6400 10350 5 8 0 1 90 8 1
pintype=in
}
P 6000 10400 6000 10700 1 0 1
{
T 5950 10500 5 8 1 1 90 0 1
pinnumber=90
T 6000 10350 9 8 1 1 90 6 1
pinlabel=TDO/TDI
T 6050 10500 5 8 0 1 90 2 1
pinseq=90
T 6000 10350 5 8 0 1 90 8 1
pintype=io
}
P 5600 10400 5600 10700 1 0 1
{
T 5550 10500 5 8 1 1 90 0 1
pinnumber=91
T 5600 10350 9 8 1 1 90 6 1
pinlabel=TDI
T 5650 10500 5 8 0 1 90 2 1
pinseq=91
T 5600 10350 5 8 0 1 90 8 1
pintype=in
}
P 5200 10400 5200 10700 1 0 1
{
T 5150 10500 5 8 1 1 90 0 1
pinnumber=92
T 5200 10350 9 8 1 1 90 6 1
pinlabel=TMS
T 5250 10500 5 8 0 1 90 2 1
pinseq=92
T 5200 10350 5 8 0 1 90 8 1
pintype=in
}
P 4800 10400 4800 10700 1 0 1
{
T 4750 10500 5 8 1 1 90 0 1
pinnumber=93
T 4800 10350 9 8 1 1 90 6 1
pinlabel=TCK
T 4850 10500 5 8 0 1 90 2 1
pinseq=93
T 4800 10350 5 8 0 1 90 8 1
pintype=in
}
P 4400 10500 4400 10700 1 0 1
{
T 4350 10500 5 8 1 1 90 0 1
pinnumber=94
T 4400 10350 9 8 1 1 90 6 1
pinlabel=RST/NMI
T 4450 10500 5 8 0 1 90 2 1
pinseq=94
T 4400 10350 5 8 0 1 90 8 1
pintype=in
}
P 4000 10400 4000 10700 1 0 1
{
T 3950 10500 5 8 1 1 90 0 1
pinnumber=95
T 4000 10350 9 8 1 1 90 6 1
pinlabel=P6.0/A0
T 4050 10500 5 8 0 1 90 2 1
pinseq=95
T 4000 10350 5 8 0 1 90 8 1
pintype=io
}
P 3600 10400 3600 10700 1 0 1
{
T 3550 10500 5 8 1 1 90 0 1
pinnumber=96
T 3600 10350 9 8 1 1 90 6 1
pinlabel=P6.1/A1
T 3650 10500 5 8 0 1 90 2 1
pinseq=96
T 3600 10350 5 8 0 1 90 8 1
pintype=io
}
P 3200 10400 3200 10700 1 0 1
{
T 3150 10500 5 8 1 1 90 0 1
pinnumber=97
T 3200 10350 9 8 1 1 90 6 1
pinlabel=P6.2/A2
T 3250 10500 5 8 0 1 90 2 1
pinseq=97
T 3200 10350 5 8 0 1 90 8 1
pintype=io
}
P 2800 10400 2800 10700 1 0 1
{
T 2750 10500 5 8 1 1 90 0 1
pinnumber=98
T 2800 10350 9 8 1 1 90 6 1
pinlabel=AVss
T 2850 10500 5 8 0 1 90 2 1
pinseq=98
T 2800 10350 5 8 0 1 90 8 1
pintype=pwr
}
P 2400 10400 2400 10700 1 0 1
{
T 2350 10500 5 8 1 1 90 0 1
pinnumber=99
T 2400 10350 9 8 1 1 90 6 1
pinlabel=DVss
T 2450 10500 5 8 0 1 90 2 1
pinseq=99
T 2400 10350 5 8 0 1 90 8 1
pintype=pwr
}
P 2000 10400 2000 10700 1 0 1
{
T 1950 10500 5 8 1 1 90 0 1
pinnumber=100
T 2000 10350 9 8 1 1 90 6 1
pinlabel=AVcc
T 2050 10500 5 8 0 1 90 2 1
pinseq=100
T 2000 10350 5 8 0 1 90 8 1
pintype=pwr
}
T 2700 7250 5 10 0 0 0 0 1
footprint=none
T 2700 7450 5 10 0 0 0 0 1
description=16-bit mixed signal microcontroller
T 2700 7050 5 10 0 0 0 0 1
numslots=0
T 400 10450 3 10 1 0 0 0 1
MSP430x44x
L 4275 9725 4275 10025 3 0 0 0 -1 -1
V 4400 10450 50 6 0 0 0 -1 -1 0 -1 -1 -1 -1 -1
T 2700 6850 5 10 0 0 0 0 1
documentation=http://www-s.ti.com/sc/ds/msp430f447.pdf
