v 20041228 2
B 300 0 3000 3300 3 0 0 0 -1 -1 0 -1 -1 -1 -1 -1
T 4400 2775 5 10 0 0 0 0 1
device=PIC16F628
T 300 3350 3 10 1 0 0 0 1
PIC16F628
T 375 2650 3 8 1 0 0 0 1
RA2/AN2/Vref
P 300 2700 0 2700 1 0 1
{
T 136 2750 5 8 1 1 0 0 1
pinnumber=1
T 136 2750 5 8 0 0 0 0 1
pinseq=1
}
T 375 2350 3 8 1 0 0 0 1
RA3/AN3/CMP1
P 300 2400 0 2400 1 0 1
{
T 96 2450 5 8 1 1 0 0 1
pinnumber=2
T 96 2450 5 8 0 0 0 0 1
pinseq=2
}
T 375 2050 3 8 1 0 0 0 1
RA4/TOCKI/CMP2
P 300 2100 0 2100 1 0 1
{
T 120 2150 5 8 1 1 0 0 1
pinnumber=3
T 120 2150 5 8 0 0 0 0 1
pinseq=3
}
T 375 1750 3 8 1 0 0 0 1
RA5/MCLR/THV
P 300 1800 0 1800 1 0 1
{
T 96 1850 5 8 1 1 0 0 1
pinnumber=4
T 96 1850 5 8 0 0 0 0 1
pinseq=4
}
T 375 1450 3 8 1 0 0 0 1
VSS
P 300 1500 0 1500 1 0 1
{
T 120 1550 5 8 1 1 0 0 1
pinnumber=5
T 120 1550 5 8 0 0 0 0 1
pinseq=5
}
T 375 1150 3 8 1 0 0 0 1
RB0/INT
P 300 1200 0 1200 1 0 1
{
T 104 1250 5 8 1 1 0 0 1
pinnumber=6
T 104 1250 5 8 0 0 0 0 1
pinseq=6
}
T 375 850 3 8 1 0 0 0 1
RB1/RX/DT
P 300 900 0 900 1 0 1
{
T 120 950 5 8 1 1 0 0 1
pinnumber=7
T 120 950 5 8 0 0 0 0 1
pinseq=7
}
T 375 550 3 8 1 0 0 0 1
RB2/TX/CK
P 300 600 0 600 1 0 1
{
T 112 650 5 8 1 1 0 0 1
pinnumber=8
T 112 650 5 8 0 0 0 0 1
pinseq=8
}
T 375 250 3 8 1 0 0 0 1
RB3/CCP1
P 300 300 0 300 1 0 1
{
T 96 350 5 8 1 1 0 0 1
pinnumber=9
T 96 350 5 8 0 0 0 0 1
pinseq=9
}
T 2566 2750 3 8 1 0 0 0 1
RA1/AN1
P 3300 2800 3600 2800 1 0 1
{
T 3400 2850 5 8 1 1 0 0 1
pinnumber=18
T 3400 2850 5 8 0 0 0 0 1
pinseq=10
}
T 2526 2350 3 8 1 0 0 0 1
RA0/AN0
P 3300 2400 3600 2400 1 0 1
{
T 3400 2450 5 8 1 1 0 0 1
pinnumber=17
T 3400 2450 5 8 0 0 0 0 1
pinseq=11
}
T 1843 2050 3 8 1 0 0 0 1
RA7/OSC1/CLKIN
L 3300 2200 3200 2100 3 0 0 0 -1 -1
L 3300 2000 3200 2100 3 0 0 0 -1 -1
P 3300 2100 3600 2100 1 0 1
{
T 3400 2150 5 8 1 1 0 0 1
pinnumber=16
T 3400 2150 5 8 0 0 0 0 1
pinseq=12
}
T 1698 1750 3 8 1 0 0 0 1
RA6/OSC2/CLKOUT
P 3300 1800 3600 1800 1 0 1
{
T 3400 1850 5 8 1 1 0 0 1
pinnumber=15
T 3400 1850 5 8 0 0 0 0 1
pinseq=13
}
T 2934 1450 3 8 1 0 0 0 1
VDD
P 3300 1500 3600 1500 1 0 1
{
T 3400 1550 5 8 1 1 0 0 1
pinnumber=14
T 3400 1550 5 8 0 0 0 0 1
pinseq=14
}
T 2450 1150 3 8 1 0 0 0 1
RB7/T1OSI
P 3300 1200 3600 1200 1 0 1
{
T 3400 1250 5 8 1 1 0 0 1
pinnumber=13
T 3400 1250 5 8 0 0 0 0 1
pinseq=15
}
T 1834 850 3 8 1 0 0 0 1
RB6/T1OSO/T1CK1
P 3300 900 3600 900 1 0 1
{
T 3400 950 5 8 1 1 0 0 1
pinnumber=12
T 3400 950 5 8 0 0 0 0 1
pinseq=16
}
T 2950 550 3 8 1 0 0 0 1
RB5
P 3300 600 3600 600 1 0 1
{
T 3400 650 5 8 1 1 0 0 1
pinnumber=11
T 3400 650 5 8 0 0 0 0 1
pinseq=17
}
T 2526 250 3 8 1 0 0 0 1
RB4/PGM
P 3300 300 3600 300 1 0 1
{
T 3400 350 5 8 1 1 0 0 1
pinnumber=10
T 3400 350 5 8 0 0 0 0 1
pinseq=18
}
L 767 1881 1175 1881 3 0 0 0 -1 -1
T 3100 3100 8 10 1 1 0 6 1
refdes=U?
