v 20031231 2
P 0 7000 300 7000 1 0 0
{
T 200 7050 5 8 1 1 0 6 1
pinnumber=1
T 200 6950 5 8 0 1 0 8 1
pinseq=1
T 350 7000 9 8 1 1 0 0 1
pinlabel=MCLR/VPP
T 350 7000 5 8 0 1 0 2 1
pintype=in
}
P 0 6600 300 6600 1 0 0
{
T 200 6650 5 8 1 1 0 6 1
pinnumber=2
T 200 6550 5 8 0 1 0 8 1
pinseq=2
T 350 6600 9 8 1 1 0 0 1
pinlabel=RA0/AN0
T 350 6600 5 8 0 1 0 2 1
pintype=io
}
P 0 6200 300 6200 1 0 0
{
T 200 6250 5 8 1 1 0 6 1
pinnumber=3
T 200 6150 5 8 0 1 0 8 1
pinseq=3
T 350 6200 9 8 1 1 0 0 1
pinlabel=RA1/AN1
T 350 6200 5 8 0 1 0 2 1
pintype=io
}
P 0 5800 300 5800 1 0 0
{
T 200 5850 5 8 1 1 0 6 1
pinnumber=4
T 200 5750 5 8 0 1 0 8 1
pinseq=4
T 350 5800 9 8 1 1 0 0 1
pinlabel=RA2/AN2
T 350 5800 5 8 0 1 0 2 1
pintype=io
}
P 0 5400 300 5400 1 0 0
{
T 200 5450 5 8 1 1 0 6 1
pinnumber=5
T 200 5350 5 8 0 1 0 8 1
pinseq=5
T 350 5400 9 8 1 1 0 0 1
pinlabel=RA3/AN3/VREF
T 350 5400 5 8 0 1 0 2 1
pintype=io
}
P 0 5000 300 5000 1 0 0
{
T 200 5050 5 8 1 1 0 6 1
pinnumber=6
T 200 4950 5 8 0 1 0 8 1
pinseq=6
T 350 5000 9 8 1 1 0 0 1
pinlabel=RA4/TOCKI
T 350 5000 5 8 0 1 0 2 1
pintype=io
}
P 0 4600 300 4600 1 0 0
{
T 200 4650 5 8 1 1 0 6 1
pinnumber=7
T 200 4550 5 8 0 1 0 8 1
pinseq=7
T 350 4600 9 8 1 1 0 0 1
pinlabel=RA5/SS/AN4
T 350 4600 5 8 0 1 0 2 1
pintype=io
}
P 0 4200 300 4200 1 0 0
{
T 200 4250 5 8 1 1 0 6 1
pinnumber=8
T 200 4150 5 8 0 1 0 8 1
pinseq=8
T 350 4200 9 8 1 1 0 0 1
pinlabel=RE0/RD/AN5
T 350 4200 5 8 0 1 0 2 1
pintype=io
}
P 0 3800 300 3800 1 0 0
{
T 200 3850 5 8 1 1 0 6 1
pinnumber=9
T 200 3750 5 8 0 1 0 8 1
pinseq=9
T 350 3800 9 8 1 1 0 0 1
pinlabel=RE1/WR/AN6
T 350 3800 5 8 0 1 0 2 1
pintype=io
}
P 0 3400 300 3400 1 0 0
{
T 200 3450 5 8 1 1 0 6 1
pinnumber=10
T 200 3350 5 8 0 1 0 8 1
pinseq=10
T 350 3400 9 8 1 1 0 0 1
pinlabel=RE2/CS/AN7
T 350 3400 5 8 0 1 0 2 1
pintype=io
}
P 0 3000 300 3000 1 0 0
{
T 200 3050 5 8 1 1 0 6 1
pinnumber=13
T 200 2950 5 8 0 1 0 8 1
pinseq=13
T 350 3000 9 8 1 1 0 0 1
pinlabel=OSC1/CLKIN
T 350 3000 5 8 0 1 0 2 1
pintype=in
}
P 0 2600 300 2600 1 0 0
{
T 200 2650 5 8 1 1 0 6 1
pinnumber=14
T 200 2550 5 8 0 1 0 8 1
pinseq=14
T 350 2600 9 8 1 1 0 0 1
pinlabel=OSC2/CLKOUT
T 350 2600 5 8 0 1 0 2 1
pintype=out
}
P 0 2200 300 2200 1 0 0
{
T 200 2250 5 8 1 1 0 6 1
pinnumber=15
T 200 2150 5 8 0 1 0 8 1
pinseq=15
T 350 2200 9 8 1 1 0 0 1
pinlabel=RC0/T1OSO/T1CKI
T 350 2200 5 8 0 1 0 2 1
pintype=io
}
P 0 1800 300 1800 1 0 0
{
T 200 1850 5 8 1 1 0 6 1
pinnumber=16
T 200 1750 5 8 0 1 0 8 1
pinseq=16
T 350 1800 9 8 1 1 0 0 1
pinlabel=RC1/T1OSI/CCP2
T 350 1800 5 8 0 1 0 2 1
pintype=io
}
P 0 1400 300 1400 1 0 0
{
T 200 1450 5 8 1 1 0 6 1
pinnumber=17
T 200 1350 5 8 0 1 0 8 1
pinseq=17
T 350 1400 9 8 1 1 0 0 1
pinlabel=RC2/CCP1
T 350 1400 5 8 0 1 0 2 1
pintype=io
}
P 0 1000 300 1000 1 0 0
{
T 200 1050 5 8 1 1 0 6 1
pinnumber=18
T 200 950 5 8 0 1 0 8 1
pinseq=18
T 350 1000 9 8 1 1 0 0 1
pinlabel=RC3/SCK/SCL
T 350 1000 5 8 0 1 0 2 1
pintype=io
}
P 0 600 300 600 1 0 0
{
T 200 650 5 8 1 1 0 6 1
pinnumber=19
T 200 550 5 8 0 1 0 8 1
pinseq=19
T 350 600 9 8 1 1 0 0 1
pinlabel=RD0/PSP0
T 350 600 5 8 0 1 0 2 1
pintype=io
}
P 0 200 300 200 1 0 0
{
T 200 250 5 8 1 1 0 6 1
pinnumber=20
T 200 150 5 8 0 1 0 8 1
pinseq=20
T 350 200 9 8 1 1 0 0 1
pinlabel=RD1/PSP1
T 350 200 5 8 0 1 0 2 1
pintype=io
}
P 4200 7000 4500 7000 1 0 1
{
T 4300 7050 5 8 1 1 0 0 1
pinnumber=40
T 4300 6950 5 8 0 1 0 2 1
pinseq=40
T 4150 7000 9 8 1 1 0 6 1
pinlabel=RB7
T 4150 7000 5 8 0 1 0 8 1
pintype=io
}
P 4200 6600 4500 6600 1 0 1
{
T 4300 6650 5 8 1 1 0 0 1
pinnumber=39
T 4300 6550 5 8 0 1 0 2 1
pinseq=39
T 4150 6600 9 8 1 1 0 6 1
pinlabel=RB6
T 4150 6600 5 8 0 1 0 8 1
pintype=io
}
P 4200 6200 4500 6200 1 0 1
{
T 4300 6250 5 8 1 1 0 0 1
pinnumber=38
T 4300 6150 5 8 0 1 0 2 1
pinseq=38
T 4150 6200 9 8 1 1 0 6 1
pinlabel=RB5
T 4150 6200 5 8 0 1 0 8 1
pintype=io
}
P 4200 5800 4500 5800 1 0 1
{
T 4300 5850 5 8 1 1 0 0 1
pinnumber=37
T 4300 5750 5 8 0 1 0 2 1
pinseq=37
T 4150 5800 9 8 1 1 0 6 1
pinlabel=RB4
T 4150 5800 5 8 0 1 0 8 1
pintype=io
}
P 4200 5400 4500 5400 1 0 1
{
T 4300 5450 5 8 1 1 0 0 1
pinnumber=36
T 4300 5350 5 8 0 1 0 2 1
pinseq=36
T 4150 5400 9 8 1 1 0 6 1
pinlabel=RB3
T 4150 5400 5 8 0 1 0 8 1
pintype=io
}
P 4200 5000 4500 5000 1 0 1
{
T 4300 5050 5 8 1 1 0 0 1
pinnumber=35
T 4300 4950 5 8 0 1 0 2 1
pinseq=35
T 4150 5000 9 8 1 1 0 6 1
pinlabel=RB2
T 4150 5000 5 8 0 1 0 8 1
pintype=io
}
P 4200 4600 4500 4600 1 0 1
{
T 4300 4650 5 8 1 1 0 0 1
pinnumber=34
T 4300 4550 5 8 0 1 0 2 1
pinseq=34
T 4150 4600 9 8 1 1 0 6 1
pinlabel=RB1
T 4150 4600 5 8 0 1 0 8 1
pintype=io
}
P 4200 4200 4500 4200 1 0 1
{
T 4300 4250 5 8 1 1 0 0 1
pinnumber=33
T 4300 4150 5 8 0 1 0 2 1
pinseq=33
T 4150 4200 9 8 1 1 0 6 1
pinlabel=RB0/INT
T 4150 4200 5 8 0 1 0 8 1
pintype=io
}
P 4200 3800 4500 3800 1 0 1
{
T 4300 3850 5 8 1 1 0 0 1
pinnumber=30
T 4300 3750 5 8 0 1 0 2 1
pinseq=30
T 4150 3800 9 8 1 1 0 6 1
pinlabel=RD7/PSP7
T 4150 3800 5 8 0 1 0 8 1
pintype=io
}
P 4200 3400 4500 3400 1 0 1
{
T 4300 3450 5 8 1 1 0 0 1
pinnumber=29
T 4300 3350 5 8 0 1 0 2 1
pinseq=29
T 4150 3400 9 8 1 1 0 6 1
pinlabel=RD6/PSP6
T 4150 3400 5 8 0 1 0 8 1
pintype=io
}
P 4200 3000 4500 3000 1 0 1
{
T 4300 3050 5 8 1 1 0 0 1
pinnumber=28
T 4300 2950 5 8 0 1 0 2 1
pinseq=28
T 4150 3000 9 8 1 1 0 6 1
pinlabel=RD5/PSP5
T 4150 3000 5 8 0 1 0 8 1
pintype=io
}
P 4200 2600 4500 2600 1 0 1
{
T 4300 2650 5 8 1 1 0 0 1
pinnumber=27
T 4300 2550 5 8 0 1 0 2 1
pinseq=27
T 4150 2600 9 8 1 1 0 6 1
pinlabel=RD4/PSP4
T 4150 2600 5 8 0 1 0 8 1
pintype=io
}
P 4200 2200 4500 2200 1 0 1
{
T 4300 2250 5 8 1 1 0 0 1
pinnumber=26
T 4300 2150 5 8 0 1 0 2 1
pinseq=26
T 4150 2200 9 8 1 1 0 6 1
pinlabel=RC7/RX/DT
T 4150 2200 5 8 0 1 0 8 1
pintype=io
}
P 4200 1800 4500 1800 1 0 1
{
T 4300 1850 5 8 1 1 0 0 1
pinnumber=25
T 4300 1750 5 8 0 1 0 2 1
pinseq=25
T 4150 1800 9 8 1 1 0 6 1
pinlabel=RC6/TX/CK
T 4150 1800 5 8 0 1 0 8 1
pintype=io
}
P 4200 200 4500 200 1 0 1
{
T 4300 250 5 8 1 1 0 0 1
pinnumber=21
T 4300 150 5 8 0 1 0 2 1
pinseq=21
T 4150 200 9 8 1 1 0 6 1
pinlabel=RD2/PSP2
T 4150 200 5 8 0 1 0 8 1
pintype=io
}
P 4200 600 4500 600 1 0 1
{
T 4300 650 5 8 1 1 0 0 1
pinnumber=22
T 4300 550 5 8 0 1 0 2 1
pinseq=22
T 4150 600 9 8 1 1 0 6 1
pinlabel=RD3/PSP3
T 4150 600 5 8 0 1 0 8 1
pintype=io
}
P 4200 1000 4500 1000 1 0 1
{
T 4300 1050 5 8 1 1 0 0 1
pinnumber=23
T 4300 950 5 8 0 1 0 2 1
pinseq=23
T 4150 1000 9 8 1 1 0 6 1
pinlabel=RC4/SDI/SDA
T 4150 1000 5 8 0 1 0 8 1
pintype=io
}
P 4200 1400 4500 1400 1 0 1
{
T 4300 1450 5 8 1 1 0 0 1
pinnumber=24
T 4300 1350 5 8 0 1 0 2 1
pinseq=24
T 4150 1400 9 8 1 1 0 6 1
pinlabel=RC5/SDO
T 4150 1400 5 8 0 1 0 8 1
pintype=io
}
L 725 4725 900 4725 3 0 0 0 -1 -1
L 725 4325 925 4325 3 0 0 0 -1 -1
L 700 3925 925 3925 3 0 0 0 -1 -1
L 750 3525 950 3525 3 0 0 0 -1 -1
L 350 7125 750 7125 3 0 0 0 -1 -1
B 300 0 3900 7300 3 0 0 0 -1 -1 0 -1 -1 -1 -1 -1
T 300 7550 5 10 0 0 0 0 1
device=PIC16C74A
T 4200 7400 8 10 1 1 0 6 1
refdes=U?
T 300 8750 5 10 0 0 0 0 1
documentation=http://www.microchip.com/download/lit/pline/picmicro/families/16c7x/30390e.pdf
T 300 7950 5 10 0 0 0 0 1
footprint=DIP40
T 300 8550 5 10 0 0 0 0 1
description=8-bit CMOS microcontroller with A/D converter
T 300 7750 5 10 0 0 0 0 1
numslots=0
T 300 8150 5 10 0 0 0 0 1
net=Vcc:11,32
T 300 8350 5 10 0 0 0 0 1
net=GND:12,31
T 300 7350 9 10 1 0 0 0 1
PIC-16C74A
