v 20031231 2
P 0 800 300 800 1 0 0
{
T 200 850 5 8 1 1 0 6 1
pinnumber=5
T 200 750 5 8 0 1 0 8 1
pinseq=5
T 350 800 9 8 1 1 0 0 1
pinlabel=RC5/TOCKI
T 350 800 5 8 0 1 0 2 1
pintype=io
}
P 0 1100 300 1100 1 0 0
{
T 200 1150 5 8 1 1 0 6 1
pinnumber=4
T 200 1050 5 8 0 1 0 8 1
pinseq=4
T 350 1100 9 8 1 1 0 0 1
pinlabel=RB3/MCLR
T 350 1100 5 8 0 1 0 2 1
pintype=in
}
P 0 1700 300 1700 1 0 0
{
T 200 1750 5 8 1 1 0 6 1
pinnumber=2
T 200 1650 5 8 0 1 0 8 1
pinseq=2
T 350 1700 9 8 1 1 0 0 1
pinlabel=RB5/CLKIN
T 350 1700 5 8 0 1 0 2 1
pintype=io
}
P 0 1400 300 1400 1 0 0
{
T 200 1450 5 8 1 1 0 6 1
pinnumber=3
T 200 1350 5 8 0 1 0 8 1
pinseq=3
T 350 1400 9 8 1 1 0 0 1
pinlabel=RB4/CLKOUT
T 350 1400 5 8 0 1 0 2 1
pintype=io
}
P 0 500 300 500 1 0 0
{
T 200 550 5 8 1 1 0 6 1
pinnumber=6
T 200 450 5 8 0 1 0 8 1
pinseq=6
T 350 500 9 8 1 1 0 0 1
pinlabel=RC4
T 350 500 5 8 0 1 0 2 1
pintype=io
}
P 2000 1700 2300 1700 1 0 1
{
T 2100 1750 5 8 1 1 0 0 1
pinnumber=13
T 2100 1650 5 8 0 1 0 2 1
pinseq=13
T 1950 1700 9 8 1 1 0 6 1
pinlabel=RB0
T 1950 1700 5 8 0 1 0 8 1
pintype=io
}
P 2000 1400 2300 1400 1 0 1
{
T 2100 1450 5 8 1 1 0 0 1
pinnumber=12
T 2100 1350 5 8 0 1 0 2 1
pinseq=12
T 1950 1400 9 8 1 1 0 6 1
pinlabel=RB1
T 1950 1400 5 8 0 1 0 8 1
pintype=io
}
P 2000 1100 2300 1100 1 0 1
{
T 2100 1150 5 8 1 1 0 0 1
pinnumber=11
T 2100 1050 5 8 0 1 0 2 1
pinseq=11
T 1950 1100 9 8 1 1 0 6 1
pinlabel=RB2
T 1950 1100 5 8 0 1 0 8 1
pintype=io
}
P 2000 800 2300 800 1 0 1
{
T 2100 850 5 8 1 1 0 0 1
pinnumber=10
T 2100 750 5 8 0 1 0 2 1
pinseq=10
T 1950 800 9 8 1 1 0 6 1
pinlabel=RC0
T 1950 800 5 8 0 1 0 8 1
pintype=io
}
P 2000 500 2300 500 1 0 1
{
T 2100 550 5 8 1 1 0 0 1
pinnumber=9
T 2100 450 5 8 0 1 0 2 1
pinseq=9
T 1950 500 9 8 1 1 0 6 1
pinlabel=RC1
T 1950 500 5 8 0 1 0 8 1
pintype=io
}
P 2000 200 2300 200 1 0 1
{
T 2100 250 5 8 1 1 0 0 1
pinnumber=8
T 2100 150 5 8 0 1 0 2 1
pinseq=8
T 1950 200 9 8 1 1 0 6 1
pinlabel=RC2
T 1950 200 5 8 0 1 0 8 1
pintype=io
}
P 0 200 300 200 1 0 0
{
T 200 250 5 8 1 1 0 6 1
pinnumber=7
T 200 150 5 8 0 1 0 8 1
pinseq=7
T 350 200 9 8 1 1 0 0 1
pinlabel=RC3
T 350 200 5 8 0 1 0 2 1
pintype=io
}
B 300 0 1700 2000 3 0 0 0 -1 -1 0 -1 -1 -1 -1 -1
T 300 2250 5 10 0 0 0 0 1
device=PIC16C505
T 2000 2100 8 10 1 1 0 6 1
refdes=U?
T 300 2450 5 10 0 0 0 0 1
footprint=DIP14
T 300 3250 5 10 0 0 0 0 1
description=8-bit CMOS microcontroller
T 300 2650 5 10 0 0 0 0 1
numslots=0
T 300 3450 5 10 0 0 0 0 1
documentation=http://www.microchip.com/download/lit/pline/picmicro/families/16c5x/40192c.pdf
T 300 2850 5 10 0 0 0 0 1
net=Vcc:1
T 300 3050 5 10 0 0 0 0 1
net=GND:14
T 300 2040 9 10 1 0 0 0 1
PIC16C505
L 725 1225 1150 1225 3 0 0 0 -1 -1
