v 20031231 2
P 0 4100 300 4100 1 0 0
{
T 200 4150 5 8 1 1 0 6 1
pinnumber=1
T 200 4050 5 8 0 1 0 8 1
pinseq=1
T 350 4100 9 8 1 1 0 0 1
pinlabel=RTCC
T 350 4100 5 8 0 1 0 2 1
pintype=in
}
P 0 2600 300 2600 1 0 0
{
T 200 2650 5 8 1 1 0 6 1
pinnumber=6
T 200 2550 5 8 0 1 0 8 1
pinseq=6
T 350 2600 9 8 1 1 0 0 1
pinlabel=RA0
T 350 2600 5 8 0 1 0 2 1
pintype=io
}
P 0 2300 300 2300 1 0 0
{
T 200 2350 5 8 1 1 0 6 1
pinnumber=7
T 200 2250 5 8 0 1 0 8 1
pinseq=7
T 350 2300 9 8 1 1 0 0 1
pinlabel=RA1
T 350 2300 5 8 0 1 0 2 1
pintype=io
}
P 0 2000 300 2000 1 0 0
{
T 200 2050 5 8 1 1 0 6 1
pinnumber=8
T 200 1950 5 8 0 1 0 8 1
pinseq=8
T 350 2000 9 8 1 1 0 0 1
pinlabel=RA2
T 350 2000 5 8 0 1 0 2 1
pintype=io
}
P 0 1700 300 1700 1 0 0
{
T 200 1750 5 8 1 1 0 6 1
pinnumber=9
T 200 1650 5 8 0 1 0 8 1
pinseq=9
T 350 1700 9 8 1 1 0 0 1
pinlabel=RA3
T 350 1700 5 8 0 1 0 2 1
pintype=io
}
P 0 1400 300 1400 1 0 0
{
T 200 1450 5 8 1 1 0 6 1
pinnumber=10
T 200 1350 5 8 0 1 0 8 1
pinseq=10
T 350 1400 9 8 1 1 0 0 1
pinlabel=RB0
T 350 1400 5 8 0 1 0 2 1
pintype=io
}
P 0 1100 300 1100 1 0 0
{
T 200 1150 5 8 1 1 0 6 1
pinnumber=11
T 200 1050 5 8 0 1 0 8 1
pinseq=11
T 350 1100 9 8 1 1 0 0 1
pinlabel=RB1
T 350 1100 5 8 0 1 0 2 1
pintype=io
}
P 0 800 300 800 1 0 0
{
T 200 850 5 8 1 1 0 6 1
pinnumber=12
T 200 750 5 8 0 1 0 8 1
pinseq=12
T 350 800 9 8 1 1 0 0 1
pinlabel=RB2
T 350 800 5 8 0 1 0 2 1
pintype=io
}
P 0 500 300 500 1 0 0
{
T 200 550 5 8 1 1 0 6 1
pinnumber=13
T 200 450 5 8 0 1 0 8 1
pinseq=13
T 350 500 9 8 1 1 0 0 1
pinlabel=RB3
T 350 500 5 8 0 1 0 2 1
pintype=io
}
P 2300 2600 2600 2600 1 0 1
{
T 2400 2650 5 8 1 1 0 0 1
pinnumber=23
T 2400 2550 5 8 0 1 0 2 1
pinseq=23
T 2250 2600 9 8 1 1 0 6 1
pinlabel=RC5
T 2250 2600 5 8 0 1 0 8 1
pintype=io
}
P 2300 2000 2600 2000 1 0 1
{
T 2400 2050 5 8 1 1 0 0 1
pinnumber=21
T 2400 1950 5 8 0 1 0 2 1
pinseq=21
T 2250 2000 9 8 1 1 0 6 1
pinlabel=RC3
T 2250 2000 5 8 0 1 0 8 1
pintype=io
}
P 2300 1400 2600 1400 1 0 1
{
T 2400 1450 5 8 1 1 0 0 1
pinnumber=19
T 2400 1350 5 8 0 1 0 2 1
pinseq=19
T 2250 1400 9 8 1 1 0 6 1
pinlabel=RC1
T 2250 1400 5 8 0 1 0 8 1
pintype=io
}
P 2300 1100 2600 1100 1 0 1
{
T 2400 1150 5 8 1 1 0 0 1
pinnumber=18
T 2400 1050 5 8 0 1 0 2 1
pinseq=18
T 2250 1100 9 8 1 1 0 6 1
pinlabel=RC0
T 2250 1100 5 8 0 1 0 8 1
pintype=io
}
P 2300 800 2600 800 1 0 1
{
T 2400 850 5 8 1 1 0 0 1
pinnumber=17
T 2400 750 5 8 0 1 0 2 1
pinseq=17
T 2250 800 9 8 1 1 0 6 1
pinlabel=RB7
T 2250 800 5 8 0 1 0 8 1
pintype=io
}
P 2300 500 2600 500 1 0 1
{
T 2400 550 5 8 1 1 0 0 1
pinnumber=16
T 2400 450 5 8 0 1 0 2 1
pinseq=16
T 2250 500 9 8 1 1 0 6 1
pinlabel=RB6
T 2250 500 5 8 0 1 0 8 1
pintype=io
}
P 2300 200 2600 200 1 0 1
{
T 2400 250 5 8 1 1 0 0 1
pinnumber=15
T 2400 150 5 8 0 1 0 2 1
pinseq=15
T 2250 200 9 8 1 1 0 6 1
pinlabel=RB5
T 2250 200 5 8 0 1 0 8 1
pintype=io
}
T 300 4650 5 10 0 0 0 0 1
device=SX28AC
P 2300 1700 2600 1700 1 0 1
{
T 2400 1750 5 8 1 1 0 0 1
pinnumber=20
T 2400 1650 5 8 0 1 0 2 1
pinseq=20
T 2250 1700 9 8 1 1 0 6 1
pinlabel=RC2
T 2250 1700 5 8 0 1 0 8 1
pintype=io
}
P 2300 2300 2600 2300 1 0 1
{
T 2400 2350 5 8 1 1 0 0 1
pinnumber=22
T 2400 2250 5 8 0 1 0 2 1
pinseq=22
T 2250 2300 9 8 1 1 0 6 1
pinlabel=RC4
T 2250 2300 5 8 0 1 0 8 1
pintype=io
}
P 2300 2900 2600 2900 1 0 1
{
T 2400 2950 5 8 1 1 0 0 1
pinnumber=24
T 2400 2850 5 8 0 1 0 2 1
pinseq=24
T 2250 2900 9 8 1 1 0 6 1
pinlabel=RC6
T 2250 2900 5 8 0 1 0 8 1
pintype=io
}
P 2300 3200 2600 3200 1 0 1
{
T 2400 3250 5 8 1 1 0 0 1
pinnumber=25
T 2400 3150 5 8 0 1 0 2 1
pinseq=25
T 2250 3200 9 8 1 1 0 6 1
pinlabel=RC7
T 2250 3200 5 8 0 1 0 8 1
pintype=io
}
P 2300 3500 2600 3500 1 0 1
{
T 2400 3550 5 8 1 1 0 0 1
pinnumber=26
T 2400 3450 5 8 0 1 0 2 1
pinseq=26
T 2250 3500 9 8 1 1 0 6 1
pinlabel=OSC2
T 2250 3500 5 8 0 1 0 8 1
pintype=out
}
P 2300 3800 2600 3800 1 0 1
{
T 2400 3850 5 8 1 1 0 0 1
pinnumber=27
T 2400 3750 5 8 0 1 0 2 1
pinseq=27
T 2250 3800 9 8 1 1 0 6 1
pinlabel=OSC1
T 2250 3800 5 8 0 1 0 8 1
pintype=in
}
L 1853 4218 2248 4218 3 0 0 0 -1 -1
P 2400 4100 2600 4100 1 0 1
{
T 2400 4150 5 8 1 1 0 0 1
pinnumber=28
T 2400 4050 5 8 0 1 0 2 1
pinseq=28
T 2250 4100 9 8 1 1 0 6 1
pinlabel=MCLR
T 2250 4100 5 8 0 1 0 8 1
pintype=in
}
V 2350 4100 50 6 0 0 0 -1 -1 0 -1 -1 -1 -1 -1
P 0 200 300 200 1 0 0
{
T 200 250 5 8 1 1 0 6 1
pinnumber=14
T 200 150 5 8 0 1 0 8 1
pinseq=14
T 350 200 9 8 1 1 0 0 1
pinlabel=RB4
T 350 200 5 8 0 1 0 2 1
pintype=io
}
B 300 0 2000 4400 3 0 0 0 -1 -1 0 -1 -1 -1 -1 -1
T 2300 4500 8 10 1 1 0 6 1
refdes=U?
T 300 5050 5 10 0 0 0 0 1
footprint=DIP28
T 300 5250 5 10 0 0 0 0 1
description=8-bit configurable communication controller
T 300 4850 5 10 0 0 0 0 1
numslots=0
T 300 5450 5 10 0 0 0 0 1
net=Vcc:2
T 300 5650 5 10 0 0 0 0 1
net=GND:4
T 300 4450 9 10 1 0 0 0 1
SX28AC
T 300 5850 5 10 0 0 0 0 1
documentation=http://www.scenix.com/pdfs/products/sx/processor/SX-DDS-SX2028AC-16.pdf
