refdes	refdes	value	device	
AMP1	AMP1	unknown	cascade-amp	
AMP2	AMP2	unknown	cascade-amp	
DEF1	DEF1	unknown	cascade-defaults	
DEFAULTS	DEFAULTS	unknown	cascade-defaults-top	
FL1	FL1	unknown	cascade-filter	
MX1	MX1	unknown	cascade-mixer	
SOURCE	SOURCE	unknown	cascade-source	
T1	T1	unknown	cascade-transformer	
