v 20080110 1
C 40000 40000 0 0 0 title-B.sym
C 46400 48000 1 270 0 resistor-1.sym
{
T 46800 47700 5 10 0 0 270 0 1
device=RESISTOR
T 46700 47800 5 10 1 1 270 0 1
refdes=R1
T 46400 48000 5 10 1 1 0 0 1
footprint=R025
}
C 46400 45000 1 270 0 resistor-1.sym
{
T 46800 44700 5 10 0 0 270 0 1
device=RESISTOR
T 46700 44800 5 10 1 1 270 0 1
refdes=R2
T 46400 45000 5 10 1 1 0 0 1
footprint=R025
}
C 44900 47500 1 270 0 resistor-1.sym
{
T 45300 47200 5 10 0 0 270 0 1
device=RESISTOR
T 45200 47300 5 10 1 1 270 0 1
refdes=R3
T 44900 47500 5 10 1 1 0 0 1
footprint=R025
}
C 44900 45500 1 270 0 resistor-1.sym
{
T 45300 45200 5 10 0 0 270 0 1
device=RESISTOR
T 45200 45300 5 10 1 1 270 0 1
refdes=R4
T 44900 45500 5 10 1 1 0 0 1
footprint=R025
}
N 45000 47500 45000 48500 4
N 45000 48500 46500 48500 4
N 46500 48500 46500 48000 4
N 46500 44100 46500 44000 4
N 46500 44000 45000 44000 4
N 45000 44000 45000 44600 4
N 45000 45500 45000 46600 4
N 45900 46000 45000 46000 4
N 46500 46500 46500 47100 4
N 46500 45500 46500 45000 4
C 45900 45500 1 0 0 npn-1.sym
{
T 46800 46200 5 10 0 0 0 0 1
device=bjt_npn
T 46800 46000 5 10 1 1 0 0 1
refdes=Q?
T 46800 45800 5 10 1 1 0 0 1
type=?
T 46800 46400 5 10 0 0 0 0 1
slotrewrite=refdes,type
T 46800 46800 5 10 0 0 0 0 1
slotname=?
T 46800 46600 5 10 0 0 0 0 1
slotowner=?
}
C 40700 49000 1 0 0 2N3904-heavy.sym
{
T 41600 49900 5 10 1 1 0 0 1
type=2N3904
T 41600 49700 5 10 0 0 0 0 1
device=2N3904
T 41600 49500 5 10 1 1 0 0 1
refdes=Q42
T 41500 49100 5 10 0 0 0 0 1
footprint=TO92
}
T 48000 46100 9 10 1 0 0 0 2
Select the transistor, invoke the slot chooser (e + shift-s),
and choose the "TO92" slot under "Q42".
