v 20080706 2
C 44800 47300 1 0 0 7400-1.sym
{
T 45300 48200 5 10 0 0 0 0 1
device=7400
T 45100 48200 5 10 1 1 0 0 1
refdes=U1
T 45300 49550 5 10 0 0 0 0 1
footprint=DIP14
T 45300 48400 5 10 0 0 0 0 1
slot=1
}
C 44800 45500 1 0 0 7400-1.sym
{
T 45300 46400 5 10 0 0 0 0 1
device=7400
T 45100 46400 5 10 1 1 0 0 1
refdes=U1
T 45300 47750 5 10 0 0 0 0 1
footprint=DIP14
T 45300 46600 5 10 0 0 0 0 1
slot=2
}
N 46100 47800 46500 47800 4
N 46100 46000 46500 46000 4
N 44800 46200 44700 46200 4
N 44800 47600 44700 47600 4
N 44700 46200 44700 46500 4
N 44700 46500 46200 47300 4
N 44700 47600 44700 47300 4
N 44700 47300 46200 46500 4
N 46200 47300 46200 47800 4
N 46200 46500 46200 46000 4
N 44800 45800 44400 45800 4
N 44800 48000 44400 48000 4
