v 20080706 2
C 43700 46600 1 0 0 EMBEDDEDnand-1.sym
[
L 44000 46800 44000 47400 3 0 0 0 -1 -1
L 44000 47400 44400 47400 3 0 0 0 -1 -1
T 44700 46900 5 5 0 0 0 0 1
device=nand_gate
L 44000 46800 44400 46800 3 0 0 0 -1 -1
A 44400 47100 300 270 180 3 0 0 0 -1 -1
V 44750 47100 50 6 0 0 0 -1 -1 0 -1 -1 -1 -1 -1
P 44800 47100 45000 47100 1 0 1
{
T 44800 47150 5 8 1 1 0 0 1
pinnumber=?
T 44800 47100 5 5 0 1 0 2 1
pinfunction=output
T 44650 47100 5 5 0 1 0 8 1
pintype=out
}
P 44000 46900 43700 46900 1 0 1
{
T 43900 46950 5 8 1 1 0 6 1
pinnumber=?
T 43900 46900 5 5 0 1 0 2 1
pinfunction=B
T 44050 46900 5 5 0 1 0 2 1
pintype=in
}
P 44000 47300 43700 47300 1 0 1
{
T 43900 47350 5 8 1 1 0 6 1
pinnumber=?
T 43900 47300 5 5 0 1 0 2 1
pinfunction=A
T 44050 47300 5 5 0 1 0 2 1
pintype=in
}
T 44050 47100 8 10 0 1 0 1 1
part=?
T 44100 47500 8 10 0 1 0 0 1
refdes=U?
T 44050 46750 8 10 1 1 0 2 1
family=TTL
T 44100 46800 8 5 0 0 0 0 1
uuid=?
T 44100 46700 8 5 0 0 0 0 1
slotname=?
T 44100 46600 8 5 0 0 0 0 1
slotowner=?
T 44700 46800 5 5 0 0 0 0 1
slotrewrite=refdes,part
]
{
T 44700 46900 5 5 0 0 0 0 1
device=nand_gate
T 44050 47100 5 10 1 1 0 1 1
part=?
T 44100 47500 5 10 1 1 0 0 1
refdes=U?
T 44100 46800 5 5 0 0 0 0 1
uuid=e00983d0-f336-4dc7-a5e3-0c7963d0f047
T 44100 46700 5 5 0 0 0 0 1
slotname=?
T 44100 46600 5 5 0 0 0 0 1
slotowner=?
T 44700 46800 5 5 0 0 0 0 1
slotrewrite=refdes,part
}
