v 20080706 2
C 17400 25700 1 0 0 lm324-slots.sym
{
T 18800 27500 5 8 1 1 0 0 1
part=LM324
T 18800 27100 5 10 1 1 0 0 1
refdes=U100
T 17500 28900 5 8 0 0 0 0 1
vpads=A.-=2,A.+=3,A.out=1,B.-=6,B.+=5,B.out=7,C.-=9,C.+=10,C.out=8,D.-=13,D.+=12,D.out=14
T 17500 28600 5 8 0 0 0 0 1
packagepins=1=1,2=2,3=3,4=4,5=5,6=6,7=7,8=8,9=9,10=10,11=11,12=12,13=13,14=14
T 32520 -2039906056 5 10 0 0 0 0 1
uuid=e420a02c-4680-4084-ae0b-767d3782b282
}
C 17400 23700 1 0 0 opamp.sym
{
T 18150 24350 5 5 0 0 0 0 1
device=opamp
T 17650 24100 5 8 1 1 0 1 1
part=LM324
T 17900 24350 5 10 1 1 0 0 1
refdes=U100
T 18100 23950 5 5 0 0 0 0 1
slotname=opamp2
T 18100 23850 5 5 0 0 0 0 1
slotowner=e420a02c-4680-4084-ae0b-767d3782b282
T 18150 24250 5 5 0 0 0 0 1
slotrewrite=refdes,part
}
N 17400 23900 17200 23900 4
N 17200 23900 17200 22700 4
N 17200 22700 18600 22700 4
N 18600 22700 18600 24100 4
N 18600 24100 18400 24100 4
