v 20031231 2
F å 24
L 16 0 14 2 3 0 0 0 -1 -1
L 14 2 14 12 3 0 0 0 -1 -1
L 14 12 10 16 3 0 0 0 -1 -1
L 10 16 4 16 3 0 0 0 -1 -1
L 4 16 2 14 3 0 0 0 -1 -1
L 14 2 10 0 3 0 0 0 -1 -1
L 10 0 4 0 3 0 0 0 -1 -1
L 4 0 0 2 3 0 0 0 -1 -1
L 0 2 0 4 3 0 0 0 -1 -1
L 0 4 4 8 3 0 0 0 -1 -1
L 4 8 14 8 3 0 0 0 -1 -1
L 7 18 8 18 3 0 0 0 -1 -1
L 8 18 9 19 3 0 0 0 -1 -1
L 9 19 9 20 3 0 0 0 -1 -1
L 9 20 8 21 3 0 0 0 -1 -1
L 8 21 7 21 3 0 0 0 -1 -1
L 7 21 6 20 3 0 0 0 -1 -1
L 6 20 6 19 3 0 0 0 -1 -1
L 6 19 7 18 3 0 0 0 -1 -1
