v 20031231 2
F @ 36
L 22 2 14 0 3 0 0 0 -1 -1
L 14 0 10 0 3 0 0 0 -1 -1
L 10 0 6 2 3 0 0 0 -1 -1
L 6 2 2 6 3 0 0 0 -1 -1
L 2 6 0 10 3 0 0 0 -1 -1
L 0 10 0 16 3 0 0 0 -1 -1
L 0 16 2 20 3 0 0 0 -1 -1
L 2 20 6 24 3 0 0 0 -1 -1
L 6 24 10 26 3 0 0 0 -1 -1
L 10 26 16 26 3 0 0 0 -1 -1
L 16 26 20 24 3 0 0 0 -1 -1
L 20 24 24 20 3 0 0 0 -1 -1
L 24 20 26 16 3 0 0 0 -1 -1
L 26 16 26 12 3 0 0 0 -1 -1
L 26 12 24 8 3 0 0 0 -1 -1
L 24 8 22 6 3 0 0 0 -1 -1
L 22 6 18 4 3 0 0 0 -1 -1
L 18 4 16 8 3 0 0 0 -1 -1
L 16 8 18 20 3 0 0 0 -1 -1
L 18 18 16 20 3 0 0 0 -1 -1
L 16 20 12 20 3 0 0 0 -1 -1
L 12 20 8 18 3 0 0 0 -1 -1
L 8 18 6 14 3 0 0 0 -1 -1
L 6 14 6 8 3 0 0 0 -1 -1
L 6 8 10 6 3 0 0 0 -1 -1
L 10 6 14 6 3 0 0 0 -1 -1
L 14 6 16 8 3 0 0 0 -1 -1
