v 20031231 2
F D 26 
L 0 0 12 0 3 0 0 0 -1 -1
L 12 0 18 4 3 0 0 0 -1 -1
L 18 4 20 10 3 0 0 0 -1 -1
L 20 10 20 16 3 0 0 0 -1 -1
L 20 16 18 22 3 0 0 0 -1 -1
L 18 22 12 26 3 0 0 0 -1 -1
L 12 26 0 26 3 0 0 0 -1 -1
L 0 26 0 0 3 0 0 0 -1 -1
