v 20031231 2
F ó 20
L 6 0 2 2 3 0 0 0 -1 -1
L 2 2 0 6 3 0 0 0 -1 -1
L 0 6 0 10 3 0 0 0 -1 -1
L 0 10 2 14 3 0 0 0 -1 -1
L 2 14 6 16 3 0 0 0 -1 -1
L 6 16 8 16 3 0 0 0 -1 -1
L 8 16 12 14 3 0 0 0 -1 -1
L 12 14 14 10 3 0 0 0 -1 -1
L 14 10 14 6 3 0 0 0 -1 -1
L 14 6 12 2 3 0 0 0 -1 -1
L 12 2 8 0 3 0 0 0 -1 -1
L 8 0 6 0 3 0 0 0 -1 -1
L 8 21 11 26 3 0 0 0 -1 -1
L 11 26 12 26 3 0 0 0 -1 -1
L 8 21 12 26 3 0 0 0 -1 -1
