v 20031231 2
T 2200 4100 5 10 0 0 0 0 1
device=PAL16L8
T 2200 3700 5 10 0 0 0 0 1
slot=1
T 2200 3900 5 10 0 0 0 0 1
footprint=DIP20
B 300 0 1400 4200 3 0 0 0 -1 -1 0 -1 -1 -1 -1 -1
P 300 3900 0 3900 1 0 1
{
T 400 3900 3 10 1 1 0 0 1
pinlabel=I0
T 150 3950 5 8 1 1 0 0 1
pinnumber=2
T 150 3950 5 8 0 0 0 0 1
pinseq=2
}
P 300 3500 0 3500 1 0 1
{
T 400 3500 3 10 1 1 0 0 1
pinlabel=I1
T 150 3550 5 8 1 1 0 0 1
pinnumber=1
T 150 3550 5 8 0 0 0 0 1
pinseq=1
}
P 300 3100 0 3100 1 0 1
{
T 400 3100 3 10 1 1 0 0 1
pinlabel=I2
T 150 3150 5 8 1 1 0 0 1
pinnumber=3
T 150 3150 5 8 0 0 0 0 1
pinseq=3
}
P 300 2700 0 2700 1 0 1
{
T 400 2700 3 10 1 1 0 0 1
pinlabel=I3
T 150 2750 5 8 1 1 0 0 1
pinnumber=4
T 150 2750 5 8 0 0 0 0 1
pinseq=4
}
P 300 2300 0 2300 1 0 1
{
T 400 2300 3 10 1 1 0 0 1
pinlabel=I4
T 150 2350 5 8 1 1 0 0 1
pinnumber=5
T 150 2350 5 8 0 0 0 0 1
pinseq=5
}
P 300 1900 0 1900 1 0 1
{
T 400 1900 3 10 1 1 0 0 1
pinlabel=I5
T 150 1950 5 8 1 1 0 0 1
pinnumber=6
T 150 1950 5 8 0 0 0 0 1
pinseq=6
}
P 300 1500 0 1500 1 0 1
{
T 400 1500 3 10 1 1 0 0 1
pinlabel=I6
T 150 1550 5 8 1 1 0 0 1
pinnumber=7
T 150 1550 5 8 0 0 0 0 1
pinseq=7
}
P 300 1100 0 1100 1 0 1
{
T 400 1100 3 10 1 1 0 0 1
pinlabel=I7
T 150 1150 5 8 1 1 0 0 1
pinnumber=8
T 150 1150 5 8 0 0 0 0 1
pinseq=8
}
P 300 700 0 700 1 0 1
{
T 400 700 3 10 1 1 0 0 1
pinlabel=I8
T 150 750 5 8 1 1 0 0 1
pinnumber=9
T 150 750 5 8 0 0 0 0 1
pinseq=9
}
P 300 300 0 300 1 0 1
{
T 400 300 3 10 1 1 0 0 1
pinlabel=I9
T 150 350 5 8 1 1 0 0 1
pinnumber=11
T 150 350 5 8 0 0 0 0 1
pinseq=11
}
P 2000 2700 1700 2700 1 0 0
{
T 1300 2700 3 10 1 1 0 0 1
pinlabel=FI5
T 1800 2750 5 8 1 1 0 0 1
pinnumber=17
T 1800 2750 5 8 0 0 0 0 1
pinseq=17
}
P 2000 2300 1700 2300 1 0 0
{
T 1300 2300 3 10 1 1 0 0 1
pinlabel=FI4
T 1800 2350 5 8 1 1 0 0 1
pinnumber=16
T 1800 2350 5 8 0 0 0 0 1
pinseq=16
}
P 2000 1900 1700 1900 1 0 0
{
T 1300 1900 3 10 1 1 0 0 1
pinlabel=FI3
T 1800 1950 5 8 1 1 0 0 1
pinnumber=15
T 1800 1950 5 8 0 0 0 0 1
pinseq=15
}
P 2000 1500 1700 1500 1 0 0
{
T 1300 1500 3 10 1 1 0 0 1
pinlabel=FI2
T 1800 1550 5 8 1 1 0 0 1
pinnumber=14
T 1800 1550 5 8 0 0 0 0 1
pinseq=14
}
P 2000 1100 1700 1100 1 0 0
{
T 1300 1100 3 10 1 1 0 0 1
pinlabel=FI1
T 1800 1150 5 8 1 1 0 0 1
pinnumber=13
T 1800 1150 5 8 0 0 0 0 1
pinseq=13
}
T 300 4250 9 10 1 1 0 0 1
PAL16L8
T 1700 4300 8 10 1 1 0 0 1
refdes=U?
P 2000 700 1700 700 1 0 0
{
T 1300 700 3 10 1 1 0 0 1
pinlabel=F0
T 1800 750 5 8 1 1 0 0 1
pinnumber=12
T 1800 750 5 8 0 0 0 0 1
pinseq=12
}
P 2000 3100 1700 3100 1 0 0
{
T 1300 3100 3 10 1 1 0 0 1
pinlabel=FI6
T 1800 3150 5 8 1 1 0 0 1
pinnumber=18
T 1800 3150 5 8 0 0 0 0 1
pinseq=18
}
P 2000 3500 1700 3500 1 0 0
{
T 1300 3500 3 10 1 1 0 0 1
pinlabel=F7
T 1800 3550 5 8 1 1 0 0 1
pinnumber=19
T 1800 3550 5 8 0 0 0 0 1
pinseq=19
}
