[
A1
PATTERN
model


]
[
Cm
PATTERN
CAPACITOR
20p

]
[
Cp
PATTERN
CAPACITOR
20p

]
[
M1
PATTERN
PMOS_TRANSISTOR


]
[
Rb
PATTERN
RESISTOR
5.6k

]
[
Rlm
PATTERN
RESISTOR
500k

]
[
Rlp
PATTERN
RESISTOR
1meg

]
[
Rt
PATTERN
RESISTOR
1k

]
[
V1
none
vpulse
pulse 3.3 0 1u 10p 10p 1.25u 2.5u

]
[
Vdd
none
VOLTAGE_SOURCE
DC 3.3V

]
[
X1
PATTERN
LVD


]
(
Vdd1
M1-B
M1-S
Rlp-2
Vdd-1
X1-6
)
(
GND
Cm-2
Cp-2
Rb-1
Rlm-2
V1-2
Vdd-2
X1-2
X1-7
)
(
LVH
M1-D
M1-G
Rb-2
X1-3
)
(
i
V1-1
X1-1
)
(
p
Cp-1
Rlp-1
Rt-1
X1-5
)
(
m
Cm-1
Rlm-1
Rt-2
X1-4
)
