v 20031231 2
T 1900 3600 8 10 1 1 0 6 1
refdes=D?
T 300 3550 5 10 0 0 0 0 1
device=sc52-11
T 300 3750 5 10 0 0 0 0 1
footprint=none
T 300 3950 5 10 0 0 0 0 1
numslots=0
T 300 4150 5 10 0 0 0 0 1
description=7-segment-display with common cathode
P 900 0 900 300 1 0 0
{
T 950 200 5 8 1 1 180 6 1
pinnumber=3
T 950 200 5 8 0 1 180 8 1
pinseq=1
T 900 350 9 8 1 1 180 5 1
pinlabel=CC
T 900 500 5 8 0 1 180 5 1
pintype=pas
}
P 1300 0 1300 300 1 0 0
{
T 1350 200 5 8 1 1 180 6 1
pinnumber=8
T 1350 200 5 8 0 1 180 8 1
pinseq=2
T 1300 350 9 8 1 1 180 5 1
pinlabel=CC
T 1300 500 5 8 0 1 180 5 1
pintype=pas
}
P 0 3300 300 3300 1 0 0
{
T 200 3350 5 8 1 1 0 6 1
pinnumber=7
T 200 3250 5 8 0 1 0 8 1
pinseq=3
T 350 3300 9 8 1 1 0 0 1
pinlabel=a
T 350 3300 5 8 0 1 0 2 1
pintype=pas
}
P 0 2900 300 2900 1 0 0
{
T 200 2950 5 8 1 1 0 6 1
pinnumber=6
T 200 2850 5 8 0 1 0 8 1
pinseq=4
T 350 2900 9 8 1 1 0 0 1
pinlabel=b
T 350 2900 5 8 0 1 0 2 1
pintype=pas
}
P 0 2500 300 2500 1 0 0
{
T 200 2550 5 8 1 1 0 6 1
pinnumber=4
T 200 2450 5 8 0 1 0 8 1
pinseq=5
T 350 2500 9 8 1 1 0 0 1
pinlabel=c
T 350 2500 5 8 0 1 0 2 1
pintype=pas
}
P 0 2100 300 2100 1 0 0
{
T 200 2150 5 8 1 1 0 6 1
pinnumber=2
T 200 2050 5 8 0 1 0 8 1
pinseq=6
T 350 2100 9 8 1 1 0 0 1
pinlabel=d
T 350 2100 5 8 0 1 0 2 1
pintype=pas
}
P 0 500 300 500 1 0 0
{
T 200 550 5 8 1 1 0 6 1
pinnumber=5
T 200 450 5 8 0 1 0 8 1
pinseq=10
T 350 500 9 8 1 1 0 0 1
pinlabel=dp
T 350 500 5 8 0 1 0 2 1
pintype=pas
}
P 0 1700 300 1700 1 0 0
{
T 200 1750 5 8 1 1 0 6 1
pinnumber=1
T 200 1650 5 8 0 1 0 8 1
pinseq=7
T 350 1700 9 8 1 1 0 0 1
pinlabel=e
T 350 1700 5 8 0 1 0 2 1
pintype=pas
}
P 0 1300 300 1300 1 0 0
{
T 200 1350 5 8 1 1 0 6 1
pinnumber=9
T 200 1250 5 8 0 1 0 8 1
pinseq=8
T 350 1300 9 8 1 1 0 0 1
pinlabel=f
T 350 1300 5 8 0 1 0 2 1
pintype=pas
}
P 0 900 300 900 1 0 0
{
T 200 950 5 8 1 1 0 6 1
pinnumber=10
T 200 850 5 8 0 1 0 8 1
pinseq=9
T 350 900 9 8 1 1 0 0 1
pinlabel=g
T 350 900 5 8 0 1 0 2 1
pintype=pas
}
B 300 300 1600 3200 3 0 0 0 -1 -1 0 -1 -1 -1 -1 -1
L 800 1950 850 2000 3 0 0 0 -1 -1
L 850 2000 1475 2000 3 0 0 0 -1 -1
L 1475 2000 1525 1950 3 0 0 0 -1 -1
L 800 1950 850 1900 3 0 0 0 -1 -1
L 850 1900 1475 1900 3 0 0 0 -1 -1
L 1475 1900 1525 1950 3 0 0 0 -1 -1
L 800 2800 850 2850 3 0 0 0 -1 -1
L 850 2850 1475 2850 3 0 0 0 -1 -1
L 1475 2850 1525 2800 3 0 0 0 -1 -1
L 800 2800 850 2750 3 0 0 0 -1 -1
L 850 2750 1475 2750 3 0 0 0 -1 -1
L 1475 2750 1525 2800 3 0 0 0 -1 -1
L 800 1100 850 1150 3 0 0 0 -1 -1
L 850 1150 1475 1150 3 0 0 0 -1 -1
L 1475 1150 1525 1100 3 0 0 0 -1 -1
L 800 1100 850 1050 3 0 0 0 -1 -1
L 850 1050 1475 1050 3 0 0 0 -1 -1
L 1475 1050 1525 1100 3 0 0 0 -1 -1
V 1675 975 75 3 0 0 0 -1 -1 0 -1 -1 -1 -1 -1
L 750 1900 800 1850 3 0 0 0 -1 -1
L 750 1900 700 1850 3 0 0 0 -1 -1
L 750 1150 800 1200 3 0 0 0 -1 -1
L 750 1150 700 1200 3 0 0 0 -1 -1
L 700 1200 700 1850 3 0 0 0 -1 -1
L 800 1850 800 1200 3 0 0 0 -1 -1
L 1575 1900 1625 1850 3 0 0 0 -1 -1
L 1575 1900 1525 1850 3 0 0 0 -1 -1
L 1575 1150 1625 1200 3 0 0 0 -1 -1
L 1575 1150 1525 1200 3 0 0 0 -1 -1
L 1525 1200 1525 1850 3 0 0 0 -1 -1
L 1625 1850 1625 1200 3 0 0 0 -1 -1
L 1575 2750 1625 2700 3 0 0 0 -1 -1
L 1575 2750 1525 2700 3 0 0 0 -1 -1
L 1575 2000 1625 2050 3 0 0 0 -1 -1
L 1575 2000 1525 2050 3 0 0 0 -1 -1
L 1525 2050 1525 2700 3 0 0 0 -1 -1
L 1625 2700 1625 2050 3 0 0 0 -1 -1
L 750 2750 800 2700 3 0 0 0 -1 -1
L 750 2750 700 2700 3 0 0 0 -1 -1
L 750 2000 800 2050 3 0 0 0 -1 -1
L 750 2000 700 2050 3 0 0 0 -1 -1
L 700 2050 700 2700 3 0 0 0 -1 -1
L 800 2700 800 2050 3 0 0 0 -1 -1
T 1125 2650 9 10 1 0 0 0 1
a
T 1425 2350 9 10 1 0 0 0 1
b
T 1425 1450 9 10 1 0 0 0 1
c
T 1125 1200 9 10 1 0 0 0 1
d
T 850 1450 9 10 1 0 0 0 1
e
T 850 2350 9 10 1 0 0 0 1
f
T 1125 2050 9 10 1 0 0 0 1
g
T 1575 725 9 10 1 0 0 0 1
dp
T 300 4350 5 10 0 0 0 0 1
documentation=http://www.kingbright-led.com/data/spec/SC52-11EWA.pdf
