v 20050820 2
P 600 1000 600 800 1 0 0
{
T 500 850 5 6 1 1 0 0 1
pinnumber=3
T 500 850 5 6 0 0 0 0 1
pinseq=1
T 600 1000 5 10 0 0 0 0 1
pinlabel=C
T 600 1000 5 10 0 0 0 0 1
pintype=pas
}
P 600 200 600 0 1 0 1
{
T 500 50 5 6 1 1 0 0 1
pinnumber=2
T 500 50 5 6 0 0 0 0 1
pinseq=3
T 600 200 5 10 0 0 0 0 1
pinlabel=E
T 600 200 5 10 0 0 0 0 1
pintype=pas
}
V 500 501 316 3 0 0 0 -1 -1 0 -1 -1 -1 -1 -1
T 900 700 5 10 0 0 0 0 1
device=PNP_TRANSISTOR
L 600 200 400 400 3 0 0 0 -1 -1
L 600 800 400 600 3 0 0 0 -1 -1
L 400 700 400 300 3 0 0 0 -1 -1
P 0 500 184 500 1 0 0
{
T 100 550 5 6 1 1 0 0 1
pinnumber=1
T 100 550 5 6 0 0 0 0 1
pinseq=2
T 0 500 5 10 0 0 0 0 1
pinlabel=B
T 0 500 5 10 0 0 0 0 1
pintype=pas
}
L 400 500 184 500 3 0 0 0 -1 -1
L 400 400 436 328 3 0 0 0 -1 -1
L 400 400 472 364 3 0 0 0 -1 -1
L 472 364 436 328 3 0 0 0 -1 -1
T 900 500 8 10 1 1 0 0 1
refdes=Q?
T 900 200 9 10 1 0 0 0 1
SPICE PNP
