v 20031231 2
B 0 300 2000 300 3 0 0 0 -1 -1 0 -1 -1 -1 -1 -1
T 100 300 9 10 0 1 0 0 1
device=directive
T 100 400 9 10 1 1 0 0 1
refdes=A?
T 600 400 9 10 1 0 0 0 1
SPICE directive
T 100 100 8 10 1 1 0 0 1
file=?
T 100 100 8 10 1 1 0 0 1
value=?
