v 20040710 2
P 0 400 300 400 1 0 0
{
T 200 450 5 8 1 1 0 6 1
pinnumber=3
T 200 350 5 8 0 1 0 8 1
pinseq=1
T 350 400 5 8 0 1 0 2 1
pintype=in
T 350 400 9 8 0 1 0 0 1
pinlabel=A
}
L 300 600 300 200 3 0 0 0 -1 -1
L 300 600 700 400 3 0 0 0 -1 -1
L 300 200 700 400 3 0 0 0 -1 -1
P 700 400 1000 400 1 0 1
{
T 800 450 5 8 1 1 0 0 1
pinnumber=4
T 800 350 5 8 0 1 0 2 1
pinseq=2
T 650 400 5 8 0 1 0 8 1
pintype=tri
T 650 400 9 8 0 1 0 6 1
pinlabel=Y
}
P 500 300 500 0 1 0 1
{
T 550 100 5 8 1 1 0 0 1
pinnumber=2
T 550 100 5 8 0 1 0 2 1
pinseq=3
T 500 300 5 8 0 1 0 0 1
pintype=in
T 500 350 9 8 0 1 0 3 1
pinlabel=EN
}
T 200 900 8 10 1 1 0 0 1
refdes=U?
T 1200 0 5 10 0 0 0 0 1
net=VSS:8
T 1200 200 5 10 0 0 0 0 1
net=VDD:16
T 1200 400 5 10 0 0 0 0 1
net=VCC:1
T 1200 600 5 10 0 0 0 0 1
device=40109
T 1200 800 5 10 0 0 0 0 1
slot=1
T 1200 1000 5 10 0 0 0 0 1
numslots=4
T 1200 1200 5 10 0 0 0 0 1
slotdef=1:3,4,2
T 1200 1400 5 10 0 0 0 0 1
slotdef=2:6,5,7
T 1200 1600 5 10 0 0 0 0 1
slotdef=3:14,13,15
T 1200 1800 5 10 0 0 0 0 1
slotdef=4:10,11,9
T 1200 2000 5 10 0 0 0 0 1
footprint=DIP16
T 1200 2200 5 10 0 0 0 0 1
description=4 LOW-to-HIGH voltage level shifter
T 200 700 9 10 1 0 0 0 1
40109
