v 20031231 2
T 500 5200 8 10 1 1 0 6 1
refdes=U?
T 3400 950 5 10 0 0 0 0 1
device=4014
T 3400 1150 5 10 0 0 0 0 1
footprint=DIP16
T 3400 1350 5 10 0 0 0 0 1
net=VSS:8
T 3400 1550 5 10 0 0 0 0 1
net=VDD:16
P 0 700 300 700 1 0 0
{
T 200 750 5 8 1 1 0 6 1
pinnumber=9
T 200 650 5 8 0 1 0 8 1
pinseq=1
T 350 700 9 8 1 1 0 0 1
pinlabel=Parallel/Serial
T 350 700 5 8 0 1 0 2 1
pintype=in
}
P 0 1100 300 1100 1 0 0
{
T 200 1150 5 8 1 1 0 6 1
pinnumber=11
T 200 1050 5 8 0 1 0 8 1
pinseq=2
T 350 1100 9 8 1 1 0 0 1
pinlabel=Serial In
T 350 1100 5 8 0 1 0 2 1
pintype=in
}
P 0 1500 300 1500 1 0 0
{
T 200 1550 5 8 1 1 0 6 1
pinnumber=1
T 200 1450 5 8 0 1 0 8 1
pinseq=3
T 350 1500 9 8 1 1 0 0 1
pinlabel=I8
T 350 1500 5 8 0 1 0 2 1
pintype=in
}
P 0 1900 300 1900 1 0 0
{
T 200 1950 5 8 1 1 0 6 1
pinnumber=15
T 200 1850 5 8 0 1 0 8 1
pinseq=4
T 350 1900 9 8 1 1 0 0 1
pinlabel=I7
T 350 1900 5 8 0 1 0 2 1
pintype=in
}
P 0 2300 300 2300 1 0 0
{
T 200 2350 5 8 1 1 0 6 1
pinnumber=14
T 200 2250 5 8 0 1 0 8 1
pinseq=5
T 350 2300 9 8 1 1 0 0 1
pinlabel=I6
T 350 2300 5 8 0 1 0 2 1
pintype=in
}
P 0 2700 300 2700 1 0 0
{
T 200 2750 5 8 1 1 0 6 1
pinnumber=13
T 200 2650 5 8 0 1 0 8 1
pinseq=6
T 350 2700 9 8 1 1 0 0 1
pinlabel=I5
T 350 2700 5 8 0 1 0 2 1
pintype=in
}
P 0 3100 300 3100 1 0 0
{
T 200 3150 5 8 1 1 0 6 1
pinnumber=4
T 200 3050 5 8 0 1 0 8 1
pinseq=7
T 350 3100 9 8 1 1 0 0 1
pinlabel=I4
T 350 3100 5 8 0 1 0 2 1
pintype=in
}
P 0 3500 300 3500 1 0 0
{
T 200 3550 5 8 1 1 0 6 1
pinnumber=5
T 200 3450 5 8 0 1 0 8 1
pinseq=8
T 350 3500 9 8 1 1 0 0 1
pinlabel=I3
T 350 3500 5 8 0 1 0 2 1
pintype=in
}
P 0 3900 300 3900 1 0 0
{
T 200 3950 5 8 1 1 0 6 1
pinnumber=6
T 200 3850 5 8 0 1 0 8 1
pinseq=9
T 350 3900 9 8 1 1 0 0 1
pinlabel=I2
T 350 3900 5 8 0 1 0 2 1
pintype=in
}
P 0 4300 300 4300 1 0 0
{
T 200 4350 5 8 1 1 0 6 1
pinnumber=7
T 200 4250 5 8 0 1 0 8 1
pinseq=10
T 350 4300 9 8 1 1 0 0 1
pinlabel=I1
T 350 4300 5 8 0 1 0 2 1
pintype=in
}
P 0 4700 300 4700 1 0 0
{
T 200 4750 5 8 1 1 0 6 1
pinnumber=10
T 200 4650 5 8 0 1 0 8 1
pinseq=11
T 400 4700 9 8 1 1 0 0 1
pinlabel=CLK
T 400 4700 5 8 0 1 0 2 1
pintype=clk
}
L 400 4700 300 4775 3 0 0 0 -1 -1
L 400 4700 300 4625 3 0 0 0 -1 -1
P 3000 700 2700 700 1 0 0
{
T 2800 750 5 8 1 1 0 0 1
pinnumber=3
T 2800 650 5 8 0 1 0 2 1
pinseq=12
T 2650 700 9 8 1 1 0 6 1
pinlabel=Q8
T 2650 700 5 8 0 1 0 8 1
pintype=out
}
P 3000 1100 2700 1100 1 0 0
{
T 2800 1150 5 8 1 1 0 0 1
pinnumber=12
T 2800 1050 5 8 0 1 0 2 1
pinseq=13
T 2650 1100 9 8 1 1 0 6 1
pinlabel=Q7
T 2650 1100 5 8 0 1 0 8 1
pintype=out
}
P 3000 1500 2700 1500 1 0 0
{
T 2800 1550 5 8 1 1 0 0 1
pinnumber=2
T 2800 1450 5 8 0 1 0 2 1
pinseq=14
T 2650 1500 9 8 1 1 0 6 1
pinlabel=Q6
T 2650 1500 5 8 0 1 0 8 1
pintype=out
}
B 300 300 2400 4800 3 0 0 0 -1 -1 0 -1 -1 -1 -1 -1
T 3400 750 5 10 0 0 0 0 1
description=8-bit shift register with parallel load
T 3400 1750 5 10 0 0 0 0 1
numslots=0
T 300 50 9 10 1 0 0 0 1
4014
L 950 825 1325 825 3 0 0 0 -1 -1
