v 20031231 2
P 0 1300 200 1300 1 0 0
{
T 200 1350 5 8 1 1 0 6 1
pinnumber=1
T 200 1250 5 8 0 1 0 8 1
pinseq=1
T 350 1300 9 8 1 1 0 0 1
pinlabel=CLK
T 350 1300 5 8 0 1 0 2 1
pintype=clk
}
P 0 1000 300 1000 1 0 0
{
T 200 1050 5 8 1 1 0 6 1
pinnumber=2
T 200 950 5 8 0 1 0 8 1
pinseq=2
T 350 1000 9 8 1 1 0 0 1
pinlabel=Reset
T 350 1000 5 8 0 1 0 2 1
pintype=in
}
P 1700 2100 2000 2100 1 0 1
{
T 1800 2150 5 8 1 1 0 0 1
pinnumber=12
T 1800 2050 5 8 0 1 0 2 1
pinseq=12
T 1650 2100 9 8 1 1 0 6 1
pinlabel=Q1
T 1650 2100 5 8 0 1 0 8 1
pintype=out
}
P 1700 1800 2000 1800 1 0 1
{
T 1800 1850 5 8 1 1 0 0 1
pinnumber=11
T 1800 1750 5 8 0 1 0 2 1
pinseq=11
T 1650 1800 9 8 1 1 0 6 1
pinlabel=Q2
T 1650 1800 5 8 0 1 0 8 1
pintype=out
}
P 1700 1500 2000 1500 1 0 1
{
T 1800 1550 5 8 1 1 0 0 1
pinnumber=9
T 1800 1450 5 8 0 1 0 2 1
pinseq=9
T 1650 1500 9 8 1 1 0 6 1
pinlabel=Q3
T 1650 1500 5 8 0 1 0 8 1
pintype=out
}
P 1700 1200 2000 1200 1 0 1
{
T 1800 1250 5 8 1 1 0 0 1
pinnumber=6
T 1800 1150 5 8 0 1 0 2 1
pinseq=6
T 1650 1200 9 8 1 1 0 6 1
pinlabel=Q4
T 1650 1200 5 8 0 1 0 8 1
pintype=out
}
P 1700 900 2000 900 1 0 1
{
T 1800 950 5 8 1 1 0 0 1
pinnumber=5
T 1800 850 5 8 0 1 0 2 1
pinseq=5
T 1650 900 9 8 1 1 0 6 1
pinlabel=Q5
T 1650 900 5 8 0 1 0 8 1
pintype=out
}
P 1700 600 2000 600 1 0 1
{
T 1800 650 5 8 1 1 0 0 1
pinnumber=4
T 1800 550 5 8 0 1 0 2 1
pinseq=4
T 1650 600 9 8 1 1 0 6 1
pinlabel=Q6
T 1650 600 5 8 0 1 0 8 1
pintype=out
}
P 1700 300 2000 300 1 0 1
{
T 1800 350 5 8 1 1 0 0 1
pinnumber=3
T 1800 250 5 8 0 1 0 2 1
pinseq=3
T 1650 300 9 8 1 1 0 6 1
pinlabel=Q7
T 1650 300 5 8 0 1 0 8 1
pintype=out
}
B 300 0 1400 2400 3 0 0 0 -1 -1 0 -1 -1 -1 -1 -1
T 300 2850 5 10 0 0 0 0 1
device=4024
T 300 2650 5 10 0 0 0 0 1
footprint=DIP14
T 1700 2500 8 10 1 1 0 6 1
refdes=U?
T 300 3050 5 10 0 0 0 0 1
description=7-bit binary counter
T 300 3650 5 10 0 0 0 0 1
numslots=0
T 300 3250 5 10 0 0 0 0 1
net=VDD:14
T 300 3450 5 10 0 0 0 0 1
net=VSS:7
T 300 2440 3 10 1 1 0 0 1
4024
V 250 1300 50 6 0 0 0 -1 -1 0 -1 -1 -1 -1 -1
