v 20041228 2
T 400 2000 8 10 1 1 0 6 1
refdes=U?
T 2000 50 5 10 0 0 0 0 1
device=4027
T 2000 250 5 10 0 0 0 0 1
footprint=DIP16
T 2000 450 5 10 0 0 0 0 1
net=VSS:8
T 2000 650 5 10 0 0 0 0 1
net=VDD:16
P 800 0 800 300 1 0 0
{
T 850 100 5 8 1 1 0 0 1
pinnumber=12
T 850 100 5 8 0 1 0 2 1
pinseq=1
T 800 350 9 8 1 1 0 3 1
pinlabel=R
T 800 500 5 8 0 1 0 3 1
pintype=in
}
P 0 700 300 700 1 0 0
{
T 200 750 5 8 1 1 0 6 1
pinnumber=11
T 200 650 5 8 0 1 0 8 1
pinseq=2
T 350 700 9 8 1 1 0 0 1
pinlabel=K
T 350 700 5 8 0 1 0 2 1
pintype=in
}
P 0 1500 300 1500 1 0 0
{
T 200 1550 5 8 1 1 0 6 1
pinnumber=10
T 200 1450 5 8 0 1 0 8 1
pinseq=3
T 350 1500 9 8 1 1 0 0 1
pinlabel=J
T 350 1500 5 8 0 1 0 2 1
pintype=in
}
P 0 1100 300 1100 1 0 0
{
T 200 1150 5 8 1 1 0 6 1
pinnumber=13
T 200 1050 5 8 0 1 0 8 1
pinseq=4
T 400 1100 9 8 1 1 0 0 1
pinlabel=CLK
T 400 1100 5 8 0 1 0 2 1
pintype=in
}
L 400 1100 300 1175 3 0 0 0 -1 -1
L 400 1100 300 1025 3 0 0 0 -1 -1
P 1700 900 1400 900 1 0 0
{
T 1500 950 5 8 1 1 0 0 1
pinnumber=15
T 1500 850 5 8 0 1 0 2 1
pinseq=5
T 1350 900 9 8 1 1 0 6 1
pinlabel=Q
T 1350 900 5 8 0 1 0 8 1
pintype=out
}
P 1700 1300 1500 1300 1 0 0
{
T 1500 1350 5 8 1 1 0 0 1
pinnumber=14
T 1500 1250 5 8 0 1 0 2 1
pinseq=6
T 1350 1300 9 8 1 1 0 6 1
pinlabel=Q
T 1350 1300 5 8 0 1 0 8 1
pintype=out
}
V 1450 1300 50 6 0 0 0 -1 -1 0 -1 -1 -1 -1 -1
P 800 2200 800 1900 1 0 0
{
T 850 2000 5 8 1 1 0 0 1
pinnumber=9
T 850 2000 5 8 0 1 0 2 1
pinseq=7
T 800 1850 9 8 1 1 0 5 1
pinlabel=S
T 800 1700 5 8 0 1 0 5 1
pintype=in
}
B 300 300 1100 1600 3 0 0 0 -1 -1 0 -1 -1 -1 -1 -1
T 2000 850 5 10 0 0 0 0 1
slot=1
T 2000 1050 5 10 0 0 0 0 1
numslots=2
T 2000 1250 5 10 0 0 0 0 1
slotdef=1:12,11,10,13,15,14,9
T 2000 1450 5 10 0 0 0 0 1
slotdef=2:4,5,6,3,1,2,7
L 1260 1420 1350 1420 3 0 0 0 -1 -1
T 2000 1650 5 10 0 0 0 0 1
description=2 JK master-slave flip-flop
T 100 50 9 10 1 0 0 0 1
4027
