v 20031231 2
T 500 2400 8 10 1 1 0 6 1
refdes=U?
T 2000 950 5 10 0 0 0 0 1
device=4045
T 2000 1150 5 10 0 0 0 0 1
footprint=DIP16
T 2000 1350 5 10 0 0 0 0 1
net=VSS:14
T 2000 1550 5 10 0 0 0 0 1
net=VDD:3
P 0 1100 300 1100 1 0 0
{
T 200 1150 5 8 1 1 0 6 1
pinnumber=16
T 200 1050 5 8 0 1 0 8 1
pinseq=1
T 350 1100 9 8 1 1 0 0 1
pinlabel=X1
T 350 1100 5 8 0 1 0 2 1
pintype=in
}
P 0 1500 300 1500 1 0 0
{
T 200 1550 5 8 1 1 0 6 1
pinnumber=15
T 200 1450 5 8 0 1 0 8 1
pinseq=2
T 350 1500 9 8 1 1 0 0 1
pinlabel=X0
T 350 1500 5 8 0 1 0 2 1
pintype=in
}
P 0 700 300 700 1 0 0
{
T 200 750 5 8 1 1 0 6 1
pinnumber=1
T 200 650 5 8 0 1 0 8 1
pinseq=3
T 350 700 9 8 1 1 0 0 1
pinlabel=PS
T 350 700 5 8 0 1 0 2 1
pintype=in
}
P 0 1900 300 1900 1 0 0
{
T 200 1950 5 8 1 1 0 6 1
pinnumber=2
T 200 1850 5 8 0 1 0 8 1
pinseq=4
T 350 1900 9 8 1 1 0 0 1
pinlabel=NS
T 350 1900 5 8 0 1 0 2 1
pintype=in
}
P 1600 1100 1300 1100 1 0 0
{
T 1400 1150 5 8 1 1 0 0 1
pinnumber=8
T 1400 1050 5 8 0 1 0 2 1
pinseq=5
T 1250 1100 9 8 1 1 0 6 1
pinlabel=QB
T 1250 1100 5 8 0 1 0 8 1
pintype=out
}
P 1600 1500 1300 1500 1 0 0
{
T 1400 1550 5 8 1 1 0 0 1
pinnumber=7
T 1400 1450 5 8 0 1 0 2 1
pinseq=6
T 1250 1500 9 8 1 1 0 6 1
pinlabel=QA
T 1250 1500 5 8 0 1 0 8 1
pintype=out
}
B 300 300 1000 2000 3 0 0 0 -1 -1 0 -1 -1 -1 -1 -1
T 2000 750 5 10 0 0 0 0 1
description=21-stage counter
T 2000 1750 5 10 0 0 0 0 1
numslots=0
T 300 50 9 10 1 0 0 0 1
4045
