v 20031231 2
P 0 2300 300 2300 1 0 0
{
T 200 2350 5 8 1 1 0 6 1
pinnumber=10
T 200 2250 5 8 0 1 0 8 1
pinseq=10
T 350 2300 9 8 1 1 0 0 1
pinlabel=A
T 350 2300 5 8 0 1 0 2 1
pintype=in
}
P 0 2000 300 2000 1 0 0
{
T 200 2050 5 8 1 1 0 6 1
pinnumber=9
T 200 1950 5 8 0 1 0 8 1
pinseq=9
T 350 2000 9 8 1 1 0 0 1
pinlabel=B
T 350 2000 5 8 0 1 0 2 1
pintype=in
}
P 0 1000 300 1000 1 0 0
{
T 200 1050 5 8 1 1 0 6 1
pinnumber=3
T 200 950 5 8 0 1 0 8 1
pinseq=3
T 350 1000 9 8 1 1 0 0 1
pinlabel=Y
T 350 1000 5 8 0 1 0 2 1
pintype=pas
}
P 0 1300 300 1300 1 0 0
{
T 200 1350 5 8 1 1 0 6 1
pinnumber=13
T 200 1250 5 8 0 1 0 8 1
pinseq=13
T 350 1300 9 8 1 1 0 0 1
pinlabel=X
T 350 1300 5 8 0 1 0 2 1
pintype=pas
}
B 300 0 1400 2600 3 0 0 0 -1 -1 0 -1 -1 -1 -1 -1
T 300 2850 5 10 0 0 0 0 1
device=4052
T 300 3050 5 10 0 0 0 0 1
footprint=DIP16
P 0 200 300 200 1 0 0
{
T 200 250 5 8 1 1 0 6 1
pinnumber=6
T 200 150 5 8 0 1 0 8 1
pinseq=6
T 350 200 9 8 1 1 0 0 1
pinlabel=INH
T 350 200 5 8 0 1 0 2 1
pintype=in
}
P 1700 1400 2000 1400 1 0 1
{
T 1800 1450 5 8 1 1 0 0 1
pinnumber=11
T 1800 1350 5 8 0 1 0 2 1
pinseq=11
T 1650 1400 9 8 1 1 0 6 1
pinlabel=X3
T 1650 1400 5 8 0 1 0 8 1
pintype=pas
}
P 1700 1700 2000 1700 1 0 1
{
T 1800 1750 5 8 1 1 0 0 1
pinnumber=15
T 1800 1650 5 8 0 1 0 2 1
pinseq=15
T 1650 1700 9 8 1 1 0 6 1
pinlabel=X2
T 1650 1700 5 8 0 1 0 8 1
pintype=pas
}
P 1700 2000 2000 2000 1 0 1
{
T 1800 2050 5 8 1 1 0 0 1
pinnumber=14
T 1800 1950 5 8 0 1 0 2 1
pinseq=14
T 1650 2000 9 8 1 1 0 6 1
pinlabel=X1
T 1650 2000 5 8 0 1 0 8 1
pintype=pas
}
P 1700 2300 2000 2300 1 0 1
{
T 1800 2350 5 8 1 1 0 0 1
pinnumber=12
T 1800 2250 5 8 0 1 0 2 1
pinseq=12
T 1650 2300 9 8 1 1 0 6 1
pinlabel=X0
T 1650 2300 5 8 0 1 0 8 1
pintype=pas
}
P 1700 1100 2000 1100 1 0 1
{
T 1800 1150 5 8 1 1 0 0 1
pinnumber=1
T 1800 1050 5 8 0 1 0 2 1
pinseq=1
T 1650 1100 9 8 1 1 0 6 1
pinlabel=Y0
T 1650 1100 5 8 0 1 0 8 1
pintype=pas
}
P 1700 800 2000 800 1 0 1
{
T 1800 850 5 8 1 1 0 0 1
pinnumber=5
T 1800 750 5 8 0 1 0 2 1
pinseq=5
T 1650 800 9 8 1 1 0 6 1
pinlabel=Y1
T 1650 800 5 8 0 1 0 8 1
pintype=pas
}
P 1700 500 2000 500 1 0 1
{
T 1800 550 5 8 1 1 0 0 1
pinnumber=2
T 1800 450 5 8 0 1 0 2 1
pinseq=2
T 1650 500 9 8 1 1 0 6 1
pinlabel=Y2
T 1650 500 5 8 0 1 0 8 1
pintype=pas
}
P 1700 200 2000 200 1 0 1
{
T 1800 250 5 8 1 1 0 0 1
pinnumber=4
T 1800 150 5 8 0 1 0 2 1
pinseq=4
T 1650 200 9 8 1 1 0 6 1
pinlabel=Y3
T 1650 200 5 8 0 1 0 8 1
pintype=pas
}
T 1700 2700 8 10 1 1 0 6 1
refdes=U?
T 300 4050 5 10 0 0 0 0 1
description=2 4-1 analogue multiplexer/demultiplexer
T 300 3850 5 10 0 0 0 0 1
numslots=0
T 300 3250 5 10 0 0 0 0 1
net=VDD:16
T 300 3450 5 10 0 0 0 0 1
net=VSS:8
T 300 3650 5 10 0 0 0 0 1
net=VEE:7
T 300 4250 5 10 0 0 0 0 1
documentation=http://www.semiconductors.philips.com/acrobat/datasheets/HEF4052B_CNV_3.pdf
T 300 2640 3 10 1 1 0 0 1
4052
