v 20031231 2
L 300 800 800 500 3 0 0 0 -1 -1
T 600 900 5 10 0 0 0 0 1
device=4069
T 600 1100 5 10 0 0 0 0 1
slot=1
T 600 1300 5 10 0 0 0 0 1
numslots=6
T 600 1500 5 10 0 0 0 0 1
slotdef=1:1,2
T 600 1700 5 10 0 0 0 0 1
slotdef=2:3,4
T 600 1900 5 10 0 0 0 0 1
slotdef=3:5,6
T 600 2100 5 10 0 0 0 0 1
slotdef=4:9,8
T 600 2300 5 10 0 0 0 0 1
slotdef=5:11,10
T 600 2500 5 10 0 0 0 0 1
slotdef=6:13,12
L 800 500 300 200 3 0 0 0 -1 -1
L 300 800 300 500 3 0 0 0 -1 -1
L 300 500 300 200 3 0 0 0 -1 -1
V 250 500 50 6 0 0 0 -1 -1 0 -1 -1 -1 -1 -1
P 1100 500 800 500 1 0 0
{
T 900 550 5 8 1 1 0 0 1
pinnumber=2
T 900 450 5 8 0 1 0 2 1
pinseq=2
T 750 500 9 8 0 1 0 6 1
pinlabel=Y
T 750 500 5 8 0 1 0 8 1
pintype=out
}
P 200 500 0 500 1 0 1
{
T 200 550 5 8 1 1 0 6 1
pinnumber=1
T 200 450 5 8 0 1 0 8 1
pinseq=1
T 350 500 9 8 0 1 0 0 1
pinlabel=A
T 350 500 5 8 0 1 0 2 1
pintype=in
}
T 300 900 8 10 1 1 0 0 1
refdes=U?
T 600 3300 5 10 0 0 0 0 1
net=GND:7
T 600 3100 5 10 0 0 0 0 1
net=Vcc:14
T 600 2700 5 10 0 0 0 0 1
footprint=DIP14
T 600 2900 5 10 0 0 0 0 1
description=6 inverters
T 600 3500 5 10 0 0 0 0 1
documentation=http://www.semiconductors.philips.com/acrobat/datasheets/HEF4069UB_CNV_3.pdf
T 300 0 9 8 1 0 0 0 1
4069
