v 20031231 2
T 400 2400 8 10 1 1 0 6 1
refdes=U?
T 2900 950 5 10 0 0 0 0 1
device=4076
T 2900 1150 5 10 0 0 0 0 1
footprint=DIP16
T 2900 1350 5 10 0 0 0 0 1
net=VSS:8
T 2900 1550 5 10 0 0 0 0 1
net=VDD:16
P 1400 0 1400 300 1 0 0
{
T 1450 100 5 8 1 1 0 0 1
pinnumber=15
T 1450 100 5 8 0 1 0 2 1
pinseq=1
T 1400 350 9 8 1 1 0 3 1
pinlabel=R
T 1400 500 5 8 0 1 0 3 1
pintype=in
}
P 1000 0 1000 300 1 0 0
{
T 1050 100 5 8 1 1 0 0 1
pinnumber=7
T 1050 100 5 8 0 1 0 2 1
pinseq=2
T 1000 425 9 8 1 1 0 3 1
pinlabel=CLK
T 1000 575 5 8 0 1 0 3 1
pintype=clk
}
L 1000 400 1075 300 3 0 0 0 -1 -1
L 1000 400 925 300 3 0 0 0 -1 -1
P 0 700 300 700 1 0 0
{
T 200 750 5 8 1 1 0 6 1
pinnumber=11
T 200 650 5 8 0 1 0 8 1
pinseq=3
T 350 700 9 8 1 1 0 0 1
pinlabel=D3
T 350 700 5 8 0 1 0 2 1
pintype=in
}
P 0 1100 300 1100 1 0 0
{
T 200 1150 5 8 1 1 0 6 1
pinnumber=12
T 200 1050 5 8 0 1 0 8 1
pinseq=4
T 350 1100 9 8 1 1 0 0 1
pinlabel=D2
T 350 1100 5 8 0 1 0 2 1
pintype=in
}
P 0 1500 300 1500 1 0 0
{
T 200 1550 5 8 1 1 0 6 1
pinnumber=13
T 200 1450 5 8 0 1 0 8 1
pinseq=5
T 350 1500 9 8 1 1 0 0 1
pinlabel=D1
T 350 1500 5 8 0 1 0 2 1
pintype=in
}
P 0 1900 300 1900 1 0 0
{
T 200 1950 5 8 1 1 0 6 1
pinnumber=14
T 200 1850 5 8 0 1 0 8 1
pinseq=6
T 350 1900 9 8 1 1 0 0 1
pinlabel=D0
T 350 1900 5 8 0 1 0 2 1
pintype=in
}
P 2500 700 2200 700 1 0 0
{
T 2300 750 5 8 1 1 0 0 1
pinnumber=6
T 2300 650 5 8 0 1 0 2 1
pinseq=7
T 2150 700 9 8 1 1 0 6 1
pinlabel=Q3
T 2150 700 5 8 0 1 0 8 1
pintype=out
}
P 2500 1100 2200 1100 1 0 0
{
T 2300 1150 5 8 1 1 0 0 1
pinnumber=5
T 2300 1050 5 8 0 1 0 2 1
pinseq=8
T 2150 1100 9 8 1 1 0 6 1
pinlabel=Q2
T 2150 1100 5 8 0 1 0 8 1
pintype=out
}
P 2500 1500 2200 1500 1 0 0
{
T 2300 1550 5 8 1 1 0 0 1
pinnumber=4
T 2300 1450 5 8 0 1 0 2 1
pinseq=9
T 2150 1500 9 8 1 1 0 6 1
pinlabel=Q1
T 2150 1500 5 8 0 1 0 8 1
pintype=out
}
P 2500 1900 2200 1900 1 0 0
{
T 2300 1950 5 8 1 1 0 0 1
pinnumber=3
T 2300 1850 5 8 0 1 0 2 1
pinseq=10
T 2150 1900 9 8 1 1 0 6 1
pinlabel=Q0
T 2150 1900 5 8 0 1 0 8 1
pintype=out
}
P 1800 2600 1800 2300 1 0 0
{
T 1850 2400 5 8 1 1 0 0 1
pinnumber=2
T 1850 2400 5 8 0 1 0 2 1
pinseq=11
T 1800 2250 9 8 1 1 0 5 1
pinlabel=N
T 1800 2100 5 8 0 1 0 5 1
pintype=in
}
P 1400 2600 1400 2300 1 0 0
{
T 1450 2400 5 8 1 1 0 0 1
pinnumber=1
T 1450 2400 5 8 0 1 0 2 1
pinseq=12
T 1400 2250 9 8 1 1 0 5 1
pinlabel=M
T 1400 2100 5 8 0 1 0 5 1
pintype=in
}
P 1000 2600 1000 2300 1 0 0
{
T 1050 2400 5 8 1 1 0 0 1
pinnumber=10
T 1050 2400 5 8 0 1 0 2 1
pinseq=13
T 1000 2250 9 8 1 1 0 5 1
pinlabel=G2
T 1000 2100 5 8 0 1 0 5 1
pintype=in
}
P 600 2600 600 2300 1 0 0
{
T 650 2400 5 8 1 1 0 0 1
pinnumber=9
T 650 2400 5 8 0 1 0 2 1
pinseq=14
T 600 2250 9 8 1 1 0 5 1
pinlabel=G1
T 600 2100 5 8 0 1 0 5 1
pintype=in
}
B 300 300 1900 2000 3 0 0 0 -1 -1 0 -1 -1 -1 -1 -1
T 2900 750 5 10 0 0 0 0 1
description=quadruple D-type register with 3-state outputs
T 2900 1750 5 10 0 0 0 0 1
numslots=0
T 2900 550 5 10 0 0 0 0 1
documentation=http://www.semiconductors.philips.com/acrobat/datasheets/HEF4076B_CNV_3.pdf
T 300 50 9 10 1 0 0 0 1
4076
