v 20040710 2
P 2600 1200 2400 1200 1 0 0
{
T 2400 1250 5 8 1 1 0 0 1
pinnumber=3
T 2400 1150 5 8 0 1 0 2 1
pinseq=6
T 2250 1200 5 8 0 1 0 8 1
pintype=out
T 2250 1200 9 8 0 1 0 6 1
pinlabel=Y
}
T 3050 1500 5 10 0 0 0 0 1
net=VDD:14
T 3050 1700 5 10 0 0 0 0 1
net=VSS:7
T 300 2300 8 10 1 1 0 0 1
refdes=U?
T 3050 1900 5 10 0 0 0 0 1
numslots=2
T 3050 2100 5 10 0 0 0 0 1
slotdef=1:1,2,11,12,13,3
T 3050 2300 5 10 0 0 0 0 1
slotdef=2:5,6,10,8,9,4
T 3050 2500 5 10 0 0 0 0 1
slot=1
T 3050 2700 5 10 0 0 0 0 1
device=4085
V 2350 1200 50 6 0 0 0 -1 -1 0 -1 -1 -1 -1 -1
T 3050 2900 5 10 0 0 0 0 1
footprint=DIP14
T 3050 3100 5 10 0 0 0 0 1
description=2 2-wide 2-input AND/OR invert gate
T 3050 3300 5 10 0 0 0 0 1
documentation=http://www.semiconductors.philips.com/acrobat/datasheets/HEF4085B_CNV_3.pdf
T 300 0 9 8 1 0 0 0 1
4085
A 1336 1200 400 312 97 3 0 0 0 -1 -1
L 1600 900 1900 900 3 0 0 0 -1 -1
L 1600 1500 1900 1500 3 0 0 0 -1 -1
A 1900 1300 400 270 76 3 0 0 0 -1 -1
A 1900 1100 400 14 76 3 0 0 0 -1 -1
L 1600 700 1600 900 3 0 0 0 -1 -1
L 1600 1700 1600 1500 3 0 0 0 -1 -1
T 3050 3500 5 10 0 0 0 0 1
symversion=1.0
L 1600 1600 1300 1600 3 0 0 0 -1 -1
L 1600 1200 1300 1200 3 0 0 0 -1 -1
L 1600 800 1300 800 3 0 0 0 -1 -1
P 0 700 300 700 1 0 0
{
T 200 750 5 8 1 1 0 6 1
pinnumber=12
T 200 650 5 8 0 1 0 8 1
pinseq=4
T 350 700 5 8 0 1 0 2 1
pintype=in
T 350 700 9 8 0 1 0 0 1
pinlabel=C
}
P 0 300 300 300 1 0 0
{
T 200 350 5 8 1 1 0 6 1
pinnumber=13
T 200 250 5 8 0 1 0 8 1
pinseq=5
T 350 300 5 8 0 1 0 2 1
pintype=in
T 350 300 9 8 0 1 0 0 1
pinlabel=D
}
L 300 200 300 800 3 0 0 0 -1 -1
L 300 800 700 800 3 0 0 0 -1 -1
L 300 200 700 200 3 0 0 0 -1 -1
A 700 500 300 270 180 3 0 0 0 -1 -1
L 1000 500 1300 500 3 0 0 0 -1 -1
P 0 2100 300 2100 1 0 0
{
T 200 2050 5 8 0 1 0 8 1
pinseq=1
T 200 2150 5 8 1 1 0 6 1
pinnumber=1
T 350 2100 9 8 0 1 0 0 1
pinlabel=A
T 350 2100 5 8 0 1 0 2 1
pintype=in
}
P 0 1700 300 1700 1 0 0
{
T 200 1750 5 8 1 1 0 6 1
pinnumber=2
T 200 1650 5 8 0 1 0 8 1
pinseq=2
T 350 1700 9 8 0 1 0 0 1
pinlabel=B
T 350 1700 5 8 0 1 0 2 1
pintype=in
}
L 300 1600 300 2200 3 0 0 0 -1 -1
L 300 2200 700 2200 3 0 0 0 -1 -1
L 300 1600 700 1600 3 0 0 0 -1 -1
A 700 1900 300 270 180 3 0 0 0 -1 -1
L 1000 1900 1300 1900 3 0 0 0 -1 -1
L 1300 1200 300 1200 3 0 0 0 -1 -1
P 0 1200 300 1200 1 0 0
{
T 200 1250 5 8 1 1 0 6 1
pinnumber=11
T 200 1150 5 8 0 1 0 8 1
pinseq=3
T 350 1200 9 8 0 1 0 0 1
pinlabel=E
T 350 1200 5 8 0 1 0 2 1
pintype=in
}
L 1300 500 1300 800 3 0 0 0 -1 -1
L 1300 1600 1300 1900 3 0 0 0 -1 -1
