v 20031231 2
T 1800 3700 8 10 1 1 0 6 1
refdes=U?
T 300 4300 5 10 0 0 0 0 1
device=4094
T 300 4500 5 10 0 0 0 0 1
class=IC
T 300 4900 5 10 0 0 0 0 1
net=GND:8
T 300 4700 5 10 0 0 0 0 1
net=VCC:16
P 300 3300 0 3300 1 0 1
{
T 200 3350 5 8 1 1 0 6 1
pinnumber=1
T 200 3250 5 8 0 1 0 8 1
pinseq=1
T 350 3300 9 8 1 1 0 0 1
pinlabel=STROBE
T 350 3300 5 8 0 1 0 2 1
pintype=in
}
P 300 2400 0 2400 1 0 1
{
T 200 2450 5 8 1 1 0 6 1
pinnumber=2
T 200 2350 5 8 0 1 0 8 1
pinseq=2
T 350 2400 9 8 1 1 0 0 1
pinlabel=DATA
T 350 2400 5 8 0 1 0 2 1
pintype=in
}
L 300 2600 400 2700 3 0 0 0 -1 -1
L 300 2800 400 2700 3 0 0 0 -1 -1
P 300 2700 0 2700 1 0 1
{
T 200 2750 5 8 1 1 0 6 1
pinnumber=3
T 200 2650 5 8 0 1 0 8 1
pinseq=3
T 400 2700 9 8 1 1 0 0 1
pinlabel=CLK
T 400 2700 5 8 0 1 0 2 1
pintype=clk
}
P 1800 3300 2100 3300 1 0 1
{
T 1900 3350 5 8 1 1 0 0 1
pinnumber=4
T 1900 3250 5 8 0 1 0 2 1
pinseq=4
T 1750 3300 9 8 1 1 0 6 1
pinlabel=Q1
T 1750 3300 5 8 0 1 0 8 1
pintype=tri
}
P 1800 3000 2100 3000 1 0 1
{
T 1900 3050 5 8 1 1 0 0 1
pinnumber=5
T 1900 2950 5 8 0 1 0 2 1
pinseq=5
T 1750 3000 9 8 1 1 0 6 1
pinlabel=Q2
T 1750 3000 5 8 0 1 0 8 1
pintype=tri
}
P 1800 2700 2100 2700 1 0 1
{
T 1900 2750 5 8 1 1 0 0 1
pinnumber=6
T 1900 2650 5 8 0 1 0 2 1
pinseq=6
T 1750 2700 9 8 1 1 0 6 1
pinlabel=Q3
T 1750 2700 5 8 0 1 0 8 1
pintype=tri
}
P 1800 2400 2100 2400 1 0 1
{
T 1900 2450 5 8 1 1 0 0 1
pinnumber=7
T 1900 2350 5 8 0 1 0 2 1
pinseq=7
T 1750 2400 9 8 1 1 0 6 1
pinlabel=Q4
T 1750 2400 5 8 0 1 0 8 1
pintype=tri
}
P 1800 600 2100 600 1 0 1
{
T 1900 650 5 8 1 1 0 0 1
pinnumber=9
T 1900 550 5 8 0 1 0 2 1
pinseq=8
T 1750 600 9 8 1 1 0 6 1
pinlabel=QS
T 1750 600 5 8 0 1 0 8 1
pintype=out
}
P 1800 300 2100 300 1 0 1
{
T 1900 350 5 8 1 1 0 0 1
pinnumber=10
T 1900 250 5 8 0 1 0 2 1
pinseq=9
T 1750 300 9 8 1 1 0 6 1
pinlabel=Q'S
T 1750 300 5 8 0 1 0 8 1
pintype=out
}
P 1800 1200 2100 1200 1 0 1
{
T 1900 1250 5 8 1 1 0 0 1
pinnumber=11
T 1900 1150 5 8 0 1 0 2 1
pinseq=10
T 1750 1200 9 8 1 1 0 6 1
pinlabel=Q8
T 1750 1200 5 8 0 1 0 8 1
pintype=tri
}
P 1800 1500 2100 1500 1 0 1
{
T 1900 1550 5 8 1 1 0 0 1
pinnumber=12
T 1900 1450 5 8 0 1 0 2 1
pinseq=11
T 1750 1500 9 8 1 1 0 6 1
pinlabel=Q7
T 1750 1500 5 8 0 1 0 8 1
pintype=tri
}
P 1800 1800 2100 1800 1 0 1
{
T 1900 1850 5 8 1 1 0 0 1
pinnumber=13
T 1900 1750 5 8 0 1 0 2 1
pinseq=12
T 1750 1800 9 8 1 1 0 6 1
pinlabel=Q6
T 1750 1800 5 8 0 1 0 8 1
pintype=tri
}
P 1800 2100 2100 2100 1 0 1
{
T 1900 2150 5 8 1 1 0 0 1
pinnumber=14
T 1900 2050 5 8 0 1 0 2 1
pinseq=13
T 1750 2100 9 8 1 1 0 6 1
pinlabel=Q5
T 1750 2100 5 8 0 1 0 8 1
pintype=tri
}
P 300 3000 0 3000 1 0 1
{
T 200 3050 5 8 1 1 0 6 1
pinnumber=15
T 200 2950 5 8 0 1 0 8 1
pinseq=14
T 350 3000 9 8 1 1 0 0 1
pinlabel=OE
T 350 3000 5 8 0 1 0 2 1
pintype=in
}
B 300 0 1500 3600 3 0 0 0 -1 -1 0 0 -1 -1 -1 -1
T 300 4050 5 10 0 0 0 0 1
footprint=DIP16
T 300 5100 5 10 0 0 0 0 1
description=8-stage shift-and-store bus register
T 300 3850 5 10 0 0 0 0 1
numslots=0
T 300 5300 5 10 0 0 0 0 1
documentation=http://www.semiconductors.philips.com/acrobat/datasheets/HEF4094B_CNV_3.pdf
T 300 3650 3 10 1 0 0 0 1
4094
