v 20031231 2
T 500 7200 8 10 1 1 0 6 1
refdes=U?
T 2000 950 5 10 0 0 0 0 1
device=4097
T 2000 1150 5 10 0 0 0 0 1
footprint=DIP24
T 2000 1350 5 10 0 0 0 0 1
net=VSS:12
T 2000 1550 5 10 0 0 0 0 1
net=VDD:24
P 0 700 200 700 1 0 0
{
T 200 750 5 8 1 1 0 6 1
pinnumber=13
T 200 650 5 8 0 1 0 8 1
pinseq=1
T 350 700 9 8 1 1 0 0 1
pinlabel=EN
T 350 700 5 8 0 1 0 2 1
pintype=in
}
L 350 824 578 824 3 0 0 0 -1 -1
V 250 700 50 6 0 0 0 -1 -1 0 -1 -1 -1 -1 -1
P 0 2100 300 2100 1 0 0
{
T 200 2150 5 8 1 1 0 6 1
pinnumber=17
T 200 2050 5 8 0 1 0 8 1
pinseq=2
T 350 2100 9 8 1 1 0 0 1
pinlabel=YC
T 350 2100 5 8 0 1 0 2 1
pintype=io
}
P 0 5300 300 5300 1 0 0
{
T 200 5350 5 8 1 1 0 6 1
pinnumber=1
T 200 5250 5 8 0 1 0 8 1
pinseq=3
T 350 5300 9 8 1 1 0 0 1
pinlabel=XC
T 350 5300 5 8 0 1 0 2 1
pintype=io
}
P 0 3300 300 3300 1 0 0
{
T 200 3350 5 8 1 1 0 6 1
pinnumber=14
T 200 3250 5 8 0 1 0 8 1
pinseq=4
T 350 3300 9 8 1 1 0 0 1
pinlabel=C
T 350 3300 5 8 0 1 0 2 1
pintype=in
}
P 0 3700 300 3700 1 0 0
{
T 200 3750 5 8 1 1 0 6 1
pinnumber=11
T 200 3650 5 8 0 1 0 8 1
pinseq=5
T 350 3700 9 8 1 1 0 0 1
pinlabel=B
T 350 3700 5 8 0 1 0 2 1
pintype=in
}
P 0 4100 300 4100 1 0 0
{
T 200 4150 5 8 1 1 0 6 1
pinnumber=10
T 200 4050 5 8 0 1 0 8 1
pinseq=6
T 350 4100 9 8 1 1 0 0 1
pinlabel=A
T 350 4100 5 8 0 1 0 2 1
pintype=in
}
P 1600 700 1300 700 1 0 0
{
T 1400 750 5 8 1 1 0 0 1
pinnumber=15
T 1400 650 5 8 0 1 0 2 1
pinseq=7
T 1250 700 9 8 1 1 0 6 1
pinlabel=Y7
T 1250 700 5 8 0 1 0 8 1
pintype=io
}
P 1600 1100 1300 1100 1 0 0
{
T 1400 1150 5 8 1 1 0 0 1
pinnumber=16
T 1400 1050 5 8 0 1 0 2 1
pinseq=8
T 1250 1100 9 8 1 1 0 6 1
pinlabel=Y6
T 1250 1100 5 8 0 1 0 8 1
pintype=io
}
P 1600 1500 1300 1500 1 0 0
{
T 1400 1550 5 8 1 1 0 0 1
pinnumber=18
T 1400 1450 5 8 0 1 0 2 1
pinseq=9
T 1250 1500 9 8 1 1 0 6 1
pinlabel=Y5
T 1250 1500 5 8 0 1 0 8 1
pintype=io
}
P 1600 1900 1300 1900 1 0 0
{
T 1400 1950 5 8 1 1 0 0 1
pinnumber=19
T 1400 1850 5 8 0 1 0 2 1
pinseq=10
T 1250 1900 9 8 1 1 0 6 1
pinlabel=Y4
T 1250 1900 5 8 0 1 0 8 1
pintype=io
}
P 1600 2300 1300 2300 1 0 0
{
T 1400 2350 5 8 1 1 0 0 1
pinnumber=20
T 1400 2250 5 8 0 1 0 2 1
pinseq=11
T 1250 2300 9 8 1 1 0 6 1
pinlabel=Y3
T 1250 2300 5 8 0 1 0 8 1
pintype=io
}
P 1600 2700 1300 2700 1 0 0
{
T 1400 2750 5 8 1 1 0 0 1
pinnumber=21
T 1400 2650 5 8 0 1 0 2 1
pinseq=12
T 1250 2700 9 8 1 1 0 6 1
pinlabel=Y2
T 1250 2700 5 8 0 1 0 8 1
pintype=io
}
P 1600 3100 1300 3100 1 0 0
{
T 1400 3150 5 8 1 1 0 0 1
pinnumber=22
T 1400 3050 5 8 0 1 0 2 1
pinseq=13
T 1250 3100 9 8 1 1 0 6 1
pinlabel=Y1
T 1250 3100 5 8 0 1 0 8 1
pintype=io
}
P 1600 3500 1300 3500 1 0 0
{
T 1400 3550 5 8 1 1 0 0 1
pinnumber=23
T 1400 3450 5 8 0 1 0 2 1
pinseq=14
T 1250 3500 9 8 1 1 0 6 1
pinlabel=Y0
T 1250 3500 5 8 0 1 0 8 1
pintype=io
}
P 1600 3900 1300 3900 1 0 0
{
T 1400 3950 5 8 1 1 0 0 1
pinnumber=2
T 1400 3850 5 8 0 1 0 2 1
pinseq=15
T 1250 3900 9 8 1 1 0 6 1
pinlabel=X7
T 1250 3900 5 8 0 1 0 8 1
pintype=io
}
P 1600 4300 1300 4300 1 0 0
{
T 1400 4350 5 8 1 1 0 0 1
pinnumber=3
T 1400 4250 5 8 0 1 0 2 1
pinseq=16
T 1250 4300 9 8 1 1 0 6 1
pinlabel=X6
T 1250 4300 5 8 0 1 0 8 1
pintype=io
}
P 1600 4700 1300 4700 1 0 0
{
T 1400 4750 5 8 1 1 0 0 1
pinnumber=4
T 1400 4650 5 8 0 1 0 2 1
pinseq=17
T 1250 4700 9 8 1 1 0 6 1
pinlabel=X5
T 1250 4700 5 8 0 1 0 8 1
pintype=io
}
P 1600 5100 1300 5100 1 0 0
{
T 1400 5150 5 8 1 1 0 0 1
pinnumber=5
T 1400 5050 5 8 0 1 0 2 1
pinseq=18
T 1250 5100 9 8 1 1 0 6 1
pinlabel=X4
T 1250 5100 5 8 0 1 0 8 1
pintype=io
}
P 1600 5500 1300 5500 1 0 0
{
T 1400 5550 5 8 1 1 0 0 1
pinnumber=6
T 1400 5450 5 8 0 1 0 2 1
pinseq=19
T 1250 5500 9 8 1 1 0 6 1
pinlabel=X3
T 1250 5500 5 8 0 1 0 8 1
pintype=io
}
P 1600 5900 1300 5900 1 0 0
{
T 1400 5950 5 8 1 1 0 0 1
pinnumber=7
T 1400 5850 5 8 0 1 0 2 1
pinseq=20
T 1250 5900 9 8 1 1 0 6 1
pinlabel=X2
T 1250 5900 5 8 0 1 0 8 1
pintype=io
}
P 1600 6300 1300 6300 1 0 0
{
T 1400 6350 5 8 1 1 0 0 1
pinnumber=8
T 1400 6250 5 8 0 1 0 2 1
pinseq=21
T 1250 6300 9 8 1 1 0 6 1
pinlabel=X1
T 1250 6300 5 8 0 1 0 8 1
pintype=io
}
P 1600 6700 1300 6700 1 0 0
{
T 1400 6750 5 8 1 1 0 0 1
pinnumber=9
T 1400 6650 5 8 0 1 0 2 1
pinseq=22
T 1250 6700 9 8 1 1 0 6 1
pinlabel=X0
T 1250 6700 5 8 0 1 0 8 1
pintype=io
}
B 300 300 1000 6800 3 0 0 0 -1 -1 0 -1 -1 -1 -1 -1
T 2000 750 5 10 0 0 0 0 1
description=dual 1-8 analog multiplexer/demultiplexer
T 2000 1750 5 10 0 0 0 0 1
numslots=0
T 300 50 9 10 1 0 0 0 1
4097
