v 20040710 2
T 1700 6700 8 10 1 1 0 6 1
refdes=U?
T 300 6850 5 10 0 0 0 0 1
device=4515
T 300 7050 5 10 0 0 0 0 1
footprint=DIP24
T 300 7250 5 10 0 0 0 0 1
net=VSS:12
T 300 7450 5 10 0 0 0 0 1
net=VDD:24
P 0 300 200 300 1 0 0
{
T 200 350 5 8 1 1 0 6 1
pinnumber=1
T 200 250 5 8 0 1 0 8 1
pinseq=1
T 350 300 9 8 1 1 0 0 1
pinlabel=STR
T 350 300 5 8 0 1 0 2 1
pintype=in
}
L 350 424 646 424 3 0 0 0 -1 -1
V 250 300 50 6 0 0 0 -1 -1 0 -1 -1 -1 -1 -1
P 0 700 300 700 1 0 0
{
T 200 750 5 8 1 1 0 6 1
pinnumber=23
T 200 650 5 8 0 1 0 8 1
pinseq=2
T 350 700 9 8 1 1 0 0 1
pinlabel=INH
T 350 700 5 8 0 1 0 2 1
pintype=in
}
P 0 2700 300 2700 1 0 0
{
T 200 2750 5 8 1 1 0 6 1
pinnumber=22
T 200 2650 5 8 0 1 0 8 1
pinseq=3
T 350 2700 9 8 1 1 0 0 1
pinlabel=D
T 350 2700 5 8 0 1 0 2 1
pintype=in
}
P 0 3100 300 3100 1 0 0
{
T 200 3150 5 8 1 1 0 6 1
pinnumber=21
T 200 3050 5 8 0 1 0 8 1
pinseq=4
T 350 3100 9 8 1 1 0 0 1
pinlabel=C
T 350 3100 5 8 0 1 0 2 1
pintype=in
}
P 0 3500 300 3500 1 0 0
{
T 200 3550 5 8 1 1 0 6 1
pinnumber=3
T 200 3450 5 8 0 1 0 8 1
pinseq=5
T 350 3500 9 8 1 1 0 0 1
pinlabel=B
T 350 3500 5 8 0 1 0 2 1
pintype=in
}
P 0 3900 300 3900 1 0 0
{
T 200 3950 5 8 1 1 0 6 1
pinnumber=2
T 200 3850 5 8 0 1 0 8 1
pinseq=6
T 350 3900 9 8 1 1 0 0 1
pinlabel=A
T 350 3900 5 8 0 1 0 2 1
pintype=in
}
P 2000 2700 1800 2700 1 0 0
{
T 1800 2750 5 8 1 1 0 0 1
pinnumber=17
T 1800 2650 5 8 0 1 0 2 1
pinseq=7
T 1650 2700 9 8 1 1 0 6 1
pinlabel=S9
T 1650 2700 5 8 0 1 0 8 1
pintype=out
}
L 1446 2824 1650 2824 3 0 0 0 -1 -1
V 1750 2700 50 6 0 0 0 -1 -1 0 -1 -1 -1 -1 -1
P 2000 3100 1800 3100 1 0 0
{
T 1800 3150 5 8 1 1 0 0 1
pinnumber=18
T 1800 3050 5 8 0 1 0 2 1
pinseq=8
T 1650 3100 9 8 1 1 0 6 1
pinlabel=S8
T 1650 3100 5 8 0 1 0 8 1
pintype=out
}
L 1462 3224 1650 3224 3 0 0 0 -1 -1
V 1750 3100 50 6 0 0 0 -1 -1 0 -1 -1 -1 -1 -1
P 2000 3500 1800 3500 1 0 0
{
T 1800 3550 5 8 1 1 0 0 1
pinnumber=4
T 1800 3450 5 8 0 1 0 2 1
pinseq=9
T 1650 3500 9 8 1 1 0 6 1
pinlabel=S7
T 1650 3500 5 8 0 1 0 8 1
pintype=out
}
L 1470 3624 1650 3624 3 0 0 0 -1 -1
V 1750 3500 50 6 0 0 0 -1 -1 0 -1 -1 -1 -1 -1
P 2000 3900 1800 3900 1 0 0
{
T 1800 3950 5 8 1 1 0 0 1
pinnumber=5
T 1800 3850 5 8 0 1 0 2 1
pinseq=10
T 1650 3900 9 8 1 1 0 6 1
pinlabel=S6
T 1650 3900 5 8 0 1 0 8 1
pintype=out
}
L 1454 4024 1650 4024 3 0 0 0 -1 -1
V 1750 3900 50 6 0 0 0 -1 -1 0 -1 -1 -1 -1 -1
P 2000 4300 1800 4300 1 0 0
{
T 1800 4350 5 8 1 1 0 0 1
pinnumber=6
T 1800 4250 5 8 0 1 0 2 1
pinseq=11
T 1650 4300 9 8 1 1 0 6 1
pinlabel=S5
T 1650 4300 5 8 0 1 0 8 1
pintype=out
}
L 1470 4424 1650 4424 3 0 0 0 -1 -1
V 1750 4300 50 6 0 0 0 -1 -1 0 -1 -1 -1 -1 -1
P 2000 4700 1800 4700 1 0 0
{
T 1800 4750 5 8 1 1 0 0 1
pinnumber=7
T 1800 4650 5 8 0 1 0 2 1
pinseq=12
T 1650 4700 9 8 1 1 0 6 1
pinlabel=S4
T 1650 4700 5 8 0 1 0 8 1
pintype=out
}
L 1446 4824 1650 4824 3 0 0 0 -1 -1
V 1750 4700 50 6 0 0 0 -1 -1 0 -1 -1 -1 -1 -1
P 2000 5100 1800 5100 1 0 0
{
T 1800 5150 5 8 1 1 0 0 1
pinnumber=8
T 1800 5050 5 8 0 1 0 2 1
pinseq=13
T 1650 5100 9 8 1 1 0 6 1
pinlabel=S3
T 1650 5100 5 8 0 1 0 8 1
pintype=out
}
L 1462 5224 1650 5224 3 0 0 0 -1 -1
V 1750 5100 50 6 0 0 0 -1 -1 0 -1 -1 -1 -1 -1
P 2000 5500 1800 5500 1 0 0
{
T 1800 5550 5 8 1 1 0 0 1
pinnumber=9
T 1800 5450 5 8 0 1 0 2 1
pinseq=14
T 1650 5500 9 8 1 1 0 6 1
pinlabel=S2
T 1650 5500 5 8 0 1 0 8 1
pintype=out
}
L 1446 5624 1650 5624 3 0 0 0 -1 -1
V 1750 5500 50 6 0 0 0 -1 -1 0 -1 -1 -1 -1 -1
P 2000 5900 1800 5900 1 0 0
{
T 1800 5950 5 8 1 1 0 0 1
pinnumber=10
T 1800 5850 5 8 0 1 0 2 1
pinseq=15
T 1650 5900 9 8 1 1 0 6 1
pinlabel=S1
T 1650 5900 5 8 0 1 0 8 1
pintype=out
}
L 1486 6024 1650 6024 3 0 0 0 -1 -1
V 1750 5900 50 6 0 0 0 -1 -1 0 -1 -1 -1 -1 -1
P 2000 300 1800 300 1 0 0
{
T 1800 350 5 8 1 1 0 0 1
pinnumber=15
T 1800 250 5 8 0 1 0 2 1
pinseq=16
T 1650 300 9 8 1 1 0 6 1
pinlabel=S15
T 1650 300 5 8 0 1 0 8 1
pintype=out
}
L 1406 424 1650 424 3 0 0 0 -1 -1
V 1750 300 50 6 0 0 0 -1 -1 0 -1 -1 -1 -1 -1
P 2000 700 1800 700 1 0 0
{
T 1800 750 5 8 1 1 0 0 1
pinnumber=16
T 1800 650 5 8 0 1 0 2 1
pinseq=17
T 1650 700 9 8 1 1 0 6 1
pinlabel=S14
T 1650 700 5 8 0 1 0 8 1
pintype=out
}
L 1382 824 1650 824 3 0 0 0 -1 -1
V 1750 700 50 6 0 0 0 -1 -1 0 -1 -1 -1 -1 -1
P 2000 1100 1800 1100 1 0 0
{
T 1800 1150 5 8 1 1 0 0 1
pinnumber=13
T 1800 1050 5 8 0 1 0 2 1
pinseq=18
T 1650 1100 9 8 1 1 0 6 1
pinlabel=S13
T 1650 1100 5 8 0 1 0 8 1
pintype=out
}
L 1398 1224 1650 1224 3 0 0 0 -1 -1
V 1750 1100 50 6 0 0 0 -1 -1 0 -1 -1 -1 -1 -1
P 2000 1500 1800 1500 1 0 0
{
T 1800 1550 5 8 1 1 0 0 1
pinnumber=14
T 1800 1450 5 8 0 1 0 2 1
pinseq=19
T 1650 1500 9 8 1 1 0 6 1
pinlabel=S12
T 1650 1500 5 8 0 1 0 8 1
pintype=out
}
L 1382 1624 1650 1624 3 0 0 0 -1 -1
V 1750 1500 50 6 0 0 0 -1 -1 0 -1 -1 -1 -1 -1
P 2000 1900 1800 1900 1 0 0
{
T 1800 1950 5 8 1 1 0 0 1
pinnumber=19
T 1800 1850 5 8 0 1 0 2 1
pinseq=20
T 1650 1900 9 8 1 1 0 6 1
pinlabel=S11
T 1650 1900 5 8 0 1 0 8 1
pintype=out
}
L 1422 2024 1650 2024 3 0 0 0 -1 -1
V 1750 1900 50 6 0 0 0 -1 -1 0 -1 -1 -1 -1 -1
P 2000 2300 1800 2300 1 0 0
{
T 1800 2350 5 8 1 1 0 0 1
pinnumber=20
T 1800 2250 5 8 0 1 0 2 1
pinseq=21
T 1650 2300 9 8 1 1 0 6 1
pinlabel=S10
T 1650 2300 5 8 0 1 0 8 1
pintype=out
}
L 1382 2424 1650 2424 3 0 0 0 -1 -1
V 1750 2300 50 6 0 0 0 -1 -1 0 -1 -1 -1 -1 -1
P 2000 6300 1800 6300 1 0 0
{
T 1800 6350 5 8 1 1 0 0 1
pinnumber=11
T 1800 6250 5 8 0 1 0 2 1
pinseq=22
T 1650 6300 9 8 1 1 0 6 1
pinlabel=S0
T 1650 6300 5 8 0 1 0 8 1
pintype=out
}
L 1446 6424 1650 6424 3 0 0 0 -1 -1
V 1750 6300 50 6 0 0 0 -1 -1 0 -1 -1 -1 -1 -1
B 300 0 1400 6600 3 0 0 0 -1 -1 0 -1 -1 -1 -1 -1
T 300 7850 5 10 0 0 0 0 1
description=4-bit demultiplexer
T 300 7650 5 10 0 0 0 0 1
numslots=0
T 300 8050 5 10 0 0 0 0 1
documentation=http://www.semiconductors.philips.com/acrobat/datasheets/HEF4515B_CNV_3.pdf
T 300 6650 9 10 1 0 0 0 1
4515
