v 20031231 2
T 200 4000 8 10 1 1 0 6 1
refdes=U?
T 2400 950 5 10 0 0 0 0 1
device=4536
T 2400 1150 5 10 0 0 0 0 1
footprint=DIP16
T 2400 1350 5 10 0 0 0 0 1
net=VSS:8
T 2400 1550 5 10 0 0 0 0 1
net=VDD:16
P 1000 0 1000 200 1 0 0
{
T 1050 100 5 8 1 1 0 0 1
pinnumber=14
T 1050 100 5 8 0 1 0 2 1
pinseq=1
T 1000 350 9 8 1 1 0 3 1
pinlabel=OSCEN
T 1000 500 5 8 0 1 0 3 1
pintype=in
}
L 716 474 1284 474 3 0 0 0 -1 -1
V 1000 250 50 6 0 0 0 -1 -1 0 -1 -1 -1 -1 -1
P 0 700 300 700 1 0 0
{
T 200 750 5 8 1 1 0 6 1
pinnumber=1
T 200 650 5 8 0 1 0 8 1
pinseq=2
T 350 700 9 8 1 1 0 0 1
pinlabel=S
T 350 700 5 8 0 1 0 2 1
pintype=in
}
P 0 1100 300 1100 1 0 0
{
T 200 1150 5 8 1 1 0 6 1
pinnumber=2
T 200 1050 5 8 0 1 0 8 1
pinseq=3
T 350 1100 9 8 1 1 0 0 1
pinlabel=R
T 350 1100 5 8 0 1 0 2 1
pintype=in
}
P 0 3500 300 3500 1 0 0
{
T 200 3550 5 8 1 1 0 6 1
pinnumber=15
T 200 3450 5 8 0 1 0 8 1
pinseq=4
T 350 3500 9 8 1 1 0 0 1
pinlabel=MONO
T 350 3500 5 8 0 1 0 2 1
pintype=in
}
P 0 1900 300 1900 1 0 0
{
T 200 1950 5 8 1 1 0 6 1
pinnumber=12
T 200 1850 5 8 0 1 0 8 1
pinseq=5
T 350 1900 9 8 1 1 0 0 1
pinlabel=D
T 350 1900 5 8 0 1 0 2 1
pintype=in
}
P 0 2300 300 2300 1 0 0
{
T 200 2350 5 8 1 1 0 6 1
pinnumber=11
T 200 2250 5 8 0 1 0 8 1
pinseq=6
T 350 2300 9 8 1 1 0 0 1
pinlabel=C
T 350 2300 5 8 0 1 0 2 1
pintype=in
}
P 0 1500 300 1500 1 0 0
{
T 200 1550 5 8 1 1 0 6 1
pinnumber=6
T 200 1450 5 8 0 1 0 8 1
pinseq=7
T 350 1500 9 8 1 1 0 0 1
pinlabel=BYPASS
T 350 1500 5 8 0 1 0 2 1
pintype=in
}
P 0 2700 300 2700 1 0 0
{
T 200 2750 5 8 1 1 0 6 1
pinnumber=10
T 200 2650 5 8 0 1 0 8 1
pinseq=8
T 350 2700 9 8 1 1 0 0 1
pinlabel=B
T 350 2700 5 8 0 1 0 2 1
pintype=in
}
P 0 3100 300 3100 1 0 0
{
T 200 3150 5 8 1 1 0 6 1
pinnumber=9
T 200 3050 5 8 0 1 0 8 1
pinseq=9
T 350 3100 9 8 1 1 0 0 1
pinlabel=A
T 350 3100 5 8 0 1 0 2 1
pintype=in
}
P 2000 3100 1700 3100 1 0 0
{
T 1800 3150 5 8 1 1 0 0 1
pinnumber=5
T 1800 3050 5 8 0 1 0 2 1
pinseq=10
T 1650 3100 9 8 1 1 0 6 1
pinlabel=OUT2
T 1650 3100 5 8 0 1 0 8 1
pintype=out
}
P 2000 3500 1700 3500 1 0 0
{
T 1800 3550 5 8 1 1 0 0 1
pinnumber=4
T 1800 3450 5 8 0 1 0 2 1
pinseq=11
T 1650 3500 9 8 1 1 0 6 1
pinlabel=OUT1
T 1650 3500 5 8 0 1 0 8 1
pintype=out
}
P 2000 2300 1700 2300 1 0 0
{
T 1800 2350 5 8 1 1 0 0 1
pinnumber=13
T 1800 2250 5 8 0 1 0 2 1
pinseq=12
T 1650 2300 9 8 1 1 0 6 1
pinlabel=DEC
T 1650 2300 5 8 0 1 0 8 1
pintype=out
}
P 600 4200 600 4000 1 0 0
{
T 650 4000 5 8 1 1 0 0 1
pinnumber=7
T 650 4000 5 8 0 1 0 2 1
pinseq=13
T 600 3850 9 8 1 1 0 5 1
pinlabel=CLKEN
T 600 3700 5 8 0 1 0 5 1
pintype=in
}
L 332 3870 868 3870 3 0 0 0 -1 -1
V 600 3950 50 6 0 0 0 -1 -1 0 -1 -1 -1 -1 -1
P 1400 4200 1400 3900 1 0 0
{
T 1450 4000 5 8 1 1 0 0 1
pinnumber=3
T 1450 4000 5 8 0 1 0 2 1
pinseq=14
T 1400 3850 9 8 1 1 0 5 1
pinlabel=IN1
T 1400 3700 5 8 0 1 0 5 1
pintype=in
}
B 300 300 1400 3600 3 0 0 0 -1 -1 0 -1 -1 -1 -1 -1
T 2400 750 5 10 0 0 0 0 1
description=programmable timer
T 2400 1750 5 10 0 0 0 0 1
numslots=0
T 300 50 9 10 1 0 0 0 1
4536
