v 20031231 2
T 1300 1900 8 10 1 1 0 6 1
refdes=U?
T 300 2050 5 10 0 0 0 0 1
device=4556
T 300 2250 5 10 0 0 0 0 1
footprint=DIP16
T 300 2450 5 10 0 0 0 0 1
net=VSS:8
T 300 2650 5 10 0 0 0 0 1
net=VDD:16
P 0 300 200 300 1 0 0
{
T 200 350 5 8 1 1 0 6 1
pinnumber=1
T 200 250 5 8 0 1 0 8 1
pinseq=1
T 350 300 9 8 1 1 0 0 1
pinlabel=EN
T 350 300 5 8 0 1 0 2 1
pintype=in
}
L 350 424 578 424 3 0 0 0 -1 -1
V 250 300 50 6 0 0 0 -1 -1 0 -1 -1 -1 -1 -1
P 0 1100 300 1100 1 0 0
{
T 200 1150 5 8 1 1 0 6 1
pinnumber=3
T 200 1050 5 8 0 1 0 8 1
pinseq=2
T 350 1100 9 8 1 1 0 0 1
pinlabel=S1
T 350 1100 5 8 0 1 0 2 1
pintype=in
}
P 0 1500 300 1500 1 0 0
{
T 200 1550 5 8 1 1 0 6 1
pinnumber=2
T 200 1450 5 8 0 1 0 8 1
pinseq=3
T 350 1500 9 8 1 1 0 0 1
pinlabel=S0
T 350 1500 5 8 0 1 0 2 1
pintype=in
}
P 1600 300 1400 300 1 0 0
{
T 1400 350 5 8 1 1 0 0 1
pinnumber=7
T 1400 250 5 8 0 1 0 2 1
pinseq=4
T 1250 300 9 8 1 1 0 6 1
pinlabel=Y3
T 1250 300 5 8 0 1 0 8 1
pintype=out
}
L 1102 424 1266 424 3 0 0 0 -1 -1
V 1350 300 50 6 0 0 0 -1 -1 0 -1 -1 -1 -1 -1
P 1600 700 1400 700 1 0 0
{
T 1400 750 5 8 1 1 0 0 1
pinnumber=6
T 1400 650 5 8 0 1 0 2 1
pinseq=5
T 1250 700 9 8 1 1 0 6 1
pinlabel=Y2
T 1250 700 5 8 0 1 0 8 1
pintype=out
}
L 1085 824 1259 824 3 0 0 0 -1 -1
V 1350 700 50 6 0 0 0 -1 -1 0 -1 -1 -1 -1 -1
P 1600 1100 1400 1100 1 0 0
{
T 1400 1150 5 8 1 1 0 0 1
pinnumber=5
T 1400 1050 5 8 0 1 0 2 1
pinseq=6
T 1250 1100 9 8 1 1 0 6 1
pinlabel=Y1
T 1250 1100 5 8 0 1 0 8 1
pintype=out
}
L 1124 1224 1250 1224 3 0 0 0 -1 -1
V 1350 1100 50 6 0 0 0 -1 -1 0 -1 -1 -1 -1 -1
P 1600 1500 1400 1500 1 0 0
{
T 1400 1550 5 8 1 1 0 0 1
pinnumber=4
T 1400 1450 5 8 0 1 0 2 1
pinseq=7
T 1250 1500 9 8 1 1 0 6 1
pinlabel=Y0
T 1250 1500 5 8 0 1 0 8 1
pintype=out
}
L 1084 1624 1258 1624 3 0 0 0 -1 -1
V 1350 1500 50 6 0 0 0 -1 -1 0 -1 -1 -1 -1 -1
B 300 0 1000 1800 3 0 0 0 -1 -1 0 -1 -1 -1 -1 -1
T 300 2850 5 10 0 0 0 0 1
slot=1
T 300 3050 5 10 0 0 0 0 1
numslots=2
T 300 3250 5 10 0 0 0 0 1
slotdef=1:1,3,2,7,6,5,4
T 300 3450 5 10 0 0 0 0 1
slotdef=2:15,13,14,9,10,11,12
T 300 3650 5 10 0 0 0 0 1
description=2 2-bit binary decoders
T 300 3850 5 10 0 0 0 0 1
documentation=http://www.semiconductors.philips.com/acrobat/datasheets/HEF4556B_CNV_3.pdf
T 300 1850 9 10 1 0 0 0 1
4556
