v 20031231 2
T 500 5900 8 10 1 1 0 6 1
refdes=U?
T 2900 2050 5 10 0 0 0 0 1
device=4580
T 2900 2250 5 10 0 0 0 0 1
footprint=none
T 2900 2450 5 10 0 0 0 0 1
net=VSS:12
T 2900 2650 5 10 0 0 0 0 1
net=VDD:24
P 900 0 900 300 1 0 0
{
T 950 100 5 8 1 1 0 0 1
pinnumber=16
T 950 100 5 8 0 1 0 2 1
pinseq=1
T 900 425 9 8 1 1 0 3 1
pinlabel=CLK
T 900 575 5 8 0 1 0 3 1
pintype=in
}
L 900 400 975 300 3 0 0 0 -1 -1
L 900 400 825 300 3 0 0 0 -1 -1
P 1600 0 1600 300 1 0 0
{
T 1650 100 5 8 1 1 0 0 1
pinnumber=21
T 1650 100 5 8 0 1 0 2 1
pinseq=2
T 1600 350 9 8 1 1 0 3 1
pinlabel=3-State B
T 1600 500 5 8 0 1 0 3 1
pintype=in
}
P 0 3000 300 3000 1 0 0
{
T 200 3050 5 8 1 1 0 6 1
pinnumber=9
T 200 2950 5 8 0 1 0 8 1
pinseq=3
T 350 3000 9 8 1 1 0 0 1
pinlabel=W1
T 350 3000 5 8 0 1 0 2 1
pintype=in
}
P 0 3400 300 3400 1 0 0
{
T 200 3450 5 8 1 1 0 6 1
pinnumber=8
T 200 3350 5 8 0 1 0 8 1
pinseq=4
T 350 3400 9 8 1 1 0 0 1
pinlabel=W0
T 350 3400 5 8 0 1 0 2 1
pintype=in
}
P 0 700 300 700 1 0 0
{
T 200 750 5 8 1 1 0 6 1
pinnumber=10
T 200 650 5 8 0 1 0 8 1
pinseq=5
T 350 700 9 8 1 1 0 0 1
pinlabel=R1B
T 350 700 5 8 0 1 0 2 1
pintype=in
}
P 0 1800 300 1800 1 0 0
{
T 200 1850 5 8 1 1 0 6 1
pinnumber=14
T 200 1750 5 8 0 1 0 8 1
pinseq=6
T 350 1800 9 8 1 1 0 0 1
pinlabel=R1A
T 350 1800 5 8 0 1 0 2 1
pintype=in
}
P 0 1100 300 1100 1 0 0
{
T 200 1150 5 8 1 1 0 6 1
pinnumber=11
T 200 1050 5 8 0 1 0 8 1
pinseq=7
T 350 1100 9 8 1 1 0 0 1
pinlabel=R0B
T 350 1100 5 8 0 1 0 2 1
pintype=in
}
P 0 2200 300 2200 1 0 0
{
T 200 2250 5 8 1 1 0 6 1
pinnumber=13
T 200 2150 5 8 0 1 0 8 1
pinseq=8
T 350 2200 9 8 1 1 0 0 1
pinlabel=R0A
T 350 2200 5 8 0 1 0 2 1
pintype=in
}
P 0 4200 300 4200 1 0 0
{
T 200 4250 5 8 1 1 0 6 1
pinnumber=17
T 200 4150 5 8 0 1 0 8 1
pinseq=9
T 350 4200 9 8 1 1 0 0 1
pinlabel=D3
T 350 4200 5 8 0 1 0 2 1
pintype=in
}
P 0 4600 300 4600 1 0 0
{
T 200 4650 5 8 1 1 0 6 1
pinnumber=18
T 200 4550 5 8 0 1 0 8 1
pinseq=10
T 350 4600 9 8 1 1 0 0 1
pinlabel=D2
T 350 4600 5 8 0 1 0 2 1
pintype=in
}
P 0 5000 300 5000 1 0 0
{
T 200 5050 5 8 1 1 0 6 1
pinnumber=19
T 200 4950 5 8 0 1 0 8 1
pinseq=11
T 350 5000 9 8 1 1 0 0 1
pinlabel=D1
T 350 5000 5 8 0 1 0 2 1
pintype=in
}
P 0 5400 300 5400 1 0 0
{
T 200 5450 5 8 1 1 0 6 1
pinnumber=20
T 200 5350 5 8 0 1 0 8 1
pinseq=12
T 350 5400 9 8 1 1 0 0 1
pinlabel=D0
T 350 5400 5 8 0 1 0 2 1
pintype=in
}
P 2500 2200 2200 2200 1 0 0
{
T 2300 2250 5 8 1 1 0 0 1
pinnumber=1
T 2300 2150 5 8 0 1 0 2 1
pinseq=13
T 2150 2200 9 8 1 1 0 6 1
pinlabel=Q3B
T 2150 2200 5 8 0 1 0 8 1
pintype=tri
}
P 2500 4200 2200 4200 1 0 0
{
T 2300 4250 5 8 1 1 0 0 1
pinnumber=7
T 2300 4150 5 8 0 1 0 2 1
pinseq=14
T 2150 4200 9 8 1 1 0 6 1
pinlabel=Q3A
T 2150 4200 5 8 0 1 0 8 1
pintype=tri
}
P 2500 2600 2200 2600 1 0 0
{
T 2300 2650 5 8 1 1 0 0 1
pinnumber=2
T 2300 2550 5 8 0 1 0 2 1
pinseq=15
T 2150 2600 9 8 1 1 0 6 1
pinlabel=Q2B
T 2150 2600 5 8 0 1 0 8 1
pintype=tri
}
P 2500 4600 2200 4600 1 0 0
{
T 2300 4650 5 8 1 1 0 0 1
pinnumber=6
T 2300 4550 5 8 0 1 0 2 1
pinseq=16
T 2150 4600 9 8 1 1 0 6 1
pinlabel=Q2A
T 2150 4600 5 8 0 1 0 8 1
pintype=tri
}
P 2500 3000 2200 3000 1 0 0
{
T 2300 3050 5 8 1 1 0 0 1
pinnumber=23
T 2300 2950 5 8 0 1 0 2 1
pinseq=17
T 2150 3000 9 8 1 1 0 6 1
pinlabel=Q1B
T 2150 3000 5 8 0 1 0 8 1
pintype=tri
}
P 2500 5000 2200 5000 1 0 0
{
T 2300 5050 5 8 1 1 0 0 1
pinnumber=5
T 2300 4950 5 8 0 1 0 2 1
pinseq=18
T 2150 5000 9 8 1 1 0 6 1
pinlabel=Q1A
T 2150 5000 5 8 0 1 0 8 1
pintype=tri
}
P 2500 3400 2200 3400 1 0 0
{
T 2300 3450 5 8 1 1 0 0 1
pinnumber=22
T 2300 3350 5 8 0 1 0 2 1
pinseq=19
T 2150 3400 9 8 1 1 0 6 1
pinlabel=Q0B
T 2150 3400 5 8 0 1 0 8 1
pintype=tri
}
P 2500 5400 2200 5400 1 0 0
{
T 2300 5450 5 8 1 1 0 0 1
pinnumber=4
T 2300 5350 5 8 0 1 0 2 1
pinseq=20
T 2150 5400 9 8 1 1 0 6 1
pinlabel=Q0A
T 2150 5400 5 8 0 1 0 8 1
pintype=tri
}
P 900 6100 900 5800 1 0 0
{
T 950 5900 5 8 1 1 0 0 1
pinnumber=15
T 950 5900 5 8 0 1 0 2 1
pinseq=21
T 900 5750 9 8 1 1 0 5 1
pinlabel=WE
T 900 5600 5 8 0 1 0 5 1
pintype=in
}
P 1600 6100 1600 5800 1 0 0
{
T 1650 5900 5 8 1 1 0 0 1
pinnumber=3
T 1650 5900 5 8 0 1 0 2 1
pinseq=22
T 1600 5750 9 8 1 1 0 5 1
pinlabel=3-State A
T 1600 5600 5 8 0 1 0 5 1
pintype=in
}
B 300 300 1900 5500 3 0 0 0 -1 -1 0 -1 -1 -1 -1 -1
T 2900 1850 5 10 0 0 0 0 1
numslots=0
T 100 50 9 10 1 0 0 0 1
4580
