v 20031231 2
L 300 0 700 0 3 0 0 0 -1 -1
L 300 0 300 600 3 0 0 0 -1 -1
A 700 300 300 270 180 3 0 0 0 -1 -1
V 1050 300 50 6 0 0 0 -1 -1 0 0 -1 -1 -1 -1
P 1100 300 1300 300 1 0 1
{
T 1000 300 5 8 0 0 0 0 1
pinnumber=OUT0
T 1000 300 5 8 0 0 0 0 1
pinseq=1
T 1000 300 5 8 0 0 0 0 1
pintype=OUT
}
P 300 100 0 100 1 0 1
{
T 300 100 5 8 0 0 0 0 1
pinnumber=IN0
T 300 100 5 8 0 0 0 0 1
pinseq=2
T 300 100 5 8 0 0 0 0 1
pintype=IN
}
P 300 500 0 500 1 0 1
{
T 300 500 5 8 0 0 0 0 1
pinnumber=IN1
T 300 500 5 8 0 0 0 0 1
pinseq=3
T 300 500 5 8 0 0 0 0 1
pintype=IN
}
T 400 -100 5 10 1 1 0 2 1
refdes=U?
T 400 100 5 8 0 0 0 0 1
device=nand2
L 300 600 700 600 3 0 0 0 -1 -1
