v 20050820 2
L 350 750 350 250 3 0 0 0 -1 -1
T 1400 800 5 8 0 0 0 0 1
device=PMOS_TRANSISTOR
L 350 700 600 700 3 0 0 0 -1 -1
L 350 500 600 500 3 0 0 0 -1 -1
L 600 500 500 450 3 0 0 0 -1 -1
L 600 500 500 550 3 0 0 0 -1 -1
P 600 700 600 1000 1 0 1
{
T 500 900 5 6 0 1 0 0 1
pinnumber=S
T 700 900 5 8 0 0 0 0 1
pinseq=3
}
P 600 500 700 500 1 0 1
{
T 700 600 5 6 0 1 0 0 1
pinnumber=B
T 700 400 5 8 0 0 0 0 1
pinseq=4
}
P 600 300 600 0 1 0 1
{
T 500 100 5 6 0 1 0 0 1
pinnumber=D
T 700 100 5 8 0 0 0 0 1
pinseq=1
}
P 250 500 0 500 1 0 1
{
T 0 600 5 6 0 1 0 0 1
pinnumber=G
T 0 400 5 8 0 0 0 0 1
pinseq=2
}
T 800 800 5 10 1 1 0 0 1
refdes=M?
T 800 600 5 8 1 1 0 0 1
model-name=pmv
T 800 300 5 8 1 0 0 0 1
w=10u
T 800 100 5 8 1 0 0 0 1
l=3u
T 1400 600 5 8 0 0 0 0 1
description=medium voltage PMOS
B 250 350 50 300 3 0 0 0 -1 -1 0 -1 -1 -1 -1 -1
B 350 300 150 50 3 0 0 0 -1 -1 0 -1 -1 -1 -1 -1
L 500 300 600 300 3 0 0 0 -1 -1
