v 20080110 2
P 100 4100 400 4100 1 0 0
{
T 300 4150 5 8 1 1 0 6 1
pinnumber=1
T 300 4050 5 8 0 1 0 8 1
pinseq=1
T 450 4100 9 8 1 1 0 0 1
pinlabel=in_ok
T 450 4100 5 8 0 1 0 2 1
pintype=in
}
P 100 3700 400 3700 1 0 0
{
T 300 3750 5 8 1 1 0 6 1
pinnumber=2
T 300 3650 5 8 0 1 0 8 1
pinseq=2
T 450 3700 9 8 1 1 0 0 1
pinlabel=out_ok
T 450 3700 5 8 0 1 0 2 1
pintype=out
}
P 100 3300 400 3300 1 0 0
{
T 300 3350 5 8 1 1 0 6 1
pinnumber=3
T 300 3250 5 8 0 1 0 8 1
pinseq=3
T 450 3300 9 8 1 1 0 0 1
pinlabel=io_ok
T 450 3300 5 8 0 1 0 2 1
pintype=io
}
P 100 2900 400 2900 1 0 0
{
T 300 2950 5 8 1 1 0 6 1
pinnumber=4
T 300 2850 5 8 0 1 0 8 1
pinseq=4
T 450 2900 9 8 1 1 0 0 1
pinlabel=oc_ok
T 450 2900 5 8 0 1 0 2 1
pintype=oc
}
P 100 2500 400 2500 1 0 0
{
T 300 2550 5 8 1 1 0 6 1
pinnumber=5
T 300 2450 5 8 0 1 0 8 1
pinseq=5
T 450 2500 9 8 1 1 0 0 1
pinlabel=oe_ok
T 450 2500 5 8 0 1 0 2 1
pintype=oe
}
P 100 2100 400 2100 1 0 0
{
T 300 2150 5 8 1 1 0 6 1
pinnumber=6
T 300 2050 5 8 0 1 0 8 1
pinseq=6
T 450 2100 9 8 1 1 0 0 1
pinlabel=pas_ok
T 450 2100 5 8 0 1 0 2 1
pintype=pas
}
P 100 1700 400 1700 1 0 0
{
T 300 1750 5 8 1 1 0 6 1
pinnumber=7
T 300 1650 5 8 0 1 0 8 1
pinseq=7
T 450 1700 9 8 1 1 0 0 1
pinlabel=tp_ok
T 450 1700 5 8 0 1 0 2 1
pintype=tp
}
P 100 1300 400 1300 1 0 0
{
T 300 1350 5 8 1 1 0 6 1
pinnumber=8
T 300 1250 5 8 0 1 0 8 1
pinseq=8
T 450 1300 9 8 1 1 0 0 1
pinlabel=tri_ok
T 450 1300 5 8 0 1 0 2 1
pintype=tri
}
P 100 900 400 900 1 0 0
{
T 300 950 5 8 1 1 0 6 1
pinnumber=9
T 300 850 5 8 0 1 0 8 1
pinseq=9
T 525 900 9 8 1 1 0 0 1
pinlabel=clk_ok
T 525 900 5 8 0 1 0 2 1
pintype=clk
}
L 500 900 400 975 3 0 0 0 -1 -1
L 500 900 400 825 3 0 0 0 -1 -1
P 100 500 400 500 1 0 0
{
T 300 550 5 8 1 1 0 6 1
pinnumber=10
T 300 450 5 8 0 1 0 8 1
pinseq=10
T 450 500 9 8 1 1 0 0 1
pinlabel=clk_ok
T 450 500 5 8 0 1 0 2 1
pintype=pwr
}
P 3100 4100 2800 4100 1 0 0
{
T 2900 4150 5 8 1 1 0 0 1
pinnumber=11
T 2900 4050 5 8 0 1 0 2 1
pinseq=11
T 2750 4100 9 8 1 1 0 6 1
pinlabel=substring of valid pintype
T 2750 4100 5 8 0 1 0 8 1
pintype=i
}
P 3100 3700 2800 3700 1 0 0
{
T 2900 3750 5 8 1 1 0 0 1
pinnumber=12
T 2900 3650 5 8 0 1 0 2 1
pinseq=12
T 2750 3700 9 8 1 1 0 6 1
pinlabel=superstring of valid pintype
T 2750 3700 5 8 0 1 0 8 1
pintype=iox
}
P 3100 3300 2800 3300 1 0 0
{
T 2900 3350 5 8 1 1 0 0 1
pinnumber=13
T 2900 3250 5 8 0 1 0 2 1
pinseq=13
T 2750 3300 9 8 1 1 0 6 1
pinlabel=completely different
T 2750 3300 5 8 0 1 0 8 1
pintype=abc
}
B 400 100 2400 4400 3 0 0 0 -1 -1 0 -1 -1 -1 -1 -1
T 2800 4600 8 10 1 1 0 6 1
refdes=U?
T 400 4600 9 10 1 0 0 0 1
pintype_check
T 400 4800 5 10 0 0 0 0 1
device=pintype_check
T 400 5000 5 10 0 0 0 0 1
footprint=none
T 400 5200 5 10 0 0 0 0 1
documentation=none
T 400 5400 5 10 0 0 0 0 1
description=pintype check for gsymcheck
T 400 5600 5 10 0 0 0 0 1
numslots=0
P 3100 2900 2800 2900 1 0 0
{
T 2900 2950 5 8 1 1 0 0 1
pinnumber=14
T 2900 2850 5 8 0 1 0 2 1
pinseq=14
T 2750 2900 9 8 1 1 0 6 1
pinlabel=duplicate but same
T 2750 2900 5 8 0 1 0 8 1
pintype=pas
T 2100 2800 5 10 0 1 0 0 1
pintype=pas
}
P 3100 2500 2800 2500 1 0 0
{
T 2900 2550 5 8 1 1 0 0 1
pinnumber=15
T 2900 2450 5 8 0 1 0 2 1
pinseq=15
T 2750 2500 9 8 1 1 0 6 1
pinlabel=duplicate but different
T 2750 2500 5 8 0 1 0 8 1
pintype=in
T 2300 2400 5 10 0 1 0 0 1
pintype=out
}
