v 20031231 2
T 2900 2700 5 10 0 0 0 0 1
device=DC331
B 400 0 2000 8000 3 0 0 0 -1 -1 0 0 -1 -1 -1 -1
P 400 7700 100 7700 1 0 1
P 400 7300 100 7300 1 0 1
P 400 6900 100 6900 1 0 1
P 400 6500 100 6500 1 0 1
P 400 6100 100 6100 1 0 1
P 400 5700 100 5700 1 0 1
P 400 5300 100 5300 1 0 1
P 400 4900 100 4900 1 0 1
P 400 4500 100 4500 1 0 1
P 100 4100 400 4100 1 0 0
P 400 3700 100 3700 1 0 1
P 400 3300 100 3300 1 0 1
P 400 2900 100 2900 1 0 1
P 400 2500 100 2500 1 0 1
P 400 2100 100 2100 1 0 1
P 400 1700 100 1700 1 0 1
P 400 1300 100 1300 1 0 1
P 400 900 100 900 1 0 1
P 400 500 100 500 1 0 1
P 400 100 100 100 1 0 1
P 2700 7700 2400 7700 1 0 0
P 2700 7300 2400 7300 1 0 0
P 2700 6900 2400 6900 1 0 0
P 2700 6500 2400 6500 1 0 0
P 2700 6100 2400 6100 1 0 0
P 2700 5700 2400 5700 1 0 0
P 2700 5300 2400 5300 1 0 0
P 2700 4900 2400 4900 1 0 0
P 2700 4500 2400 4500 1 0 0
P 2400 4100 2700 4100 1 0 1
P 2700 3700 2400 3700 1 0 0
P 2700 3300 2400 3300 1 0 0
P 2700 2900 2400 2900 1 0 0
P 2700 2500 2400 2500 1 0 0
P 2700 2100 2400 2100 1 0 0
P 2700 1700 2400 1700 1 0 0
P 2700 1300 2400 1300 1 0 0
P 2700 900 2400 900 1 0 0
P 2700 500 2400 500 1 0 0
P 2700 100 2400 100 1 0 0
T 400 8100 3 10 1 0 0 0 1
DC331
T 600 7300 3 10 1 0 0 0 1
CS
T 600 6900 3 10 1 0 0 0 1
WLB
T 600 6500 3 10 1 0 0 0 1
DAL00
T 600 6100 3 10 1 0 0 0 1
DAL01
T 600 5700 3 10 1 0 0 0 1
DAL02
T 600 5300 3 10 1 0 0 0 1
DAL03
T 600 4500 3 10 1 0 0 0 1
DAL05
T 600 4100 3 10 1 0 0 0 1
DAL06
T 600 3700 3 10 1 0 0 0 1
DAL07
T 600 3300 3 10 1 0 0 0 1
DAL08
T 600 2900 3 10 1 0 0 0 1
DAL09
T 600 2500 3 10 1 0 0 0 1
DAL10
T 600 2100 3 10 1 0 0 0 1
DAL11
T 600 1700 3 10 1 0 0 0 1
DAL12
T 600 1300 3 10 1 0 0 0 1
DAL13
T 600 900 3 10 1 0 0 0 1
DAL14
T 600 500 3 10 1 0 0 0 1
DAL15
T 600 100 3 10 1 0 0 0 1
VSS
T 600 4900 3 10 1 0 0 0 1
DAL04
T 2200 7700 3 10 1 0 0 6 1
VCC
T 2200 7300 3 10 1 0 0 6 1
TEST
T 2200 6900 3 10 1 0 0 6 1
BRS2
T 2200 6500 3 10 1 0 0 6 1
BRS1
T 2200 6100 3 10 1 0 0 6 1
RTCLK60
T 2200 5700 3 10 1 0 0 6 1
RTCLK50
T 2200 5300 3 10 1 0 0 6 1
R/WLB
T 2200 4900 3 10 1 0 0 6 1
R/WHB
T 2200 4500 3 10 1 0 0 6 1
READY
T 2200 4100 3 10 1 0 0 6 1
BRS0
T 2200 3700 3 10 1 0 0 6 1
SEL0
T 2200 3300 3 10 1 0 0 6 1
SEL1
T 2200 2900 3 10 1 0 0 6 1
PBRI
T 2200 2500 3 10 1 0 0 6 1
SI
T 2200 2100 3 10 1 0 0 6 1
RCV IRQ
T 2200 1700 3 10 1 0 0 6 1
RTCLK800
T 2200 1300 3 10 1 0 0 6 1
INIT
T 2200 900 3 10 1 0 0 6 1
A2
T 2200 500 3 10 1 0 0 6 1
A1
T 2200 100 3 10 1 0 0 6 1
A0
T 300 7750 3 8 1 0 0 0 1
1
T 250 7350 3 8 1 0 0 0 1
2
T 250 6950 3 8 1 0 0 0 1
3
T 250 6550 3 8 1 0 0 0 1
4
T 250 6150 3 8 1 0 0 0 1
5
T 250 5750 3 8 1 0 0 0 1
6
T 250 5350 3 8 1 0 0 0 1
7
T 250 4950 3 8 1 0 0 0 1
8
T 250 4550 3 8 1 0 0 0 1
9
T 200 4150 3 8 1 0 0 0 1
10
T 200 3750 3 8 1 0 0 0 1
11
T 200 3350 3 8 1 0 0 0 1
12
T 200 2950 3 8 1 0 0 0 1
13
T 200 2550 3 8 1 0 0 0 1
14
T 200 2150 3 8 1 0 0 0 1
15
T 200 1750 3 8 1 0 0 0 1
16
T 200 1350 3 8 1 0 0 0 1
17
T 200 950 3 8 1 0 0 0 1
18
T 200 550 3 8 1 0 0 0 1
19
T 150 150 3 8 1 0 0 0 1
20
T 2450 150 3 8 1 0 0 0 1
21
T 2450 550 3 8 1 0 0 0 1
22
T 2450 950 3 8 1 0 0 0 1
23
T 2450 1350 3 8 1 0 0 0 1
24
T 2450 1750 3 8 1 0 0 0 1
25
T 2450 2150 3 8 1 0 0 0 1
26
T 2450 2550 3 8 1 0 0 0 1
27
T 2450 2950 3 8 1 0 0 0 1
28
T 2450 3350 3 8 1 0 0 0 1
29
T 2450 3750 3 8 1 0 0 0 1
30
T 2450 4150 3 8 1 0 0 0 1
31
T 2450 4550 3 8 1 0 0 0 1
32
T 2450 4950 3 8 1 0 0 0 1
33
T 2450 5350 3 8 1 0 0 0 1
34
T 2450 5750 3 8 1 0 0 0 1
35
T 2450 6150 3 8 1 0 0 0 1
36
T 2450 6550 3 8 1 0 0 0 1
37
T 2450 6950 3 8 1 0 0 0 1
38
T 2450 7350 3 8 1 0 0 0 1
39
T 2450 7750 3 8 1 0 0 0 1
40
T 600 7700 3 10 1 0 0 0 1
RD
