v["U1","13"]=v["minusin_slot4_pin13_b"];
v["U1","12"]=v["plusin_slot4_pin12_a"];
v["U1","9"]=v["minusin_slot3_pin_b"];
v["U1","10"]=v["plusin_slot3_pin10_a"];
v["U1","6"]=v["minusin_slot2_pin6_b"];
v["U1","5"]=v["plusin_slot2_pin5_a"];
v["U1","1"]=v["samenet_output_c"];
v["U1","14"]=v["samenet_output_c"];
v["U1","7"]=v["samenet_output_c"];
v["U1","8"]=v["samenet_output_c"];
v["U1","2"]=v["minusin_slot1_pin_b"];
v["U1","3"]=v["plusin_slot1_pin3_a"];
nodeEquations={
i["U1","13"]==0,
i["U1","12"]==0,
i["U1","9"]==0,
i["U1","10"]==0,
i["U1","6"]==0,
i["U1","5"]==0,
i["U1","1"]+i["U1","14"]+i["U1","7"]+i["U1","8"]==0,
i["U1","2"]==0,
i["U1","3"]==0};
modelEquations={
lm324[value->u1]["U1"]};
variables={
v["minusin_slot4_pin13_b"],
v["plusin_slot4_pin12_a"],
v["minusin_slot3_pin_b"],
v["plusin_slot3_pin10_a"],
v["minusin_slot2_pin6_b"],
v["plusin_slot2_pin5_a"],
v["samenet_output_c"],
v["minusin_slot1_pin_b"],
v["plusin_slot1_pin3_a"],
i["U1","13"],
i["U1","12"],
i["U1","9"],
i["U1","10"],
i["U1","6"],
i["U1","5"],
i["U1","1"],
i["U1","14"],
i["U1","7"],
i["U1","8"],
i["U1","2"],
i["U1","3"]};
