v 20031231 2
B 202 -1 800 800 3 0 0 0 -1 -1 0 -1 -1 -1 -1 -1
P 200 400 0 400 1 0 1
P 1000 400 1200 400 1 0 1
L 200 0 1000 800 15 0 0 0 -1 -1
L 900 220 580 220 3 0 0 0 -1 -1
L 900 180 820 180 3 0 0 0 -1 -1
L 780 180 700 180 3 0 0 0 -1 -1
L 660 180 580 180 3 0 0 0 -1 -1
A 380 559 90 27 125 3 0 0 0 -1 -1
A 540 641 90 207 125 3 0 0 0 -1 -1
L 550 850 650 800 3 0 0 0 -1 -1
L 650 800 550 750 3 0 0 0 -1 -1
