v 20031231 2
B 200 0 800 800 3 0 0 0 -1 -1 0 -1 -1 -1 -1 -1
P 200 400 0 400 1 0 1
P 1000 400 1200 400 1 0 1
L 400 700 400 100 3 0 0 0 -1 -1
L 400 100 900 400 3 0 0 0 -1 -1
L 900 400 400 700 3 0 0 0 -1 -1
L 830 570 900 640 3 0 0 0 -1 -1
L 830 570 800 600 3 0 0 0 -1 -1
L 800 600 300 100 3 0 0 0 -1 -1
