v 20031231 2
B 200 0 800 800 3 0 0 0 -1 -1 0 -1 -1 -1 -1 -1
P 200 700 0 700 1 0 1
P 1000 400 1200 400 1 0 1
L 450 610 600 610 3 0 0 0 -1 -1
L 600 190 450 190 3 0 0 0 -1 -1
L 450 330 600 330 3 0 0 0 -1 -1
L 450 470 600 470 3 0 0 0 -1 -1
L 800 400 700 450 3 0 0 0 -1 -1
L 800 400 700 350 3 0 0 0 -1 -1
L 600 400 800 400 3 0 0 0 -1 -1
L 600 610 600 190 3 0 0 0 -1 -1
P 200 100 0 100 1 0 1
P 200 500 0 500 1 0 1
P 200 300 0 300 1 0 1
