v 20031231 2
B 200 200 800 800 3 0 0 0 -1 -1 0 -1 -1 -1 -1 -1
P 200 600 0 600 1 0 1
P 1000 600 1200 600 1 0 1
L 200 600 1000 600 3 0 0 0 -1 -1
L 400 400 400 200 3 0 0 0 -1 -1
A 200 400 200 0 90 3 0 0 0 -1 -1
P 400 200 400 0 1 0 1
A 1000 400 200 90 90 3 0 0 0 -1 -1
L 800 400 800 200 3 0 0 0 -1 -1
P 800 200 800 0 1 0 1
