v 20031231 2
B 200 0 800 800 3 0 0 0 -1 -1 0 -1 -1 -1 -1 -1
P 200 400 0 400 1 0 1
B 400 100 400 160 3 0 0 0 -1 -1 0 -1 -1 -1 -1 -1
B 400 260 400 160 3 0 0 0 -1 -1 0 -1 -1 -1 -1 -1
L 460 420 460 500 3 0 0 0 -1 -1
L 460 500 400 500 3 0 0 0 -1 -1
L 400 500 400 700 3 0 0 0 -1 -1
L 400 700 800 700 3 0 0 0 -1 -1
L 800 700 800 500 3 0 0 0 -1 -1
L 800 500 740 500 3 0 0 0 -1 -1
L 740 500 740 420 3 0 0 0 -1 -1
L 400 340 300 340 3 0 0 0 -1 -1
L 400 180 300 180 3 0 0 0 -1 -1
L 900 340 800 340 3 0 0 0 -1 -1
L 900 180 800 180 3 0 0 0 -1 -1
L 400 600 300 600 3 0 0 0 -1 -1
