v 20031231 2
B 200 200 800 800 3 0 0 0 -1 -1 0 -1 -1 -1 -1 -1
P 200 600 0 600 1 0 1
P 1000 600 1200 600 1 0 1
L 200 200 1000 1000 3 0 0 0 -1 -1
L 200 1000 1000 200 3 0 0 0 -1 -1
P 600 200 600 0 1 0 1
