v 20031231 2
B 2 -1 800 800 3 0 0 0 -1 -1 0 -1 -1 -1 -1 -1
P 800 400 1000 400 1 0 1
A 320 359 90 27 125 3 0 0 0 -1 -1
A 480 441 90 207 125 3 0 0 0 -1 -1
V 400 400 250 3 0 0 0 -1 -1 0 -1 -1 -1 -1 -1
L 100 100 650 650 3 0 0 0 -1 -1
L 600 700 700 600 3 0 0 0 -1 -1
