v 20031231 2
P 1400 2600 1700 2600 1 0 1
{
T 250 2550 5 8 1 1 0 0 1
pinnumber=2
T 250 2550 5 8 0 0 0 0 1
pinseq=2
T 250 2550 5 8 0 1 0 0 1 
pinlabel=2
T 250 2550 5 8 0 1 0 0 1 
pintype=pas
}
P 1400 2000 1700 2000 1 0 1
{
T 250 1950 5 8 1 1 0 0 1
pinnumber=4
T 250 1950 5 8 0 0 0 0 1
pinseq=4
T 250 1950 5 8 0 1 0 0 1 
pinlabel=4
T 250 1950 5 8 0 1 0 0 1 
pintype=pas
}
P 1400 1400 1700 1400 1 0 1
{
T 250 1350 5 8 1 1 0 0 1
pinnumber=6
T 250 1350 5 8 0 0 0 0 1
pinseq=6
T 250 1350 5 8 0 1 0 0 1 
pinlabel=6
T 250 1350 5 8 0 1 0 0 1 
pintype=pas
}
P 1400 800 1700 800 1 0 1
{
T 250 750 5 8 1 1 0 0 1
pinnumber=8
T 250 750 5 8 0 0 0 0 1
pinseq=8
T 250 750 5 8 0 1 0 0 1 
pinlabel=8
T 250 750 5 8 0 1 0 0 1 
pintype=pas
}
P 1400 2900 1700 2900 1 0 1
{
T 250 2850 5 8 1 1 0 0 1
pinnumber=1
T 250 2850 5 8 0 0 0 0 1
pinseq=1
T 250 2850 5 8 0 1 0 0 1 
pinlabel=1
T 250 2850 5 8 0 1 0 0 1 
pintype=pas
}
P 1400 2300 1700 2300 1 0 1
{
T 250 2250 5 8 1 1 0 0 1
pinnumber=3
T 250 2250 5 8 0 0 0 0 1
pinseq=3
T 250 2250 5 8 0 1 0 0 1 
pinlabel=3
T 250 2250 5 8 0 1 0 0 1 
pintype=pas
}
P 1400 1700 1700 1700 1 0 1
{
T 250 1650 5 8 1 1 0 0 1
pinnumber=5
T 250 1650 5 8 0 0 0 0 1
pinseq=5
T 250 1650 5 8 0 1 0 0 1 
pinlabel=5
T 250 1650 5 8 0 1 0 0 1 
pintype=pas
}
P 1400 1100 1700 1100 1 0 1
{
T 250 1050 5 8 1 1 0 0 1
pinnumber=7
T 250 1050 5 8 0 0 0 0 1
pinseq=7
T 250 1050 5 8 0 1 0 0 1 
pinlabel=7
T 250 1050 5 8 0 1 0 0 1 
pintype=pas
}
P 1400 200 1700 200 1 0 1
{
T 250 150 5 8 1 1 0 0 1
pinnumber=10
T 250 150 5 8 0 0 0 0 1
pinseq=10
T 250 150 5 8 0 1 0 0 1 
pinlabel=10
T 250 150 5 8 0 1 0 0 1 
pintype=pas
}
P 1400 500 1700 500 1 0 1
{
T 250 450 5 8 1 1 0 0 1
pinnumber=9
T 250 450 5 8 0 0 0 0 1
pinseq=9
T 250 450 5 8 0 1 0 0 1 
pinlabel=9
T 250 450 5 8 0 1 0 0 1 
pintype=pas
}
L 1400 2900 500 2900 3 0 0 0 -1 -1
L 1400 2600 500 2600 3 0 0 0 -1 -1
L 1400 2300 500 2300 3 0 0 0 -1 -1
L 1400 2000 500 2000 3 0 0 0 -1 -1
L 1400 1700 500 1700 3 0 0 0 -1 -1
L 1400 1400 500 1400 3 0 0 0 -1 -1
L 1400 1100 500 1100 3 0 0 0 -1 -1
L 1400 800 500 800 3 0 0 0 -1 -1
L 1400 500 500 500 3 0 0 0 -1 -1
L 1400 200 500 200 3 0 0 0 -1 -1
B 0 0 500 3100 3 0 0 0 -1 -1 0 -1 -1 -1 -1 -1
T 1900 3000 5 10 0 0 0 0 1
device=CONNECTOR_10
T 100 3200 8 10 1 1 0 0 1
refdes=CONN?
