v 20041228 2
T 800 14200 8 10 1 1 0 6 1
refdes=CONN?
T 400 14150 5 10 0 0 0 0 1
device=CONNECTOR_34
T 400 14350 5 10 0 0 0 0 1
footprint=SIP34N
T 400 14550 5 10 0 0 0 0 1
author=Leon Kos
T 400 14750 5 10 0 0 0 0 1
description=generic connector
T 400 14950 5 10 0 0 0 0 1
numslots=0
P 100 13700 300 13700 1 0 0
{
T 300 13750 5 8 0 1 0 6 1
pinnumber=1
T 300 13650 5 8 0 1 0 8 1
pinseq=1
T 450 13700 9 8 1 1 0 0 1
pinlabel=1
T 450 13700 5 8 0 1 0 2 1
pintype=pas
}
V 350 13700 50 6 0 0 0 -1 -1 0 -1 -1 -1 -1 -1
P 100 13300 300 13300 1 0 0
{
T 300 13350 5 8 0 1 0 6 1
pinnumber=2
T 300 13250 5 8 0 1 0 8 1
pinseq=2
T 450 13300 9 8 1 1 0 0 1
pinlabel=2
T 450 13300 5 8 0 1 0 2 1
pintype=pas
}
V 350 13300 50 6 0 0 0 -1 -1 0 -1 -1 -1 -1 -1
P 100 12900 300 12900 1 0 0
{
T 300 12950 5 8 0 1 0 6 1
pinnumber=3
T 300 12850 5 8 0 1 0 8 1
pinseq=3
T 450 12900 9 8 1 1 0 0 1
pinlabel=3
T 450 12900 5 8 0 1 0 2 1
pintype=pas
}
V 350 12900 50 6 0 0 0 -1 -1 0 -1 -1 -1 -1 -1
P 100 12500 300 12500 1 0 0
{
T 300 12550 5 8 0 1 0 6 1
pinnumber=4
T 300 12450 5 8 0 1 0 8 1
pinseq=4
T 450 12500 9 8 1 1 0 0 1
pinlabel=4
T 450 12500 5 8 0 1 0 2 1
pintype=pas
}
V 350 12500 50 6 0 0 0 -1 -1 0 -1 -1 -1 -1 -1
P 100 12100 300 12100 1 0 0
{
T 300 12150 5 8 0 1 0 6 1
pinnumber=5
T 300 12050 5 8 0 1 0 8 1
pinseq=5
T 450 12100 9 8 1 1 0 0 1
pinlabel=5
T 450 12100 5 8 0 1 0 2 1
pintype=pas
}
V 350 12100 50 6 0 0 0 -1 -1 0 -1 -1 -1 -1 -1
P 100 11700 300 11700 1 0 0
{
T 300 11750 5 8 0 1 0 6 1
pinnumber=6
T 300 11650 5 8 0 1 0 8 1
pinseq=6
T 450 11700 9 8 1 1 0 0 1
pinlabel=6
T 450 11700 5 8 0 1 0 2 1
pintype=pas
}
V 350 11700 50 6 0 0 0 -1 -1 0 -1 -1 -1 -1 -1
P 100 11300 300 11300 1 0 0
{
T 300 11350 5 8 0 1 0 6 1
pinnumber=7
T 300 11250 5 8 0 1 0 8 1
pinseq=7
T 450 11300 9 8 1 1 0 0 1
pinlabel=7
T 450 11300 5 8 0 1 0 2 1
pintype=pas
}
V 350 11300 50 6 0 0 0 -1 -1 0 -1 -1 -1 -1 -1
P 100 10900 300 10900 1 0 0
{
T 300 10950 5 8 0 1 0 6 1
pinnumber=8
T 300 10850 5 8 0 1 0 8 1
pinseq=8
T 450 10900 9 8 1 1 0 0 1
pinlabel=8
T 450 10900 5 8 0 1 0 2 1
pintype=pas
}
V 350 10900 50 6 0 0 0 -1 -1 0 -1 -1 -1 -1 -1
P 100 10500 300 10500 1 0 0
{
T 300 10550 5 8 0 1 0 6 1
pinnumber=9
T 300 10450 5 8 0 1 0 8 1
pinseq=9
T 450 10500 9 8 1 1 0 0 1
pinlabel=9
T 450 10500 5 8 0 1 0 2 1
pintype=pas
}
V 350 10500 50 6 0 0 0 -1 -1 0 -1 -1 -1 -1 -1
P 100 10100 300 10100 1 0 0
{
T 300 10150 5 8 0 1 0 6 1
pinnumber=10
T 300 10050 5 8 0 1 0 8 1
pinseq=10
T 450 10100 9 8 1 1 0 0 1
pinlabel=10
T 450 10100 5 8 0 1 0 2 1
pintype=pas
}
V 350 10100 50 6 0 0 0 -1 -1 0 -1 -1 -1 -1 -1
P 100 9700 300 9700 1 0 0
{
T 300 9750 5 8 0 1 0 6 1
pinnumber=11
T 300 9650 5 8 0 1 0 8 1
pinseq=11
T 450 9700 9 8 1 1 0 0 1
pinlabel=11
T 450 9700 5 8 0 1 0 2 1
pintype=pas
}
V 350 9700 50 6 0 0 0 -1 -1 0 -1 -1 -1 -1 -1
P 100 9300 300 9300 1 0 0
{
T 300 9350 5 8 0 1 0 6 1
pinnumber=12
T 300 9250 5 8 0 1 0 8 1
pinseq=12
T 450 9300 9 8 1 1 0 0 1
pinlabel=12
T 450 9300 5 8 0 1 0 2 1
pintype=pas
}
V 350 9300 50 6 0 0 0 -1 -1 0 -1 -1 -1 -1 -1
P 100 8900 300 8900 1 0 0
{
T 300 8950 5 8 0 1 0 6 1
pinnumber=13
T 300 8850 5 8 0 1 0 8 1
pinseq=13
T 450 8900 9 8 1 1 0 0 1
pinlabel=13
T 450 8900 5 8 0 1 0 2 1
pintype=pas
}
V 350 8900 50 6 0 0 0 -1 -1 0 -1 -1 -1 -1 -1
P 100 8500 300 8500 1 0 0
{
T 300 8550 5 8 0 1 0 6 1
pinnumber=14
T 300 8450 5 8 0 1 0 8 1
pinseq=14
T 450 8500 9 8 1 1 0 0 1
pinlabel=14
T 450 8500 5 8 0 1 0 2 1
pintype=pas
}
V 350 8500 50 6 0 0 0 -1 -1 0 -1 -1 -1 -1 -1
P 100 8100 300 8100 1 0 0
{
T 300 8150 5 8 0 1 0 6 1
pinnumber=15
T 300 8050 5 8 0 1 0 8 1
pinseq=15
T 450 8100 9 8 1 1 0 0 1
pinlabel=15
T 450 8100 5 8 0 1 0 2 1
pintype=pas
}
V 350 8100 50 6 0 0 0 -1 -1 0 -1 -1 -1 -1 -1
P 100 7700 300 7700 1 0 0
{
T 300 7750 5 8 0 1 0 6 1
pinnumber=16
T 300 7650 5 8 0 1 0 8 1
pinseq=16
T 450 7700 9 8 1 1 0 0 1
pinlabel=16
T 450 7700 5 8 0 1 0 2 1
pintype=pas
}
V 350 7700 50 6 0 0 0 -1 -1 0 -1 -1 -1 -1 -1
P 100 7300 300 7300 1 0 0
{
T 300 7350 5 8 0 1 0 6 1
pinnumber=17
T 300 7250 5 8 0 1 0 8 1
pinseq=17
T 450 7300 9 8 1 1 0 0 1
pinlabel=17
T 450 7300 5 8 0 1 0 2 1
pintype=pas
}
V 350 7300 50 6 0 0 0 -1 -1 0 -1 -1 -1 -1 -1
P 100 6900 300 6900 1 0 0
{
T 300 6950 5 8 0 1 0 6 1
pinnumber=18
T 300 6850 5 8 0 1 0 8 1
pinseq=18
T 450 6900 9 8 1 1 0 0 1
pinlabel=18
T 450 6900 5 8 0 1 0 2 1
pintype=pas
}
V 350 6900 50 6 0 0 0 -1 -1 0 -1 -1 -1 -1 -1
P 100 6500 300 6500 1 0 0
{
T 300 6550 5 8 0 1 0 6 1
pinnumber=19
T 300 6450 5 8 0 1 0 8 1
pinseq=19
T 450 6500 9 8 1 1 0 0 1
pinlabel=19
T 450 6500 5 8 0 1 0 2 1
pintype=pas
}
V 350 6500 50 6 0 0 0 -1 -1 0 -1 -1 -1 -1 -1
P 100 6100 300 6100 1 0 0
{
T 300 6150 5 8 0 1 0 6 1
pinnumber=20
T 300 6050 5 8 0 1 0 8 1
pinseq=20
T 450 6100 9 8 1 1 0 0 1
pinlabel=20
T 450 6100 5 8 0 1 0 2 1
pintype=pas
}
V 350 6100 50 6 0 0 0 -1 -1 0 -1 -1 -1 -1 -1
P 100 5700 300 5700 1 0 0
{
T 300 5750 5 8 0 1 0 6 1
pinnumber=21
T 300 5650 5 8 0 1 0 8 1
pinseq=21
T 450 5700 9 8 1 1 0 0 1
pinlabel=21
T 450 5700 5 8 0 1 0 2 1
pintype=pas
}
V 350 5700 50 6 0 0 0 -1 -1 0 -1 -1 -1 -1 -1
P 100 5300 300 5300 1 0 0
{
T 300 5350 5 8 0 1 0 6 1
pinnumber=22
T 300 5250 5 8 0 1 0 8 1
pinseq=22
T 450 5300 9 8 1 1 0 0 1
pinlabel=22
T 450 5300 5 8 0 1 0 2 1
pintype=pas
}
V 350 5300 50 6 0 0 0 -1 -1 0 -1 -1 -1 -1 -1
P 100 4900 300 4900 1 0 0
{
T 300 4950 5 8 0 1 0 6 1
pinnumber=23
T 300 4850 5 8 0 1 0 8 1
pinseq=23
T 450 4900 9 8 1 1 0 0 1
pinlabel=23
T 450 4900 5 8 0 1 0 2 1
pintype=pas
}
V 350 4900 50 6 0 0 0 -1 -1 0 -1 -1 -1 -1 -1
P 100 4500 300 4500 1 0 0
{
T 300 4550 5 8 0 1 0 6 1
pinnumber=24
T 300 4450 5 8 0 1 0 8 1
pinseq=24
T 450 4500 9 8 1 1 0 0 1
pinlabel=24
T 450 4500 5 8 0 1 0 2 1
pintype=pas
}
V 350 4500 50 6 0 0 0 -1 -1 0 -1 -1 -1 -1 -1
P 100 4100 300 4100 1 0 0
{
T 300 4150 5 8 0 1 0 6 1
pinnumber=25
T 300 4050 5 8 0 1 0 8 1
pinseq=25
T 450 4100 9 8 1 1 0 0 1
pinlabel=25
T 450 4100 5 8 0 1 0 2 1
pintype=pas
}
V 350 4100 50 6 0 0 0 -1 -1 0 -1 -1 -1 -1 -1
P 100 3700 300 3700 1 0 0
{
T 300 3750 5 8 0 1 0 6 1
pinnumber=26
T 300 3650 5 8 0 1 0 8 1
pinseq=26
T 450 3700 9 8 1 1 0 0 1
pinlabel=26
T 450 3700 5 8 0 1 0 2 1
pintype=pas
}
V 350 3700 50 6 0 0 0 -1 -1 0 -1 -1 -1 -1 -1
P 100 3300 300 3300 1 0 0
{
T 300 3350 5 8 0 1 0 6 1
pinnumber=27
T 300 3250 5 8 0 1 0 8 1
pinseq=27
T 450 3300 9 8 1 1 0 0 1
pinlabel=27
T 450 3300 5 8 0 1 0 2 1
pintype=pas
}
V 350 3300 50 6 0 0 0 -1 -1 0 -1 -1 -1 -1 -1
P 100 2900 300 2900 1 0 0
{
T 300 2950 5 8 0 1 0 6 1
pinnumber=28
T 300 2850 5 8 0 1 0 8 1
pinseq=28
T 450 2900 9 8 1 1 0 0 1
pinlabel=28
T 450 2900 5 8 0 1 0 2 1
pintype=pas
}
V 350 2900 50 6 0 0 0 -1 -1 0 -1 -1 -1 -1 -1
P 100 2500 300 2500 1 0 0
{
T 300 2550 5 8 0 1 0 6 1
pinnumber=29
T 300 2450 5 8 0 1 0 8 1
pinseq=29
T 450 2500 9 8 1 1 0 0 1
pinlabel=29
T 450 2500 5 8 0 1 0 2 1
pintype=pas
}
V 350 2500 50 6 0 0 0 -1 -1 0 -1 -1 -1 -1 -1
P 100 2100 300 2100 1 0 0
{
T 300 2150 5 8 0 1 0 6 1
pinnumber=30
T 300 2050 5 8 0 1 0 8 1
pinseq=30
T 450 2100 9 8 1 1 0 0 1
pinlabel=30
T 450 2100 5 8 0 1 0 2 1
pintype=pas
}
V 350 2100 50 6 0 0 0 -1 -1 0 -1 -1 -1 -1 -1
P 100 1700 300 1700 1 0 0
{
T 300 1750 5 8 0 1 0 6 1
pinnumber=31
T 300 1650 5 8 0 1 0 8 1
pinseq=31
T 450 1700 9 8 1 1 0 0 1
pinlabel=31
T 450 1700 5 8 0 1 0 2 1
pintype=pas
}
V 350 1700 50 6 0 0 0 -1 -1 0 -1 -1 -1 -1 -1
P 100 1300 300 1300 1 0 0
{
T 300 1350 5 8 0 1 0 6 1
pinnumber=32
T 300 1250 5 8 0 1 0 8 1
pinseq=32
T 450 1300 9 8 1 1 0 0 1
pinlabel=32
T 450 1300 5 8 0 1 0 2 1
pintype=pas
}
V 350 1300 50 6 0 0 0 -1 -1 0 -1 -1 -1 -1 -1
P 100 900 300 900 1 0 0
{
T 300 950 5 8 0 1 0 6 1
pinnumber=33
T 300 850 5 8 0 1 0 8 1
pinseq=33
T 450 900 9 8 1 1 0 0 1
pinlabel=33
T 450 900 5 8 0 1 0 2 1
pintype=pas
}
V 350 900 50 6 0 0 0 -1 -1 0 -1 -1 -1 -1 -1
P 100 500 300 500 1 0 0
{
T 300 550 5 8 0 1 0 6 1
pinnumber=34
T 300 450 5 8 0 1 0 8 1
pinseq=34
T 450 500 9 8 1 1 0 0 1
pinlabel=34
T 450 500 5 8 0 1 0 2 1
pintype=pas
}
V 350 500 50 6 0 0 0 -1 -1 0 -1 -1 -1 -1 -1
B 400 100 400 14000 3 0 0 0 -1 -1 0 -1 -1 -1 -1 -1
