v 20031231 2
L 0 300 0 7500 3 0 0 0 -1 -1
T 1100 7650 5 10 0 0 0 0 1
device=DB25
A 750 150 150 250 110 3 0 0 0 -1 -1
A 75 300 75 180 60 3 0 0 0 -1 -1
A 750 7690 150 0 110 3 0 0 0 -1 -1
A 75 7500 75 120 60 3 0 0 0 -1 -1
L 900 140 900 7690 3 0 0 0 -1 -1
V 600 300 50 3 0 0 0 -1 -1 0 -1 -1 -1 -1 -1
P 650 300 1200 300 1 0 1
{
T 1000 350 5 8 1 1 0 0 1
pinnumber=13
T 1000 350 5 8 0 0 0 0 1
pinseq=1
T 1000 350 5 8 0 1 0 0 1 
pinlabel=13
T 1000 350 5 8 0 1 0 0 1 
pintype=pas
}
V 300 600 50 3 0 0 0 -1 -1 0 -1 -1 -1 -1 -1
P 350 600 1200 600 1 0 1
{
T 1000 650 5 8 1 1 0 0 1
pinnumber=25
T 1000 650 5 8 0 0 0 0 1
pinseq=2
T 1000 650 5 8 0 1 0 0 1 
pinlabel=25
T 1000 650 5 8 0 1 0 0 1 
pintype=pas
}
V 600 900 50 3 0 0 0 -1 -1 0 -1 -1 -1 -1 -1
P 650 900 1200 900 1 0 1
{
T 1000 950 5 8 1 1 0 0 1
pinnumber=12
T 1000 950 5 8 0 0 0 0 1
pinseq=3
T 1000 950 5 8 0 1 0 0 1 
pinlabel=12
T 1000 950 5 8 0 1 0 0 1 
pintype=pas
}
V 300 1200 50 3 0 0 0 -1 -1 0 -1 -1 -1 -1 -1
P 350 1200 1200 1200 1 0 1
{
T 1000 1250 5 8 1 1 0 0 1
pinnumber=24
T 1000 1250 5 8 0 0 0 0 1
pinseq=4
T 1000 1250 5 8 0 1 0 0 1 
pinlabel=24
T 1000 1250 5 8 0 1 0 0 1 
pintype=pas
}
V 600 1500 50 3 0 0 0 -1 -1 0 -1 -1 -1 -1 -1
P 650 1500 1200 1500 1 0 1
{
T 1000 1550 5 8 1 1 0 0 1
pinnumber=11
T 1000 1550 5 8 0 0 0 0 1
pinseq=5
T 1000 1550 5 8 0 1 0 0 1 
pinlabel=11
T 1000 1550 5 8 0 1 0 0 1 
pintype=pas
}
V 300 1800 50 3 0 0 0 -1 -1 0 -1 -1 -1 -1 -1
P 350 1800 1200 1800 1 0 1
{
T 1000 1850 5 8 1 1 0 0 1
pinnumber=23
T 1000 1850 5 8 0 0 0 0 1
pinseq=6
T 1000 1850 5 8 0 1 0 0 1 
pinlabel=23
T 1000 1850 5 8 0 1 0 0 1 
pintype=pas
}
V 600 2100 50 3 0 0 0 -1 -1 0 -1 -1 -1 -1 -1
P 650 2100 1200 2100 1 0 1
{
T 1000 2150 5 8 1 1 0 0 1
pinnumber=10
T 1000 2150 5 8 0 0 0 0 1
pinseq=7
T 1000 2150 5 8 0 1 0 0 1 
pinlabel=10
T 1000 2150 5 8 0 1 0 0 1 
pintype=pas
}
V 300 2400 50 3 0 0 0 -1 -1 0 -1 -1 -1 -1 -1
P 350 2400 1200 2400 1 0 1
{
T 1000 2450 5 8 1 1 0 0 1
pinnumber=22
T 1000 2450 5 8 0 0 0 0 1
pinseq=8
T 1000 2450 5 8 0 1 0 0 1 
pinlabel=22
T 1000 2450 5 8 0 1 0 0 1 
pintype=pas
}
V 600 2700 50 3 0 0 0 -1 -1 0 -1 -1 -1 -1 -1
P 650 2700 1200 2700 1 0 1
{
T 1000 2750 5 8 1 1 0 0 1
pinnumber=9
T 1000 2750 5 8 0 0 0 0 1
pinseq=9
T 1000 2750 5 8 0 1 0 0 1 
pinlabel=9
T 1000 2750 5 8 0 1 0 0 1 
pintype=pas
}
V 300 3000 50 3 0 0 0 -1 -1 0 -1 -1 -1 -1 -1
P 350 3000 1200 3000 1 0 1
{
T 1000 3050 5 8 1 1 0 0 1
pinnumber=21
T 1000 3050 5 8 0 0 0 0 1
pinseq=10
T 1000 3050 5 8 0 1 0 0 1 
pinlabel=21
T 1000 3050 5 8 0 1 0 0 1 
pintype=pas
}
V 600 3300 50 3 0 0 0 -1 -1 0 -1 -1 -1 -1 -1
P 650 3300 1200 3300 1 0 1
{
T 1000 3350 5 8 1 1 0 0 1
pinnumber=8
T 1000 3350 5 8 0 0 0 0 1
pinseq=11
T 1000 3350 5 8 0 1 0 0 1 
pinlabel=8
T 1000 3350 5 8 0 1 0 0 1 
pintype=pas
}
V 300 3600 50 3 0 0 0 -1 -1 0 -1 -1 -1 -1 -1
P 350 3600 1200 3600 1 0 1
{
T 1000 3650 5 8 1 1 0 0 1
pinnumber=20
T 1000 3650 5 8 0 0 0 0 1
pinseq=12
T 1000 3650 5 8 0 1 0 0 1 
pinlabel=20
T 1000 3650 5 8 0 1 0 0 1 
pintype=pas
}
V 600 3900 50 3 0 0 0 -1 -1 0 -1 -1 -1 -1 -1
P 650 3900 1200 3900 1 0 1
{
T 1000 3950 5 8 1 1 0 0 1
pinnumber=7
T 1000 3950 5 8 0 0 0 0 1
pinseq=13
T 1000 3950 5 8 0 1 0 0 1 
pinlabel=7
T 1000 3950 5 8 0 1 0 0 1 
pintype=pas
}
V 300 4200 50 3 0 0 0 -1 -1 0 -1 -1 -1 -1 -1
P 350 4200 1200 4200 1 0 1
{
T 1000 4250 5 8 1 1 0 0 1
pinnumber=19
T 1000 4250 5 8 0 0 0 0 1
pinseq=14
T 1000 4250 5 8 0 1 0 0 1 
pinlabel=19
T 1000 4250 5 8 0 1 0 0 1 
pintype=pas
}
V 600 4500 50 3 0 0 0 -1 -1 0 -1 -1 -1 -1 -1
P 650 4500 1200 4500 1 0 1
{
T 1000 4550 5 8 1 1 0 0 1
pinnumber=6
T 1000 4550 5 8 0 0 0 0 1
pinseq=15
T 1000 4550 5 8 0 1 0 0 1 
pinlabel=6
T 1000 4550 5 8 0 1 0 0 1 
pintype=pas
}
V 300 4800 50 3 0 0 0 -1 -1 0 -1 -1 -1 -1 -1
P 350 4800 1200 4800 1 0 1
{
T 1000 4850 5 8 1 1 0 0 1
pinnumber=18
T 1000 4850 5 8 0 0 0 0 1
pinseq=16
T 1000 4850 5 8 0 1 0 0 1 
pinlabel=18
T 1000 4850 5 8 0 1 0 0 1 
pintype=pas
}
V 600 5100 50 3 0 0 0 -1 -1 0 -1 -1 -1 -1 -1
P 650 5100 1200 5100 1 0 1
{
T 1000 5150 5 8 1 1 0 0 1
pinnumber=5
T 1000 5150 5 8 0 0 0 0 1
pinseq=17
T 1000 5150 5 8 0 1 0 0 1 
pinlabel=5
T 1000 5150 5 8 0 1 0 0 1 
pintype=pas
}
V 300 5400 50 3 0 0 0 -1 -1 0 -1 -1 -1 -1 -1
P 350 5400 1200 5400 1 0 1
{
T 1000 5450 5 8 1 1 0 0 1
pinnumber=17
T 1000 5450 5 8 0 0 0 0 1
pinseq=18
T 1000 5450 5 8 0 1 0 0 1 
pinlabel=17
T 1000 5450 5 8 0 1 0 0 1 
pintype=pas
}
V 600 5700 50 3 0 0 0 -1 -1 0 -1 -1 -1 -1 -1
P 650 5700 1200 5700 1 0 1
{
T 1000 5750 5 8 1 1 0 0 1
pinnumber=4
T 1000 5750 5 8 0 0 0 0 1
pinseq=19
T 1000 5750 5 8 0 1 0 0 1 
pinlabel=4
T 1000 5750 5 8 0 1 0 0 1 
pintype=pas
}
V 300 6000 50 3 0 0 0 -1 -1 0 -1 -1 -1 -1 -1
P 350 6000 1200 6000 1 0 1
{
T 1000 6050 5 8 1 1 0 0 1
pinnumber=16
T 1000 6050 5 8 0 0 0 0 1
pinseq=20
T 1000 6050 5 8 0 1 0 0 1 
pinlabel=16
T 1000 6050 5 8 0 1 0 0 1 
pintype=pas
}
V 600 6300 50 3 0 0 0 -1 -1 0 -1 -1 -1 -1 -1
P 650 6300 1200 6300 1 0 1
{
T 1000 6350 5 8 1 1 0 0 1
pinnumber=3
T 1000 6350 5 8 0 0 0 0 1
pinseq=21
T 1000 6350 5 8 0 1 0 0 1 
pinlabel=3
T 1000 6350 5 8 0 1 0 0 1 
pintype=pas
}
V 300 6600 50 3 0 0 0 -1 -1 0 -1 -1 -1 -1 -1
P 350 6600 1200 6600 1 0 1
{
T 1000 6650 5 8 1 1 0 0 1
pinnumber=15
T 1000 6650 5 8 0 0 0 0 1
pinseq=22
T 1000 6650 5 8 0 1 0 0 1 
pinlabel=15
T 1000 6650 5 8 0 1 0 0 1 
pintype=pas
}
V 600 6900 50 3 0 0 0 -1 -1 0 -1 -1 -1 -1 -1
P 650 6900 1200 6900 1 0 1
{
T 1000 6950 5 8 1 1 0 0 1
pinnumber=2
T 1000 6950 5 8 0 0 0 0 1
pinseq=23
T 1000 6950 5 8 0 1 0 0 1 
pinlabel=2
T 1000 6950 5 8 0 1 0 0 1 
pintype=pas
}
V 300 7200 50 3 0 0 0 -1 -1 0 -1 -1 -1 -1 -1
P 350 7200 1200 7200 1 0 1
{
T 1000 7250 5 8 1 1 0 0 1
pinnumber=14
T 1000 7250 5 8 0 0 0 0 1
pinseq=24
T 1000 7250 5 8 0 1 0 0 1 
pinlabel=14
T 1000 7250 5 8 0 1 0 0 1 
pintype=pas
}
V 600 7500 50 3 0 0 0 -1 -1 0 -1 -1 -1 -1 -1
P 650 7500 1200 7500 1 0 1
{
T 1000 7550 5 8 1 1 0 0 1
pinnumber=1
T 1000 7550 5 8 0 0 0 0 1
pinseq=25
T 1000 7550 5 8 0 1 0 0 1 
pinlabel=1
T 1000 7550 5 8 0 1 0 0 1 
pintype=pas
}
L 39 234 703 8 3 0 0 0 -1 -1
L 701 7832 38 7566 3 0 0 0 -1 -1
T 100 8000 8 10 1 1 0 0 1
refdes=CONN?
