v 20031231 2
T 1600 6250 5 10 0 0 0 0 1
device=DIN41617C31
V 900 200 50 3 0 0 0 -1 -1 0 -1 -1 -1 -1 -1
P 950 200 1500 200 1 0 1
{
T 1300 250 5 8 1 1 0 0 1
pinnumber=31
T 1300 250 5 8 0 0 0 0 1
pinseq=31
T 1300 250 5 8 0 1 0 0 1 
pinlabel=31
T 1300 250 5 8 0 1 0 0 1 
pintype=pas
}
V 600 400 50 3 0 0 0 -1 -1 0 -1 -1 -1 -1 -1
V 900 600 50 3 0 0 0 -1 -1 0 -1 -1 -1 -1 -1
P 950 600 1500 600 1 0 1
{
T 1300 650 5 8 1 1 0 0 1
pinnumber=29
T 1300 650 5 8 0 0 0 0 1
pinseq=29
T 1300 650 5 8 0 1 0 0 1 
pinlabel=29
T 1300 650 5 8 0 1 0 0 1 
pintype=pas
}
V 600 800 50 3 0 0 0 -1 -1 0 -1 -1 -1 -1 -1
V 900 1000 50 3 0 0 0 -1 -1 0 -1 -1 -1 -1 -1
P 950 1000 1500 1000 1 0 1
{
T 1300 1050 5 8 1 1 0 0 1
pinnumber=27
T 1300 1050 5 8 0 0 0 0 1
pinseq=27
T 1300 1050 5 8 0 1 0 0 1 
pinlabel=27
T 1300 1050 5 8 0 1 0 0 1 
pintype=pas
}
V 600 1200 50 3 0 0 0 -1 -1 0 -1 -1 -1 -1 -1
V 900 1400 50 3 0 0 0 -1 -1 0 -1 -1 -1 -1 -1
P 950 1400 1500 1400 1 0 1
{
T 1300 1450 5 8 1 1 0 0 1
pinnumber=25
T 1300 1450 5 8 0 0 0 0 1
pinseq=25
T 1300 1450 5 8 0 1 0 0 1 
pinlabel=25
T 1300 1450 5 8 0 1 0 0 1 
pintype=pas
}
V 600 1600 50 3 0 0 0 -1 -1 0 -1 -1 -1 -1 -1
V 900 1800 50 3 0 0 0 -1 -1 0 -1 -1 -1 -1 -1
P 950 1800 1500 1800 1 0 1
{
T 1300 1850 5 8 1 1 0 0 1
pinnumber=23
T 1300 1850 5 8 0 0 0 0 1
pinseq=23
T 1300 1850 5 8 0 1 0 0 1 
pinlabel=23
T 1300 1850 5 8 0 1 0 0 1 
pintype=pas
}
V 600 2000 50 3 0 0 0 -1 -1 0 -1 -1 -1 -1 -1
V 900 2200 50 3 0 0 0 -1 -1 0 -1 -1 -1 -1 -1
P 950 2200 1500 2200 1 0 1
{
T 1300 2250 5 8 1 1 0 0 1
pinnumber=21
T 1300 2250 5 8 0 0 0 0 1
pinseq=21
T 1300 2250 5 8 0 1 0 0 1 
pinlabel=21
T 1300 2250 5 8 0 1 0 0 1 
pintype=pas
}
V 600 2400 50 3 0 0 0 -1 -1 0 -1 -1 -1 -1 -1
V 900 2600 50 3 0 0 0 -1 -1 0 -1 -1 -1 -1 -1
P 950 2600 1500 2600 1 0 1
{
T 1300 2650 5 8 1 1 0 0 1
pinnumber=19
T 1300 2650 5 8 0 0 0 0 1
pinseq=19
T 1300 2650 5 8 0 1 0 0 1 
pinlabel=19
T 1300 2650 5 8 0 1 0 0 1 
pintype=pas
}
L 1200 6400 300 6400 3 0 0 0 -1 -1
P 550 400 0 400 1 0 1
{
T 50 450 5 8 1 1 0 0 1
pinnumber=30
T 50 450 5 8 0 0 0 0 1
pinseq=30
T 50 450 5 8 0 1 0 0 1 
pinlabel=30
T 50 450 5 8 0 1 0 0 1 
pintype=pas
}
P 550 800 0 800 1 0 1
{
T 50 850 5 8 1 1 0 0 1
pinnumber=28
T 50 850 5 8 0 0 0 0 1
pinseq=28
T 50 850 5 8 0 1 0 0 1 
pinlabel=28
T 50 850 5 8 0 1 0 0 1 
pintype=pas
}
P 550 1200 0 1200 1 0 1
{
T 50 1250 5 8 1 1 0 0 1
pinnumber=26
T 50 1250 5 8 0 0 0 0 1
pinseq=26
T 50 1250 5 8 0 1 0 0 1 
pinlabel=26
T 50 1250 5 8 0 1 0 0 1 
pintype=pas
}
P 550 1600 0 1600 1 0 1
{
T 50 1650 5 8 1 1 0 0 1
pinnumber=24
T 50 1650 5 8 0 0 0 0 1
pinseq=24
T 50 1650 5 8 0 1 0 0 1 
pinlabel=24
T 50 1650 5 8 0 1 0 0 1 
pintype=pas
}
P 550 2000 0 2000 1 0 1
{
T 50 2050 5 8 1 1 0 0 1
pinnumber=22
T 50 2050 5 8 0 0 0 0 1
pinseq=22
T 50 2050 5 8 0 1 0 0 1 
pinlabel=22
T 50 2050 5 8 0 1 0 0 1 
pintype=pas
}
P 550 2400 0 2400 1 0 1
{
T 50 2450 5 8 1 1 0 0 1
pinnumber=20
T 50 2450 5 8 0 0 0 0 1
pinseq=20
T 50 2450 5 8 0 1 0 0 1 
pinlabel=20
T 50 2450 5 8 0 1 0 0 1 
pintype=pas
}
L 300 0 1200 0 3 0 0 0 -1 -1
L 1200 0 1200 6400 3 0 0 0 -1 -1
L 300 6400 300 0 3 0 0 0 -1 -1
T 400 6500 8 10 1 1 0 0 1
refdes=CONN?
V 600 2800 50 3 0 0 0 -1 -1 0 -1 -1 -1 -1 -1
V 600 3200 50 3 0 0 0 -1 -1 0 -1 -1 -1 -1 -1
V 600 3600 50 3 0 0 0 -1 -1 0 -1 -1 -1 -1 -1
P 550 2800 0 2800 1 0 1
{
T 50 2850 5 8 1 1 0 0 1
pinnumber=18
T 50 2850 5 8 0 0 0 0 1
pinseq=18
T 50 2850 5 8 0 1 0 0 1 
pinlabel=18
T 50 2850 5 8 0 1 0 0 1 
pintype=pas
}
P 550 3200 0 3200 1 0 1
{
T 50 3250 5 8 1 1 0 0 1
pinnumber=16
T 50 3250 5 8 0 0 0 0 1
pinseq=16
T 50 3250 5 8 0 1 0 0 1 
pinlabel=16
T 50 3250 5 8 0 1 0 0 1 
pintype=pas
}
P 550 3600 0 3600 1 0 1
{
T 50 3650 5 8 1 1 0 0 1
pinnumber=14
T 50 3650 5 8 0 0 0 0 1
pinseq=14
T 50 3650 5 8 0 1 0 0 1 
pinlabel=14
T 50 3650 5 8 0 1 0 0 1 
pintype=pas
}
V 600 4000 50 3 0 0 0 -1 -1 0 -1 -1 -1 -1 -1
V 600 4400 50 3 0 0 0 -1 -1 0 -1 -1 -1 -1 -1
V 600 4800 50 3 0 0 0 -1 -1 0 -1 -1 -1 -1 -1
V 600 5200 50 3 0 0 0 -1 -1 0 -1 -1 -1 -1 -1
V 600 5600 50 3 0 0 0 -1 -1 0 -1 -1 -1 -1 -1
V 600 6000 50 3 0 0 0 -1 -1 0 -1 -1 -1 -1 -1
P 550 4000 0 4000 1 0 1
{
T 50 4050 5 8 1 1 0 0 1
pinnumber=12
T 50 4050 5 8 0 0 0 0 1
pinseq=12
T 50 4050 5 8 0 1 0 0 1 
pinlabel=12
T 50 4050 5 8 0 1 0 0 1 
pintype=pas
}
P 550 4400 0 4400 1 0 1
{
T 50 4450 5 8 1 1 0 0 1
pinnumber=10
T 50 4450 5 8 0 0 0 0 1
pinseq=10
T 50 4450 5 8 0 1 0 0 1 
pinlabel=10
T 50 4450 5 8 0 1 0 0 1 
pintype=pas
}
P 550 4800 0 4800 1 0 1
{
T 50 4850 5 8 1 1 0 0 1
pinnumber=8
T 50 4850 5 8 0 0 0 0 1
pinseq=8
T 50 4850 5 8 0 1 0 0 1 
pinlabel=8
T 50 4850 5 8 0 1 0 0 1 
pintype=pas
}
P 550 5200 0 5200 1 0 1
{
T 50 5250 5 8 1 1 0 0 1
pinnumber=6
T 50 5250 5 8 0 0 0 0 1
pinseq=6
T 50 5250 5 8 0 1 0 0 1 
pinlabel=6
T 50 5250 5 8 0 1 0 0 1 
pintype=pas
}
P 550 5600 0 5600 1 0 1
{
T 50 5650 5 8 1 1 0 0 1
pinnumber=4
T 50 5650 5 8 0 0 0 0 1
pinseq=4
T 50 5650 5 8 0 1 0 0 1 
pinlabel=4
T 50 5650 5 8 0 1 0 0 1 
pintype=pas
}
P 550 6000 0 6000 1 0 1
{
T 50 6050 5 8 1 1 0 0 1
pinnumber=2
T 50 6050 5 8 0 0 0 0 1
pinseq=2
T 50 6050 5 8 0 1 0 0 1 
pinlabel=2
T 50 6050 5 8 0 1 0 0 1 
pintype=pas
}
V 900 3800 50 3 0 0 0 -1 -1 0 -1 -1 -1 -1 -1
P 950 3800 1500 3800 1 0 1
{
T 1300 3850 5 8 1 1 0 0 1
pinnumber=13
T 1300 3850 5 8 0 0 0 0 1
pinseq=13
T 1300 3850 5 8 0 1 0 0 1 
pinlabel=13
T 1300 3850 5 8 0 1 0 0 1 
pintype=pas
}
V 900 4200 50 3 0 0 0 -1 -1 0 -1 -1 -1 -1 -1
P 950 4200 1500 4200 1 0 1
{
T 1300 4250 5 8 1 1 0 0 1
pinnumber=11
T 1300 4250 5 8 0 0 0 0 1
pinseq=11
T 1300 4250 5 8 0 1 0 0 1 
pinlabel=11
T 1300 4250 5 8 0 1 0 0 1 
pintype=pas
}
V 900 4600 50 3 0 0 0 -1 -1 0 -1 -1 -1 -1 -1
P 950 4600 1500 4600 1 0 1
{
T 1300 4650 5 8 1 1 0 0 1
pinnumber=9
T 1300 4650 5 8 0 0 0 0 1
pinseq=9
T 1300 4650 5 8 0 1 0 0 1 
pinlabel=9
T 1300 4650 5 8 0 1 0 0 1 
pintype=pas
}
V 900 5000 50 3 0 0 0 -1 -1 0 -1 -1 -1 -1 -1
P 950 5000 1500 5000 1 0 1
{
T 1300 5050 5 8 1 1 0 0 1
pinnumber=7
T 1300 5050 5 8 0 0 0 0 1
pinseq=7
T 1300 5050 5 8 0 1 0 0 1 
pinlabel=7
T 1300 5050 5 8 0 1 0 0 1 
pintype=pas
}
V 900 5400 50 3 0 0 0 -1 -1 0 -1 -1 -1 -1 -1
P 950 5400 1500 5400 1 0 1
{
T 1300 5450 5 8 1 1 0 0 1
pinnumber=5
T 1300 5450 5 8 0 0 0 0 1
pinseq=5
T 1300 5450 5 8 0 1 0 0 1 
pinlabel=5
T 1300 5450 5 8 0 1 0 0 1 
pintype=pas
}
V 900 5800 50 3 0 0 0 -1 -1 0 -1 -1 -1 -1 -1
P 950 5800 1500 5800 1 0 1
{
T 1300 5850 5 8 1 1 0 0 1
pinnumber=3
T 1300 5850 5 8 0 0 0 0 1
pinseq=3
T 1300 5850 5 8 0 1 0 0 1 
pinlabel=3
T 1300 5850 5 8 0 1 0 0 1 
pintype=pas
}
V 900 6200 50 3 0 0 0 -1 -1 0 -1 -1 -1 -1 -1
P 950 6200 1500 6200 1 0 1
{
T 1300 6250 5 8 1 1 0 0 1
pinnumber=1
T 1300 6250 5 8 0 0 0 0 1
pinseq=1
T 1300 6250 5 8 0 1 0 0 1 
pinlabel=1
T 1300 6250 5 8 0 1 0 0 1 
pintype=pas
}
V 900 3000 50 3 0 0 0 -1 -1 0 -1 -1 -1 -1 -1
P 950 3000 1500 3000 1 0 1
{
T 1300 3050 5 8 1 1 0 0 1
pinnumber=17
T 1300 3050 5 8 0 0 0 0 1
pinseq=17
T 1300 3050 5 8 0 1 0 0 1 
pinlabel=17
T 1300 3050 5 8 0 1 0 0 1 
pintype=pas
}
V 900 3400 50 3 0 0 0 -1 -1 0 -1 -1 -1 -1 -1
P 950 3400 1500 3400 1 0 1
{
T 1300 3450 5 8 1 1 0 0 1
pinnumber=15
T 1300 3450 5 8 0 0 0 0 1
pinseq=15
T 1300 3450 5 8 0 1 0 0 1 
pinlabel=15
T 1300 3450 5 8 0 1 0 0 1 
pintype=pas
}
