v 20031231 2
P 1000 7400 1300 7400 1 0 1
{
T 1000 7400 5 10 1 1 0 0 1
pinnumber=2
T 1000 7400 5 10 0 1 0 0 1
pintype=pas
T 1000 7400 5 10 0 1 0 0 1
pinlabel=2
T 1000 7400 5 10 0 1 0 0 1
pinseq=2
}
V 800 7400 200 3 0 0 0 -1 -1 0 -1 -1 -1 -1 -1
P 1300 7700 500 7700 1 0 0
{
T 1000 7700 5 10 1 1 0 0 1
pinnumber=1
T 1300 7600 5 10 0 1 0 0 1
pintype=pas
T 1300 7700 5 10 0 1 0 0 1
pinlabel=1
T 1300 7700 5 10 0 1 0 0 1
pinseq=1
}
L 500 7700 200 7600 3 0 0 0 -1 -1
V 200 7400 200 3 0 0 0 -1 -1 0 -1 -1 -1 -1 -1
T 100 7800 8 10 1 1 0 0 1
refdes=J?
T 400 7900 8 10 0 0 0 0 1
footprint=header26
T 400 8100 8 10 0 0 0 0 1
numslots=0
T 400 8300 8 10 0 0 0 0 1
device=header26
P 1000 6800 1300 6800 1 0 1
{
T 1000 6800 5 10 1 1 0 0 1
pinnumber=4
T 1000 6800 5 10 0 1 0 0 1
pintype=pas
T 1000 6800 5 10 0 1 0 0 1
pinlabel=4
T 1000 6800 5 10 0 1 0 0 1
pinseq=4
}
V 800 6800 200 3 0 0 0 -1 -1 0 -1 -1 -1 -1 -1
P 1300 7100 500 7100 1 0 0
{
T 1000 7100 5 10 1 1 0 0 1
pinnumber=3
T 1300 7100 5 10 0 1 0 0 1
pintype=pas
T 1300 7100 5 10 0 1 0 0 1
pinlabel=3
T 1300 7100 5 10 0 1 0 0 1
pinseq=3
}
L 500 7100 200 7000 3 0 0 0 -1 -1
V 200 6800 200 3 0 0 0 -1 -1 0 -1 -1 -1 -1 -1
P 1000 6200 1300 6200 1 0 1
{
T 1000 6200 5 10 1 1 0 0 1
pinnumber=6
T 1000 6200 5 10 0 1 0 0 1
pintype=pas
T 1000 6200 5 10 0 1 0 0 1
pinlabel=6
T 1000 6200 5 10 0 1 0 0 1
pinseq=6
}
V 800 6200 200 3 0 0 0 -1 -1 0 -1 -1 -1 -1 -1
P 1300 6500 500 6500 1 0 0
{
T 1000 6500 5 10 1 1 0 0 1
pinnumber=5
T 1300 6500 5 10 0 1 0 0 1
pintype=pas
T 1300 6500 5 10 0 1 0 0 1
pinlabel=5
T 1300 6500 5 10 0 1 0 0 1
pinseq=5
}
L 500 6500 200 6400 3 0 0 0 -1 -1
V 200 6200 200 3 0 0 0 -1 -1 0 -1 -1 -1 -1 -1
P 1000 5600 1300 5600 1 0 1
{
T 1000 5600 5 10 1 1 0 0 1
pinnumber=8
T 1000 5600 5 10 0 1 0 0 1
pintype=pas
T 1000 5600 5 10 0 1 0 0 1
pinlabel=8
T 1000 5600 5 10 0 1 0 0 1
pinseq=8
}
V 800 5600 200 3 0 0 0 -1 -1 0 -1 -1 -1 -1 -1
P 1300 5900 500 5900 1 0 0
{
T 1000 5900 5 10 1 1 0 0 1
pinnumber=7
T 1300 5900 5 10 0 1 0 0 1
pintype=pas
T 1300 5900 5 10 0 1 0 0 1
pinlabel=7
T 1300 5900 5 10 0 1 0 0 1
pinseq=7
}
L 500 5900 200 5800 3 0 0 0 -1 -1
V 200 5600 200 3 0 0 0 -1 -1 0 -1 -1 -1 -1 -1
P 1000 5000 1300 5000 1 0 1
{
T 1000 5000 5 10 1 1 0 0 1
pinnumber=10
T 1000 5000 5 10 0 1 0 0 1
pintype=pas
T 1000 5000 5 10 0 1 0 0 1
pinlabel=10
T 1000 5000 5 10 0 1 0 0 1
pinseq=10
}
V 800 5000 200 3 0 0 0 -1 -1 0 -1 -1 -1 -1 -1
P 1300 5300 500 5300 1 0 0
{
T 1000 5300 5 10 1 1 0 0 1
pinnumber=9
T 1300 5300 5 10 0 1 0 0 1
pintype=pas
T 1300 5300 5 10 0 1 0 0 1
pinlabel=9
T 1300 5300 5 10 0 1 0 0 1
pinseq=9
}
L 500 5300 200 5200 3 0 0 0 -1 -1
V 200 5000 200 3 0 0 0 -1 -1 0 -1 -1 -1 -1 -1
P 1000 4400 1300 4400 1 0 1
{
T 1000 4400 5 10 1 1 0 0 1
pinnumber=12
T 1000 4400 5 10 0 1 0 0 1
pintype=pas
T 1000 4400 5 10 0 1 0 0 1
pinlabel=12
T 1000 4400 5 10 0 1 0 0 1
pinseq=12
}
V 800 4400 200 3 0 0 0 -1 -1 0 -1 -1 -1 -1 -1
P 1300 4700 500 4700 1 0 0
{
T 1000 4700 5 10 1 1 0 0 1
pinnumber=11
T 1300 4700 5 10 0 1 0 0 1
pintype=pas
T 1300 4700 5 10 0 1 0 0 1
pinlabel=11
T 1300 4700 5 10 0 1 0 0 1
pinseq=11
}
L 500 4700 200 4600 3 0 0 0 -1 -1
V 200 4400 200 3 0 0 0 -1 -1 0 -1 -1 -1 -1 -1
P 1000 3800 1300 3800 1 0 1
{
T 1000 3800 5 10 1 1 0 0 1
pinnumber=14
T 1000 3800 5 10 0 1 0 0 1
pintype=pas
T 1000 3800 5 10 0 1 0 0 1
pinlabel=14
T 1000 3800 5 10 0 1 0 0 1
pinseq=14
}
V 800 3800 200 3 0 0 0 -1 -1 0 -1 -1 -1 -1 -1
P 1300 4100 500 4100 1 0 0
{
T 1000 4100 5 10 1 1 0 0 1
pinnumber=13
T 1300 4100 5 10 0 1 0 0 1
pintype=pas
T 1300 4100 5 10 0 1 0 0 1
pinlabel=13
T 1300 4100 5 10 0 1 0 0 1
pinseq=13
}
L 500 4100 200 4000 3 0 0 0 -1 -1
V 200 3800 200 3 0 0 0 -1 -1 0 -1 -1 -1 -1 -1
P 1000 3200 1300 3200 1 0 1
{
T 1000 3200 5 10 1 1 0 0 1
pinnumber=16
T 1000 3200 5 10 0 1 0 0 1
pintype=pas
T 1000 3200 5 10 0 1 0 0 1
pinlabel=16
T 1000 3200 5 10 0 1 0 0 1
pinseq=16
}
V 800 3200 200 3 0 0 0 -1 -1 0 -1 -1 -1 -1 -1
P 1300 3500 500 3500 1 0 0
{
T 1000 3500 5 10 1 1 0 0 1
pinnumber=15
T 1300 3500 5 10 0 1 0 0 1
pintype=pas
T 1300 3500 5 10 0 1 0 0 1
pinlabel=15
T 1300 3500 5 10 0 1 0 0 1
pinseq=15
}
L 500 3500 200 3400 3 0 0 0 -1 -1
V 200 3200 200 3 0 0 0 -1 -1 0 -1 -1 -1 -1 -1
P 1000 2600 1300 2600 1 0 1
{
T 1000 2600 5 10 1 1 0 0 1
pinnumber=18
T 1000 2600 5 10 0 1 0 0 1
pintype=pas
T 1000 2600 5 10 0 1 0 0 1
pinlabel=18
T 1000 2600 5 10 0 1 0 0 1
pinseq=18
}
V 800 2600 200 3 0 0 0 -1 -1 0 -1 -1 -1 -1 -1
V 200 2600 200 3 0 0 0 -1 -1 0 -1 -1 -1 -1 -1
P 1000 2000 1300 2000 1 0 1
{
T 1000 2000 5 10 1 1 0 0 1
pinnumber=20
T 1000 2000 5 10 0 1 0 0 1
pintype=pas
T 1000 2000 5 10 0 1 0 0 1
pinlabel=20
T 1000 2000 5 10 0 1 0 0 1
pinseq=20
}
V 800 2000 200 3 0 0 0 -1 -1 0 -1 -1 -1 -1 -1
P 1300 2300 500 2300 1 0 0
{
T 1000 2300 5 10 1 1 0 0 1
pinnumber=19
T 1300 2300 5 10 0 1 0 0 1
pintype=pas
T 1300 2300 5 10 0 1 0 0 1
pinlabel=19
T 1300 2300 5 10 0 1 0 0 1
pinseq=19
}
L 500 2300 200 2200 3 0 0 0 -1 -1
V 200 2000 200 3 0 0 0 -1 -1 0 -1 -1 -1 -1 -1
P 1000 1400 1300 1400 1 0 1
{
T 1000 1400 5 10 1 1 0 0 1
pinnumber=22
T 1000 1400 5 10 0 1 0 0 1
pintype=pas
T 1000 1400 5 10 0 1 0 0 1
pinlabel=22
T 1000 1400 5 10 0 1 0 0 1
pinseq=22
}
V 800 1400 200 3 0 0 0 -1 -1 0 -1 -1 -1 -1 -1
P 1300 1700 500 1700 1 0 0
{
T 1000 1700 5 10 1 1 0 0 1
pinnumber=21
T 1300 1700 5 10 0 1 0 0 1
pintype=pas
T 1300 1700 5 10 0 1 0 0 1
pinlabel=21
T 1300 1700 5 10 0 1 0 0 1
pinseq=21
}
L 500 1700 200 1600 3 0 0 0 -1 -1
V 200 1400 200 3 0 0 0 -1 -1 0 -1 -1 -1 -1 -1
P 1000 800 1300 800 1 0 1
{
T 1000 800 5 10 1 1 0 0 1
pinnumber=24
T 1000 800 5 10 0 1 0 0 1
pintype=pas
T 1000 800 5 10 0 1 0 0 1
pinlabel=24
T 1000 800 5 10 0 1 0 0 1
pinseq=24
}
V 800 800 200 3 0 0 0 -1 -1 0 -1 -1 -1 -1 -1
P 1300 1100 500 1100 1 0 0
{
T 1000 1100 5 10 1 1 0 0 1
pinnumber=23
T 1300 1100 5 10 0 1 0 0 1
pintype=pas
T 1300 1100 5 10 0 1 0 0 1
pinlabel=23
T 1300 1100 5 10 0 1 0 0 1
pinseq=23
}
L 500 1100 200 1000 3 0 0 0 -1 -1
V 200 800 200 3 0 0 0 -1 -1 0 -1 -1 -1 -1 -1
P 1000 200 1300 200 1 0 1
{
T 1000 200 5 10 1 1 0 0 1
pinnumber=26
T 1000 200 5 10 0 1 0 0 1
pintype=pas
T 1000 200 5 10 0 1 0 0 1
pinlabel=26
T 1000 200 5 10 0 1 0 0 1
pinseq=26
}
V 800 200 200 3 0 0 0 -1 -1 0 -1 -1 -1 -1 -1
P 1300 500 500 500 1 0 0
{
T 1000 500 5 10 1 1 0 0 1
pinnumber=25
T 1300 500 5 10 0 1 0 0 1
pintype=pas
T 1300 500 5 10 0 1 0 0 1
pinlabel=25
T 1300 500 5 10 0 1 0 0 1
pinseq=25
}
L 500 500 200 400 3 0 0 0 -1 -1
V 200 200 200 3 0 0 0 -1 -1 0 -1 -1 -1 -1 -1
P 1300 2900 500 2900 1 0 0
{
T 1000 2900 5 10 1 1 0 0 1
pinnumber=17
T 1300 2900 5 10 0 1 0 0 1
pintype=pas
T 1300 2900 5 10 0 1 0 0 1
pinlabel=17
T 1300 2900 5 10 0 1 0 0 1
pinseq=17
}
L 500 2900 200 2800 3 0 0 0 -1 -1
