v 20031231 2
P 0 9800 300 9800 1 0 0
{
T 150 9850 5 8 1 1 0 0 1
pinnumber=1
T 150 9850 9 8 0 1 0 0 1
pinlabel=1
T 150 9850 5 8 0 0 0 0 1
pinseq=1
T 150 9850 5 8 0 0 0 0 1
pintype=pas
}
P 1100 9800 1400 9800 1 0 1
{
T 1200 9850 5 8 1 1 0 0 1
pinnumber=2
T 1200 9850 9 8 0 1 0 0 1
pinlabel=2
T 1200 9850 5 8 0 0 0 0 1
pinseq=2
T 1200 9850 5 8 0 0 0 0 1
pintype=pas
}
P 0 9400 300 9400 1 0 0
{
T 100 9450 5 8 1 1 0 0 1
pinnumber=3
T 100 9450 9 8 0 1 0 0 1
pinlabel=3
T 100 9450 5 8 0 0 0 0 1
pinseq=3
T 100 9450 5 8 0 0 0 0 1
pintype=pas
}
P 1100 9400 1400 9400 1 0 1
{
T 1200 9450 5 8 1 1 0 0 1
pinnumber=4
T 1200 9450 9 8 0 1 0 0 1
pinlabel=4
T 1200 9450 5 8 0 0 0 0 1
pinseq=4
T 1200 9450 5 8 0 0 0 0 1
pintype=pas
}
P 0 9000 300 9000 1 0 0
{
T 100 9050 5 8 1 1 0 0 1
pinnumber=5
T 100 9050 9 8 0 1 0 0 1
pinlabel=5
T 100 9050 5 8 0 0 0 0 1
pinseq=5
T 100 9050 5 8 0 0 0 0 1
pintype=pas
}
P 1100 9000 1400 9000 1 0 1
{
T 1200 9050 5 8 1 1 0 0 1
pinnumber=6
T 1200 9050 9 8 0 1 0 0 1
pinlabel=6
T 1200 9050 5 8 0 0 0 0 1
pinseq=6
T 1200 9050 5 8 0 0 0 0 1
pintype=pas
}
P 0 8600 300 8600 1 0 0
{
T 100 8650 5 8 1 1 0 0 1
pinnumber=7
T 100 8650 9 8 0 1 0 0 1
pinlabel=7
T 100 8650 5 8 0 0 0 0 1
pinseq=7
T 100 8650 5 8 0 0 0 0 1
pintype=pas
}
P 1100 8600 1400 8600 1 0 1
{
T 1200 8650 5 8 1 1 0 0 1
pinnumber=8
T 1200 8650 9 8 0 1 0 0 1
pinlabel=8
T 1200 8650 5 8 0 0 0 0 1
pinseq=8
T 1200 8650 5 8 0 0 0 0 1
pintype=pas
}
P 0 8200 300 8200 1 0 0
{
T 100 8250 5 8 1 1 0 0 1
pinnumber=9
T 100 8250 9 8 0 1 0 0 1
pinlabel=9
T 100 8250 5 8 0 0 0 0 1
pinseq=9
T 100 8250 5 8 0 0 0 0 1
pintype=pas
}
P 1100 8200 1400 8200 1 0 1
{
T 1200 8250 5 8 1 1 0 0 1
pinnumber=10
T 1200 8250 9 8 0 1 0 0 1
pinlabel=10
T 1200 8250 5 8 0 0 0 0 1
pinseq=10
T 1200 8250 5 8 0 0 0 0 1
pintype=pas
}
P 0 7800 300 7800 1 0 0
{
T 100 7850 5 8 1 1 0 0 1
pinnumber=11
T 100 7850 9 8 0 1 0 0 1
pinlabel=11
T 100 7850 5 8 0 0 0 0 1
pinseq=11
T 100 7850 5 8 0 0 0 0 1
pintype=pas
}
P 1100 7800 1400 7800 1 0 1
{
T 1200 7850 5 8 1 1 0 0 1
pinnumber=12
T 1200 7850 9 8 0 1 0 0 1
pinlabel=12
T 1200 7850 5 8 0 0 0 0 1
pinseq=12
T 1200 7850 5 8 0 0 0 0 1
pintype=pas
}
P 0 7400 300 7400 1 0 0
{
T 100 7450 5 8 1 1 0 0 1
pinnumber=13
T 100 7450 9 8 0 1 0 0 1
pinlabel=13
T 100 7450 5 8 0 0 0 0 1
pinseq=13
T 100 7450 5 8 0 0 0 0 1
pintype=pas
}
P 1100 7400 1400 7400 1 0 1
{
T 1200 7450 5 8 1 1 0 0 1
pinnumber=14
T 1200 7450 9 8 0 1 0 0 1
pinlabel=14
T 1200 7450 5 8 0 0 0 0 1
pinseq=14
T 1200 7450 5 8 0 0 0 0 1
pintype=pas
}
P 0 7000 300 7000 1 0 0
{
T 100 7050 5 8 1 1 0 0 1
pinnumber=15
T 100 7050 9 8 0 1 0 0 1
pinlabel=15
T 100 7050 5 8 0 0 0 0 1
pinseq=15
T 100 7050 5 8 0 0 0 0 1
pintype=pas
}
P 1100 7000 1400 7000 1 0 1
{
T 1200 7050 5 8 1 1 0 0 1
pinnumber=16
T 1200 7050 9 8 0 1 0 0 1
pinlabel=16
T 1200 7050 5 8 0 0 0 0 1
pinseq=16
T 1200 7050 5 8 0 0 0 0 1
pintype=pas
}
P 0 6600 300 6600 1 0 0
{
T 100 6650 5 8 1 1 0 0 1
pinnumber=17
T 100 6650 9 8 0 1 0 0 1
pinlabel=17
T 100 6650 5 8 0 0 0 0 1
pinseq=17
T 100 6650 5 8 0 0 0 0 1
pintype=pas
}
P 1100 6600 1400 6600 1 0 1
{
T 1200 6650 5 8 1 1 0 0 1
pinnumber=18
T 1200 6650 9 8 0 1 0 0 1
pinlabel=18
T 1200 6650 5 8 0 0 0 0 1
pinseq=18
T 1200 6650 5 8 0 0 0 0 1
pintype=pas
}
P 0 6200 300 6200 1 0 0
{
T 100 6250 5 8 1 1 0 0 1
pinnumber=19
T 100 6250 9 8 0 1 0 0 1
pinlabel=19
T 100 6250 5 8 0 0 0 0 1
pinseq=19
T 100 6250 5 8 0 0 0 0 1
pintype=pas
}
P 1100 6200 1400 6200 1 0 1
{
T 1200 6250 5 8 1 1 0 0 1
pinnumber=20
T 1200 6250 9 8 0 1 0 0 1
pinlabel=20
T 1200 6250 5 8 0 0 0 0 1
pinseq=20
T 1200 6250 5 8 0 0 0 0 1
pintype=pas
}
P 0 5800 300 5800 1 0 0
{
T 100 5850 5 8 1 1 0 0 1
pinnumber=21
T 100 5850 9 8 0 1 0 0 1
pinlabel=21
T 100 5850 5 8 0 0 0 0 1
pinseq=21
T 100 5850 5 8 0 0 0 0 1
pintype=pas
}
P 1100 5800 1400 5800 1 0 1
{
T 1200 5850 5 8 1 1 0 0 1
pinnumber=22
T 1200 5850 9 8 0 1 0 0 1
pinlabel=22
T 1200 5850 5 8 0 0 0 0 1
pinseq=22
T 1200 5850 5 8 0 0 0 0 1
pintype=pas
}
P 0 5400 300 5400 1 0 0
{
T 50 5450 5 8 1 1 0 0 1
pinnumber=23
T 50 5450 9 8 0 1 0 0 1
pinlabel=23
T 50 5450 5 8 0 0 0 0 1
pinseq=23
T 50 5450 5 8 0 0 0 0 1
pintype=pas
}
P 1100 5400 1400 5400 1 0 1
{
T 1200 5450 5 8 1 1 0 0 1
pinnumber=24
T 1200 5450 9 8 0 1 0 0 1
pinlabel=24
T 1200 5450 5 8 0 0 0 0 1
pinseq=24
T 1200 5450 5 8 0 0 0 0 1
pintype=pas
}
P 0 5000 300 5000 1 0 0
{
T 50 5050 5 8 1 1 0 0 1
pinnumber=25
T 50 5050 9 8 0 1 0 0 1
pinlabel=25
T 50 5050 5 8 0 0 0 0 1
pinseq=25
T 50 5050 5 8 0 0 0 0 1
pintype=pas
}
P 1100 5000 1400 5000 1 0 1
{
T 1200 5050 5 8 1 1 0 0 1
pinnumber=26
T 1200 5050 9 8 0 1 0 0 1
pinlabel=26
T 1200 5050 5 8 0 0 0 0 1
pinseq=26
T 1200 5050 5 8 0 0 0 0 1
pintype=pas
}
P 0 4600 300 4600 1 0 0
{
T 50 4650 5 8 1 1 0 0 1
pinnumber=27
T 50 4650 9 8 0 1 0 0 1
pinlabel=27
T 50 4650 5 8 0 0 0 0 1
pinseq=27
T 50 4650 5 8 0 0 0 0 1
pintype=pas
}
P 1100 4600 1400 4600 1 0 1
{
T 1200 4650 5 8 1 1 0 0 1
pinnumber=28
T 1200 4650 9 8 0 1 0 0 1
pinlabel=28
T 1200 4650 5 8 0 0 0 0 1
pinseq=28
T 1200 4650 5 8 0 0 0 0 1
pintype=pas
}
P 0 4200 300 4200 1 0 0
{
T 50 4250 5 8 1 1 0 0 1
pinnumber=29
T 50 4250 9 8 0 1 0 0 1
pinlabel=29
T 50 4250 5 8 0 0 0 0 1
pinseq=29
T 50 4250 5 8 0 0 0 0 1
pintype=pas
}
P 1100 4200 1400 4200 1 0 1
{
T 1200 4250 5 8 1 1 0 0 1
pinnumber=30
T 1200 4250 9 8 0 1 0 0 1
pinlabel=30
T 1200 4250 5 8 0 0 0 0 1
pinseq=30
T 1200 4250 5 8 0 0 0 0 1
pintype=pas
}
P 0 3800 300 3800 1 0 0
{
T 50 3850 5 8 1 1 0 0 1
pinnumber=31
T 50 3850 9 8 0 1 0 0 1
pinlabel=31
T 50 3850 5 8 0 0 0 0 1
pinseq=31
T 50 3850 5 8 0 0 0 0 1
pintype=pas
}
P 1100 3800 1400 3800 1 0 1
{
T 1200 3850 5 8 1 1 0 0 1
pinnumber=32
T 1200 3850 9 8 0 1 0 0 1
pinlabel=32
T 1200 3850 5 8 0 0 0 0 1
pinseq=32
T 1200 3850 5 8 0 0 0 0 1
pintype=pas
}
P 0 3400 300 3400 1 0 0
{
T 50 3450 5 8 1 1 0 0 1
pinnumber=33
T 50 3450 9 8 0 1 0 0 1
pinlabel=33
T 50 3450 5 8 0 0 0 0 1
pinseq=33
T 50 3450 5 8 0 0 0 0 1
pintype=pas
}
P 1100 3400 1400 3400 1 0 1
{
T 1200 3450 5 8 1 1 0 0 1
pinnumber=34
T 1200 3450 9 8 0 1 0 0 1
pinlabel=34
T 1200 3450 5 8 0 0 0 0 1
pinseq=34
T 1200 3450 5 8 0 0 0 0 1
pintype=pas
}
P 0 3000 300 3000 1 0 0
{
T 50 3050 5 8 1 1 0 0 1
pinnumber=35
T 50 3050 9 8 0 1 0 0 1
pinlabel=35
T 50 3050 5 8 0 0 0 0 1
pinseq=35
T 50 3050 5 8 0 0 0 0 1
pintype=pas
}
P 1100 3000 1400 3000 1 0 1
{
T 1200 3050 5 8 1 1 0 0 1
pinnumber=36
T 1200 3050 9 8 0 1 0 0 1
pinlabel=36
T 1200 3050 5 8 0 0 0 0 1
pinseq=36
T 1200 3050 5 8 0 0 0 0 1
pintype=pas
}
P 0 2600 300 2600 1 0 0
{
T 50 2650 5 8 1 1 0 0 1
pinnumber=37
T 50 2650 9 8 0 1 0 0 1
pinlabel=37
T 50 2650 5 8 0 0 0 0 1
pinseq=37
T 50 2650 5 8 0 0 0 0 1
pintype=pas
}
P 1100 2600 1400 2600 1 0 1
{
T 1200 2650 5 8 1 1 0 0 1
pinnumber=38
T 1200 2650 9 8 0 1 0 0 1
pinlabel=38
T 1200 2650 5 8 0 0 0 0 1
pinseq=38
T 1200 2650 5 8 0 0 0 0 1
pintype=pas
}
P 0 2200 300 2200 1 0 0
{
T 50 2250 5 8 1 1 0 0 1
pinnumber=39
T 50 2250 9 8 0 1 0 0 1
pinlabel=39
T 50 2250 5 8 0 0 0 0 1
pinseq=39
T 50 2250 5 8 0 0 0 0 1
pintype=pas
}
P 1100 2200 1400 2200 1 0 1
{
T 1200 2250 5 8 1 1 0 0 1
pinnumber=40
T 1200 2250 9 8 0 1 0 0 1
pinlabel=40
T 1200 2250 5 8 0 0 0 0 1
pinseq=40
T 1200 2250 5 8 0 0 0 0 1
pintype=pas
}
P 0 1800 300 1800 1 0 0
{
T 50 1850 5 8 1 1 0 0 1
pinnumber=41
T 50 1850 9 8 0 1 0 0 1
pinlabel=41
T 50 1850 5 8 0 0 0 0 1
pinseq=41
T 50 1850 5 8 0 0 0 0 1
pintype=pas
}
P 1100 1800 1400 1800 1 0 1
{
T 1200 1850 5 8 1 1 0 0 1
pinnumber=42
T 1200 1850 9 8 0 1 0 0 1
pinlabel=42
T 1200 1850 5 8 0 0 0 0 1
pinseq=42
T 1200 1850 5 8 0 0 0 0 1
pintype=pas
}
P 0 1400 300 1400 1 0 0
{
T 50 1450 5 8 1 1 0 0 1
pinnumber=43
T 50 1450 9 8 0 1 0 0 1
pinlabel=43
T 50 1450 5 8 0 0 0 0 1
pinseq=43
T 50 1450 5 8 0 0 0 0 1
pintype=pas
}
P 1100 1400 1400 1400 1 0 1
{
T 1200 1450 5 8 1 1 0 0 1
pinnumber=44
T 1200 1450 9 8 0 1 0 0 1
pinlabel=44
T 1200 1450 5 8 0 0 0 0 1
pinseq=44
T 1200 1450 5 8 0 0 0 0 1
pintype=pas
}
P 0 1000 300 1000 1 0 0
{
T 50 1050 5 8 1 1 0 0 1
pinnumber=45
T 50 1050 9 8 0 1 0 0 1
pinlabel=45
T 50 1050 5 8 0 0 0 0 1
pinseq=45
T 50 1050 5 8 0 0 0 0 1
pintype=pas
}
P 1100 1000 1400 1000 1 0 1
{
T 1200 1050 5 8 1 1 0 0 1
pinnumber=46
T 1200 1050 9 8 0 1 0 0 1
pinlabel=46
T 1200 1050 5 8 0 0 0 0 1
pinseq=46
T 1200 1050 5 8 0 0 0 0 1
pintype=pas
}
P 0 600 300 600 1 0 0
{
T 50 650 5 8 1 1 0 0 1
pinnumber=47
T 50 650 9 8 0 1 0 0 1
pinlabel=47
T 50 650 5 8 0 0 0 0 1
pinseq=47
T 50 650 5 8 0 0 0 0 1
pintype=pas
}
P 1100 600 1400 600 1 0 1
{
T 1200 650 5 8 1 1 0 0 1
pinnumber=48
T 1200 650 9 8 0 1 0 0 1
pinlabel=48
T 1200 650 5 8 0 0 0 0 1
pinseq=48
T 1200 650 5 8 0 0 0 0 1
pintype=pas
}
P 0 200 300 200 1 0 0
{
T 50 250 5 8 1 1 0 0 1
pinnumber=49
T 50 250 9 8 0 1 0 0 1
pinlabel=49
T 50 250 5 8 0 0 0 0 1
pinseq=49
T 50 250 5 8 0 0 0 0 1
pintype=pas
}
P 1100 200 1400 200 1 0 1
{
T 1200 250 5 8 1 1 0 0 1
pinnumber=50
T 1200 250 9 8 0 1 0 0 1
pinlabel=50
T 1200 250 5 8 0 0 0 0 1
pinseq=50
T 1200 250 5 8 0 0 0 0 1
pintype=pas
}
L 300 9200 1100 9200 3 0 0 0 -1 -1
L 300 8800 1100 8800 3 0 0 0 -1 -1
L 300 9600 1100 9600 3 0 0 0 -1 -1
L 300 8400 1100 8400 3 0 0 0 -1 -1
L 300 7200 1100 7200 3 0 0 0 -1 -1
L 300 6800 1100 6800 3 0 0 0 -1 -1
L 300 7600 1100 7600 3 0 0 0 -1 -1
L 300 6400 1100 6400 3 0 0 0 -1 -1
L 300 8000 1100 8000 3 0 0 0 -1 -1
L 700 10000 700 6000 3 0 0 0 -1 -1
L 300 5200 1100 5200 3 0 0 0 -1 -1
L 300 4800 1100 4800 3 0 0 0 -1 -1
L 300 5600 1100 5600 3 0 0 0 -1 -1
L 300 4400 1100 4400 3 0 0 0 -1 -1
L 300 3200 1100 3200 3 0 0 0 -1 -1
L 300 2800 1100 2800 3 0 0 0 -1 -1
L 300 3600 1100 3600 3 0 0 0 -1 -1
L 300 2400 1100 2400 3 0 0 0 -1 -1
L 300 4000 1100 4000 3 0 0 0 -1 -1
L 700 6000 700 0 3 0 0 0 -1 -1
L 300 6000 1100 6000 3 0 0 0 -1 -1
L 300 1200 1100 1200 3 0 0 0 -1 -1
L 300 800 1100 800 3 0 0 0 -1 -1
L 300 1600 1100 1600 3 0 0 0 -1 -1
L 300 400 1100 400 3 0 0 0 -1 -1
L 300 2000 1100 2000 3 0 0 0 -1 -1
B 300 0 800 10000 3 0 0 0 -1 -1 0 -1 -1 -1 -1 -1
T 250 10700 8 10 0 0 0 0 1
device=HEADER50
T 250 10500 8 10 0 0 0 0 1
numslots=0
T 250 10300 8 10 0 1 0 0 1
description=Header 50 pins
T 600 10100 8 10 1 1 0 0 1
refdes=J?
