v 20060906 2
P 700 1000 900 1000 1 0 1
{
T 750 1050 5 8 0 1 0 0 1
pinnumber=1
T 750 900 5 8 0 0 0 0 1
pinseq=1
T 850 1050 9 9 1 1 0 0 1
pinlabel=P
T 700 1000 5 10 0 1 0 0 1
pintype=pas
}
P 700 200 900 200 1 0 1
{
T 750 250 5 8 0 1 0 0 1
pinnumber=2
T 750 100 5 8 0 0 0 0 1
pinseq=2
T 850 250 9 9 1 1 0 0 1
pinlabel=N
T 700 200 5 10 0 1 0 0 1
pintype=pas
}
L 300 0 700 0 3 0 0 0 -1 -1
L 300 1200 700 1200 3 0 0 0 -1 -1
L 700 0 700 1200 3 0 0 0 -1 -1
T 150 1250 8 10 1 1 0 0 1
refdes=CONN?
P 700 600 900 600 1 0 1
{
T 750 650 5 8 0 1 0 0 1
pinnumber=3
T 750 500 5 8 0 0 0 0 1
pinseq=3
T 850 650 9 9 1 1 0 0 1
pinlabel=E
T 700 600 5 10 0 1 0 0 1
pintype=pas
}
L 300 0 50 250 3 0 0 0 -1 -1
L 50 250 50 950 3 0 0 0 -1 -1
L 50 950 300 1200 3 0 0 0 -1 -1
L 150 600 350 600 3 50 0 0 -1 -1
L 400 1000 600 1000 3 50 0 0 -1 -1
L 400 200 600 200 3 50 0 0 -1 -1
L 600 1000 700 1000 3 0 0 2 10 10
L 600 200 700 200 3 0 0 2 10 10
L 350 600 700 600 3 0 0 2 10 10
T 150 2100 8 10 0 0 0 0 1
device=MAINS_ENTRY
T 150 1900 8 10 0 0 0 0 1
description=equipment mains entry socket, IEC, female
T 150 1700 8 10 0 0 0 0 1
numslots=0
T 150 1500 8 10 0 0 0 0 1
footprint=none
T 150 2300 8 10 0 0 0 0 1
symversion=1.0
