v 20031231 2
P 1200 800 1400 800 1 0 1
{
T 1300 850 5 8 1 1 0 0 1
pinnumber=1
T 1300 850 5 8 0 0 0 0 1
pinseq=1
T 1300 850 5 8 0 1 0 0 1 
pinlabel=1
T 1300 850 5 8 0 1 0 0 1 
pintype=pas
}
P 1200 200 1400 200 1 0 1
{
T 1300 250 5 8 1 1 0 0 1
pinnumber=2
T 1300 250 5 8 0 0 0 0 1
pinseq=2
T 1300 250 5 8 0 1 0 0 1 
pinlabel=2
T 1300 250 5 8 0 1 0 0 1 
pintype=pas
}
A 550 500 500 270 180 3 0 0 0 -1 -1
L 550 1000 400 1000 3 0 0 0 -1 -1
L 550 0 400 0 3 0 0 0 -1 -1
L 400 1000 400 0 3 0 0 0 -1 -1
L 400 750 0 750 3 0 0 0 -1 -1
L 400 250 0 250 3 0 0 0 -1 -1
L 1200 800 950 800 3 0 0 0 -1 -1
L 1200 200 950 200 3 0 0 0 -1 -1
T 400 1100 8 10 1 1 0 0 1
refdes=CONN?
P 1200 500 1400 500 1 0 1
{
T 1300 550 5 8 1 1 0 0 1
pinnumber=3
T 1300 550 5 8 0 0 0 0 1
pinseq=3
T 1300 550 5 8 0 1 0 0 1 
pinlabel=3
T 1300 550 5 8 0 1 0 0 1 
pintype=pas
}
L 1050 500 1200 500 3 0 0 0 -1 -1
T 400 1300 8 10 0 0 0 0 1
device=MAINS_CONNECTOR
