v 20050820 2
L 200 400 700 0 3 0 0 0 -1 -1
T 200 700 5 10 0 0 0 0 1
device=VARIABLE_CAPACITOR
L 700 0 600 0 3 0 0 0 -1 -1
L 700 0 700 100 3 0 0 0 -1 -1
P 0 200 200 200 1 0 0
{
T 150 250 5 8 0 1 0 6 1
pinnumber=1
T 150 150 5 8 0 1 0 8 1
pinseq=1
T 200 200 9 8 0 1 0 0 1
pinlabel=1
T 200 200 5 8 0 1 0 2 1
pintype=pas
}
P 900 200 700 200 1 0 0
{
T 750 250 5 8 0 1 0 0 1
pinnumber=2
T 750 150 5 8 0 1 0 2 1
pinseq=2
T 700 200 9 8 0 1 0 6 1
pinlabel=2
T 700 200 5 8 0 1 0 8 1
pintype=pas
}
L 400 400 400 0 3 0 0 0 -1 -1
L 500 400 500 0 3 0 0 0 -1 -1
L 700 200 500 200 3 0 0 0 -1 -1
L 400 200 200 200 3 0 0 0 -1 -1
T 200 500 8 10 1 1 0 0 1
refdes=C?
T 200 1300 5 10 0 0 0 0 1
description=variable capacitor
T 200 1100 5 10 0 0 0 0 1
numslots=0
T 200 900 5 10 0 0 0 0 1
symversion=0.1
