v 20050820 2
A 289 100 98 315 225 3 0 0 0 -1 -1
A 430 100 100 315 270 3 0 0 0 -1 -1
A 571 100 100 315 270 3 0 0 0 -1 -1
A 712 100 100 0 225 3 0 0 0 -1 -1
P 0 100 189 100 1 0 0
{
T 150 150 5 8 0 1 0 6 1
pinnumber=1
T 150 50 5 8 0 1 0 8 1
pinseq=1
T 250 100 9 8 0 1 0 0 1
pinlabel=1
T 250 100 5 8 0 1 0 2 1
pintype=pas
}
P 812 100 1000 100 1 0 1
{
T 850 150 5 8 0 1 0 0 1
pinnumber=2
T 850 50 5 8 0 1 0 2 1
pinseq=2
T 750 100 9 8 0 1 0 6 1
pinlabel=2
T 750 100 5 8 0 1 0 8 1
pintype=pas
}
T 200 500 5 10 0 0 0 0 1
device=COIL
T 200 300 8 10 1 1 0 0 1
refdes=L?
T 200 1100 5 10 0 0 0 0 1
description=inductor
T 200 900 5 10 0 0 0 0 1
numslots=0
T 200 700 5 10 0 0 0 0 1
symversion=0.1
