v 20031231 2
T -200 500 5 6 0 1 0 0 1
device=PS2501-1
P 200 400 200 300 1 0 0
{
T 200 200 3 6 0 1 0 0 1
pinnumber=1
T 200 200 3 6 0 0 0 0 1
pinseq=1
T -163 400 3 6 0 1 0 0 1
pinlabel=COLLECTOR
T 200 200 3 6 0 1 0 0 1 
pintype=pas
}
P 200 100 200 0 1 0 1
{
T 210 -50 3 6 0 1 0 0 1
pinnumber=2
T 210 -50 3 6 0 0 0 0 1
pinseq=2
T 210 -50 3 6 0 1 0 0 1
pinlabel=EMITTER
T 210 -50 3 6 0 1 0 0 1 
pintype=pas
}
L 60 200 20 210 3 0 0 0 -1 -1
L 20 210 50 240 3 0 0 0 -1 -1
L 50 240 60 200 3 0 0 0 -1 -1
L 60 130 20 140 3 0 0 0 -1 -1
L 20 140 50 170 3 0 0 0 -1 -1
L 50 170 60 130 3 0 0 0 -1 -1
L 100 300 100 100 3 0 0 0 -1 -1
L 200 100 100 170 3 0 0 0 -1 -1
L 100 230 200 300 3 0 0 0 -1 -1
L 40 220 0 260 3 0 0 0 -1 -1
L 0 260 0 230 3 0 0 0 -1 -1
L 0 230 -40 270 3 0 0 0 -1 -1
L 40 150 0 190 3 0 0 0 -1 -1
L 0 190 0 160 3 0 0 0 -1 -1
L 0 160 -40 200 3 0 0 0 -1 -1
L 200 100 170 140 3 0 0 0 -1 -1
L 170 140 150 110 3 0 0 0 -1 -1
L 150 110 200 100 3 0 0 0 -1 -1
T 260 100 8 10 1 1 0 0 1
refdes=Q?
T -40 0 8 10 0 1 0 0 1
device=photo-transistor
