v 20031231 2
L 0 700 200 600 3 0 0 0 -1 -1
L 200 600 0 500 3 0 0 0 -1 -1
L 0 500 200 400 3 0 0 0 -1 -1
L 200 400 0 300 3 0 0 0 -1 -1
L 0 700 200 800 3 0 0 0 -1 -1
L 200 800 100 850 3 0 0 0 -1 -1
P 100 0 100 252 1 0 0
{
T -25 100 5 8 1 1 0 0 1
pinnumber=2
T -25 100 5 8 0 0 0 0 1
pinseq=2
T -25 100 5 8 0 1 0 0 1 
pinlabel=2
T -25 100 5 8 0 1 0 0 1 
pintype=pas
}
L 0 301 100 250 3 0 0 0 -1 -1
L 300 700 500 600 3 0 0 0 -1 -1
L 500 600 300 500 3 0 0 0 -1 -1
L 300 500 500 400 3 0 0 0 -1 -1
L 500 400 300 300 3 0 0 0 -1 -1
L 300 700 500 800 3 0 0 0 -1 -1
L 500 800 400 850 3 0 0 0 -1 -1
P 400 0 400 252 1 0 0
{
T 275 100 5 8 1 1 0 0 1
pinnumber=3
T 275 100 5 8 0 0 0 0 1
pinseq=3
T 275 100 5 8 0 1 0 0 1 
pinlabel=3
T 275 100 5 8 0 1 0 0 1 
pintype=pas
}
L 300 301 400 250 3 0 0 0 -1 -1
L 600 700 800 600 3 0 0 0 -1 -1
L 800 600 600 500 3 0 0 0 -1 -1
L 600 500 800 400 3 0 0 0 -1 -1
L 800 400 600 300 3 0 0 0 -1 -1
L 600 700 800 800 3 0 0 0 -1 -1
L 800 800 700 850 3 0 0 0 -1 -1
P 700 0 700 252 1 0 0
{
T 575 100 5 8 1 1 0 0 1
pinnumber=4
T 575 100 5 8 0 0 0 0 1
pinseq=4
T 575 100 5 8 0 1 0 0 1 
pinlabel=4
T 575 100 5 8 0 1 0 0 1 
pintype=pas
}
L 600 301 700 250 3 0 0 0 -1 -1
L 900 700 1100 600 3 0 0 0 -1 -1
L 1100 600 900 500 3 0 0 0 -1 -1
L 900 500 1100 400 3 0 0 0 -1 -1
L 1100 400 900 300 3 0 0 0 -1 -1
L 900 700 1100 800 3 0 0 0 -1 -1
L 1100 800 1000 850 3 0 0 0 -1 -1
P 1000 0 1000 252 1 0 0
{
T 875 100 5 8 1 1 0 0 1
pinnumber=5
T 875 100 5 8 0 0 0 0 1
pinseq=5
T 875 100 5 8 0 1 0 0 1 
pinlabel=5
T 875 100 5 8 0 1 0 0 1 
pintype=pas
}
L 900 301 1000 250 3 0 0 0 -1 -1
P 1800 1100 2100 1100 1 0 1
{
T 1900 1150 5 8 1 1 0 0 1
pinnumber=1
T 1900 1150 5 8 0 0 0 0 1
pinseq=1
T 1900 1150 5 8 0 1 0 0 1 
pinlabel=1
T 1900 1150 5 8 0 1 0 0 1 
pintype=pas
}
P 1300 0 1300 252 1 0 0
{
T 1175 100 5 8 1 1 0 0 1
pinnumber=6
T 1175 100 5 8 0 0 0 0 1
pinseq=6
T 1175 100 5 8 0 1 0 0 1 
pinlabel=6
T 1175 100 5 8 0 1 0 0 1 
pintype=pas
}
L 1200 301 1300 250 3 0 0 0 -1 -1
L 1200 700 1400 600 3 0 0 0 -1 -1
L 1400 600 1200 500 3 0 0 0 -1 -1
L 1200 500 1400 400 3 0 0 0 -1 -1
L 1400 400 1200 300 3 0 0 0 -1 -1
L 1200 700 1400 800 3 0 0 0 -1 -1
L 1400 800 1300 850 3 0 0 0 -1 -1
L 100 850 100 1100 3 0 0 0 -1 -1
L 400 850 400 1100 3 0 0 0 -1 -1
L 700 850 700 1100 3 0 0 0 -1 -1
L 1000 850 1000 1100 3 0 0 0 -1 -1
L 1300 850 1300 1100 3 0 0 0 -1 -1
L 100 1100 1800 1100 3 0 0 0 -1 -1
T 100 1400 5 10 0 0 0 0 1
device=RESISTORPACK_7
T 100 1200 8 10 1 1 0 0 1
refdes=R?
L 1500 301 1600 250 3 0 0 0 -1 -1
L 1500 700 1700 600 3 0 0 0 -1 -1
L 1700 600 1500 500 3 0 0 0 -1 -1
L 1500 500 1700 400 3 0 0 0 -1 -1
L 1700 400 1500 300 3 0 0 0 -1 -1
L 1500 700 1700 800 3 0 0 0 -1 -1
L 1700 800 1600 850 3 0 0 0 -1 -1
L 1600 850 1600 1100 3 0 0 0 -1 -1
P 1600 0 1600 252 1 0 0
{
T 1475 100 5 8 1 1 0 0 1
pinnumber=7
T 1475 100 5 8 0 0 0 0 1
pinseq=7
T 1475 100 5 8 0 1 0 0 1 
pinlabel=7
T 1475 100 5 8 0 1 0 0 1 
pintype=pas
}
