v 20080706 2
L 600 200 500 0 3 0 0 0 -1 -1
L 500 0 400 200 3 0 0 0 -1 -1
L 400 200 300 0 3 0 0 0 -1 -1
L 300 0 200 200 3 0 0 0 -1 -1
T 800 100 5 10 0 0 0 0 1
device=RESISTOR
T 800 1000 5 10 0 0 0 0 1
uuid=?
L 600 200 700 0 3 0 0 0 -1 -1
L 700 0 750 100 3 0 0 0 -1 -1
L 201 200 150 100 3 0 0 0 -1 -1
T 200 300 8 10 1 1 0 0 1
refdes=R?
S
{
T 400 800 5 10 0 0 0 0 1
slotname=resistor
T 400 600 5 10 0 0 0 0 1
slotmap=1=1,2=2
T 400 400 5 10 0 0 0 0 1
device=resistor
}
