v 20031231 2
T 0 1400 8 10 1 1 0 0 1
refdes=T?
A 500 1200 98 270 180 3 0 0 0 -1 -1
A 500 1000 98 270 180 3 0 0 0 -1 -1
A 500 800 98 270 180 3 0 0 0 -1 -1
A 500 600 100 270 180 3 0 0 0 -1 -1
A 1000 1200 98 90 180 3 0 0 0 -1 -1
A 500 400 98 270 180 3 0 0 0 -1 -1
A 500 200 98 270 180 3 0 0 0 -1 -1
A 1000 1000 98 90 180 3 0 0 0 -1 -1
A 1000 800 98 90 180 3 0 0 0 -1 -1
A 1000 600 98 90 180 3 0 0 0 -1 -1
A 1000 400 98 90 180 3 0 0 0 -1 -1
A 1000 200 98 90 180 3 0 0 0 -1 -1
L 500 1300 200 1300 3 0 0 0 -1 -1
L 500 100 200 100 3 0 0 0 -1 -1
L 1000 1300 1300 1300 3 0 0 0 -1 -1
L 1000 100 1300 100 3 0 0 0 -1 -1
L 700 1400 700 0 3 0 0 0 -1 -1
L 800 1400 800 0 3 0 0 0 -1 -1
P 200 1300 0 1300 1 0 1
{
T 200 1100 5 10 1 1 0 0 1
pinnumber=1
T 300 1400 5 10 0 0 0 0 1
pinseq=1
T 200 1100 5 10 0 1 0 0 1 
pinlabel=1
T 200 1100 5 10 0 1 0 0 1 
pintype=pas
}
P 200 100 0 100 1 0 1
{
T 200 200 5 10 1 1 0 0 1
pinnumber=2
T 200 0 5 10 0 0 0 0 1
pinseq=2
T 200 200 5 10 0 1 0 0 1 
pinlabel=2
T 200 200 5 10 0 1 0 0 1 
pintype=pas
}
P 1300 1300 1500 1300 1 0 1
{
T 1300 1100 5 10 1 1 0 0 1
pinnumber=3
T 1300 1400 5 10 0 0 0 0 1
pinseq=3
T 1300 1100 5 10 0 1 0 0 1 
pinlabel=3
T 1300 1100 5 10 0 1 0 0 1 
pintype=pas
}
P 1300 100 1500 100 1 0 1
{
T 1300 200 5 10 1 1 0 0 1
pinnumber=4
T 1300 0 5 10 0 0 0 0 1
pinseq=4
T 1300 200 5 10 0 1 0 0 1 
pinlabel=4
T 1300 200 5 10 0 1 0 0 1 
pintype=pas
}
T 0 1600 8 10 0 0 0 0 1
device=TRANSFORMER
L 500 700 200 700 3 0 0 0 -1 -1
P 200 700 0 700 1 0 1
{
T 200 800 5 10 1 1 0 0 1
pinnumber=5
T 200 600 5 10 0 0 0 0 1
pinseq=5
T 200 800 5 10 0 1 0 0 1 
pinlabel=5
T 200 800 5 10 0 1 0 0 1 
pintype=pas
}
