v 20031231 2
L 300 550 300 50 3 0 0 0 -1 -1
L 300 400 600 250 3 0 0 0 -1 -1
T 300 900 8 10 0 0 0 0 1
device=TRIAC
L 600 200 300 50 3 0 0 0 -1 -1
L 600 550 600 50 3 0 0 0 -1 -1
P 0 300 200 300 1 0 0
{
T 100 350 5 8 0 1 0 0 1
pinnumber=1
T 100 350 5 8 0 0 0 0 1
pinseq=1
T 100 350 5 8 0 1 0 0 1 
pinlabel=1
T 100 350 5 8 0 1 0 0 1 
pintype=pas
}
P 900 300 700 300 1 0 0
{
T 700 350 5 8 0 1 0 0 1
pinnumber=2
T 700 350 5 8 0 0 0 0 1
pinseq=2
T 700 350 5 8 0 1 0 0 1 
pinlabel=2
T 700 350 5 8 0 1 0 0 1 
pintype=pas
}
L 700 300 600 300 3 0 0 0 -1 -1
L 300 300 200 300 3 0 0 0 -1 -1
T 300 600 8 10 1 1 0 0 1
refdes=D?
L 600 200 300 350 3 0 0 0 -1 -1
L 300 400 600 550 3 0 0 0 -1 -1
L 600 300 700 500 3 0 0 0 -1 -1
P 700 700 700 500 1 0 0
{
T 700 700 5 10 0 1 0 0 1
pinnumber=3
T 700 700 5 10 0 1 0 0 1
pinseq=3
T 700 700 5 10 0 1 0 0 1 
pinlabel=3
T 700 700 5 10 0 1 0 0 1 
pintype=pas
}
