v 20031231 2
L 800 500 800 700 3 0 0 0 -1 -1
L 800 700 2000 700 3 0 0 0 -1 -1
L 2000 700 2000 300 3 0 0 0 -1 -1
L 800 900 900 900 3 0 0 0 -1 -1
L 1000 900 1100 900 3 0 0 0 -1 -1
L 1200 900 1300 900 3 0 0 0 -1 -1
L 1400 900 1500 900 3 0 0 0 -1 -1
L 1600 900 1700 900 3 0 0 0 -1 -1
L 1800 900 1900 900 3 0 0 0 -1 -1
L 2000 900 2100 900 3 0 0 0 -1 -1
L 800 1100 900 1100 3 0 0 0 -1 -1
L 1000 1100 1100 1100 3 0 0 0 -1 -1
L 1200 1100 1300 1100 3 0 0 0 -1 -1
L 1400 1100 1500 1100 3 0 0 0 -1 -1
L 1600 1100 1700 1100 3 0 0 0 -1 -1
L 1800 1100 1900 1100 3 0 0 0 -1 -1
L 2000 1100 2100 1100 3 0 0 0 -1 -1
L 800 1300 900 1300 3 0 0 0 -1 -1
L 1000 1300 1100 1300 3 0 0 0 -1 -1
L 1200 1300 1300 1300 3 0 0 0 -1 -1
L 1400 1300 1500 1300 3 0 0 0 -1 -1
L 1600 1300 1700 1300 3 0 0 0 -1 -1
L 1800 1300 1900 1300 3 0 0 0 -1 -1
L 2000 1300 2100 1300 3 0 0 0 -1 -1
L 800 1500 900 1500 3 0 0 0 -1 -1
L 1000 1500 1100 1500 3 0 0 0 -1 -1
L 1200 1500 1300 1500 3 0 0 0 -1 -1
L 1400 1500 1500 1500 3 0 0 0 -1 -1
L 1600 1500 1700 1500 3 0 0 0 -1 -1
L 1800 1500 1900 1500 3 0 0 0 -1 -1
L 2000 1500 2100 1500 3 0 0 0 -1 -1
L 800 1700 900 1700 3 0 0 0 -1 -1
L 1000 1700 1100 1700 3 0 0 0 -1 -1
L 1200 1700 1300 1700 3 0 0 0 -1 -1
L 1400 1700 1500 1700 3 0 0 0 -1 -1
L 1600 1700 1700 1700 3 0 0 0 -1 -1
L 1800 1700 1900 1700 3 0 0 0 -1 -1
L 2000 1700 2100 1700 3 0 0 0 -1 -1
L 800 1900 2100 1900 3 0 0 0 -1 -1
L 1500 1900 1500 2300 3 0 0 0 -1 -1
V 1450 1250 1150 3 0 0 0 -1 -1 0 -1 -1 -1 -1 -1
T 2000 2400 5 10 0 0 0 0 1
device=12SA7
T 500 2400 9 8 1 1 0 0 1
12SA7
L 2200 1500 2300 1500 3 0 0 0 -1 -1
L 2300 1500 2300 1100 3 0 0 0 -1 -1
L 2200 1100 2300 1100 3 0 0 0 -1 -1
L 2300 1300 2600 1300 3 0 0 0 -1 -1
L 700 1300 300 1300 3 0 0 0 -1 -1
L 1500 2300 1500 2400 3 0 0 0 -1 -1
L 2200 900 2500 900 3 0 0 0 -1 -1
L 2200 1700 2500 1700 3 0 0 0 -1 -1
P 2000 400 2000 0 1 0 1
{
T 2100 100 5 8 1 1 0 0 1
pinnumber=6
T 2100 100 5 8 0 0 0 0 1
pinseq=6
}
P 2500 900 2900 900 1 0 1
{
T 2800 1000 5 8 1 1 0 0 1
pinnumber=5
T 2800 1000 5 8 0 0 0 0 1
pinseq=5
}
P 2600 1300 2900 1300 1 0 1
{
T 2800 1400 5 8 1 1 0 0 1
pinnumber=4
T 2800 1400 5 8 0 0 0 0 1
pinseq=4
}
P 2500 1700 2900 1700 1 0 1
{
T 2800 1800 5 8 1 1 0 0 1
pinnumber=1
T 2800 1800 5 8 0 0 0 0 1
pinseq=1
}
P 1500 2400 1500 2700 1 0 1
{
T 1600 2600 5 8 1 1 0 0 1
pinnumber=3
T 1600 2600 5 8 0 0 0 0 1
pinseq=3
}
P 300 1300 0 1300 1 0 1
{
T 100 1400 5 8 1 1 0 0 1
pinnumber=8
T 100 1400 5 8 0 0 0 0 1
pinseq=8
}
T 2300 2300 8 10 1 1 0 0 1
refdes=U?
