v 20031231 2
L 800 800 800 1000 3 0 0 0 -1 -1
L 800 1000 2000 1000 3 0 0 0 -1 -1
L 2000 1000 2000 600 3 0 0 0 -1 -1
L 800 1300 1000 1300 3 0 0 0 -1 -1
L 1100 1300 1300 1300 3 0 0 0 -1 -1
L 1400 1300 1600 1300 3 0 0 0 -1 -1
L 1700 1300 1900 1300 3 0 0 0 -1 -1
L 2000 1300 2100 1300 3 0 0 0 -1 -1
L 800 1600 1000 1600 3 0 0 0 -1 -1
L 1100 1600 1300 1600 3 0 0 0 -1 -1
L 1400 1600 1600 1600 3 0 0 0 -1 -1
L 1700 1600 1900 1600 3 0 0 0 -1 -1
L 2000 1600 2100 1600 3 0 0 0 -1 -1
L 800 1900 1000 1900 3 0 0 0 -1 -1
L 1100 1900 1300 1900 3 0 0 0 -1 -1
L 1400 1900 1600 1900 3 0 0 0 -1 -1
L 1700 1900 1900 1900 3 0 0 0 -1 -1
L 2000 1900 2100 1900 3 0 0 0 -1 -1
L 800 2100 2100 2100 3 0 0 0 -1 -1
L 1500 2100 1500 2600 3 0 0 0 -1 -1
V 1550 1550 1150 3 0 0 0 -1 -1 0 -1 -1 -1 -1 -1
T 2200 2700 5 10 0 0 0 0 1
device=12SK7
P 2000 600 2000 0 1 0 1
{
T 2100 300 5 10 1 1 0 0 1
pinnumber=5
T 2100 300 5 10 0 0 0 0 1
pinseq=5
}
P 700 1300 0 1300 1 0 1
{
T 200 1100 5 10 1 1 0 0 1
pinnumber=4
T 200 1100 5 10 0 0 0 0 1
pinseq=4
}
P 2200 1600 3100 1600 1 0 1
{
T 2800 1700 5 10 1 1 0 0 1
pinnumber=6
T 2800 1700 5 10 0 0 0 0 1
pinseq=6
}
P 700 1900 0 1900 1 0 1
{
T 200 2000 5 10 1 1 0 0 1
pinnumber=3
T 200 2000 5 10 0 0 0 0 1
pinseq=3
}
P 1500 2600 1500 3100 1 0 1
{
T 1300 2900 5 10 1 1 0 0 1
pinnumber=8
T 1300 2900 5 10 0 0 0 0 1
pinseq=8
}
T 300 2700 9 10 1 1 0 0 1
12SK7
T 2500 2500 8 10 1 1 0 0 1
refdes=U?
