v 20031231 2
V 1550 1650 1150 3 0 0 0 -1 -1 0 -1 -1 -1 -1 -1
T 2200 2700 5 10 0 0 0 0 1
device=12SQ7
T 200 2800 9 10 1 1 0 0 1
12SQ7
L 800 1400 800 1600 3 0 0 0 -1 -1
L 800 1600 2100 1600 3 0 0 0 -1 -1
L 2100 1600 2100 1200 3 0 0 0 -1 -1
L 2100 1200 2100 900 3 0 0 0 -1 -1
L 2300 1600 2300 1400 3 0 0 0 -1 -1
L 2300 1200 2300 1000 3 0 0 0 -1 -1
L 800 1900 1000 1900 3 0 0 0 -1 -1
L 1200 1900 1400 1900 3 0 0 0 -1 -1
L 1600 1900 1800 1900 3 0 0 0 -1 -1
L 2000 1900 2100 1900 3 0 0 0 -1 -1
L 800 2200 2100 2200 3 0 0 0 -1 -1
L 1500 2200 1500 2800 3 0 0 0 -1 -1
L 2300 1500 2700 1500 3 0 0 0 -1 -1
L 2300 1100 2500 1100 3 0 0 0 -1 -1
L 600 1900 400 1900 3 0 0 0 -1 -1
L 2100 900 2100 600 3 0 0 0 -1 -1
P 400 1900 0 1900 1 0 1
{
T 100 2000 5 10 1 1 0 0 1
pinnumber=2
T 100 2000 5 10 0 0 0 0 1
pinseq=2
}
P 1500 2800 1500 3100 1 0 1
{
T 1300 2900 5 10 1 1 0 0 1
pinnumber=6
T 1300 2900 5 10 0 0 0 0 1
pinseq=6
}
P 2700 1500 3100 1500 1 0 1
{
T 2800 1600 5 10 1 1 0 0 1
pinnumber=4
T 2800 1600 5 10 0 0 0 0 1
pinseq=4
}
P 2500 1100 3100 1100 1 0 1
{
T 2800 900 5 10 1 1 0 0 1
pinnumber=5
T 2800 900 5 10 0 0 0 0 1
pinseq=5
}
P 2100 600 2100 0 1 0 1
{
T 1900 300 5 10 1 1 0 0 1
pinnumber=3
T 1900 300 5 10 0 0 0 0 1
pinseq=3
}
T 2500 2600 8 10 1 1 0 0 1
refdes=U?
