v 20050313 2
P 100 3500 400 3500 1 0 0
{
T 300 3550 5 8 1 1 0 6 1
pinnumber=6
T 300 3450 5 8 0 1 0 8 1
pinseq=6
T 450 3500 9 8 1 1 0 0 1
pinlabel=INN
T 450 3500 5 8 0 1 0 2 1
pintype=in
}
P 100 9200 400 9200 1 0 0
{
T 300 9250 5 8 1 1 0 6 1
pinnumber=37
T 300 9150 5 8 0 1 0 8 1
pinseq=37
T 450 9200 9 8 1 1 0 0 1
pinlabel=PD
T 450 9200 5 8 0 1 0 2 1
pintype=in
}
P 100 8900 400 8900 1 0 0
{
T 300 8950 5 8 1 1 0 6 1
pinnumber=40
T 300 8850 5 8 0 1 0 8 1
pinseq=40
T 450 8900 9 8 1 1 0 0 1
pinlabel=G_TB
T 450 8900 5 8 0 1 0 2 1
pintype=in
}
P 100 8600 400 8600 1 0 0
{
T 300 8650 5 8 1 1 0 6 1
pinnumber=8
T 300 8550 5 8 0 1 0 8 1
pinseq=8
T 450 8600 9 8 1 1 0 0 1
pinlabel=DCE
T 450 8600 5 8 0 1 0 2 1
pintype=in
}
P 100 8300 400 8300 1 0 0
{
T 300 8350 5 8 1 1 0 6 1
pinnumber=11
T 300 8250 5 8 0 1 0 8 1
pinseq=11
T 450 8300 9 8 1 1 0 0 1
pinlabel=CLKTYP
T 450 8300 5 8 0 1 0 2 1
pintype=in
}
P 100 7400 400 7400 1 0 0
{
T 300 7450 5 8 1 1 0 6 1
pinnumber=1
T 300 7350 5 8 0 1 0 8 1
pinseq=1
T 450 7400 9 8 1 1 0 0 1
pinlabel=REFP
T 450 7400 5 8 0 1 0 2 1
pintype=out
}
P 100 6800 400 6800 1 0 0
{
T 300 6850 5 8 1 1 0 6 1
pinnumber=2
T 300 6750 5 8 0 1 0 8 1
pinseq=2
T 450 6800 9 8 1 1 0 0 1
pinlabel=REFN
T 450 6800 5 8 0 1 0 2 1
pintype=out
}
P 100 5900 400 5900 1 0 0
{
T 300 5950 5 8 1 1 0 6 1
pinnumber=5
T 300 5850 5 8 0 1 0 8 1
pinseq=5
T 450 5900 9 8 1 1 0 0 1
pinlabel=INP
T 450 5900 5 8 0 1 0 2 1
pintype=in
}
P 100 4700 400 4700 1 0 0
{
T 300 4750 5 8 1 1 0 6 1
pinnumber=3
T 300 4650 5 8 0 1 0 8 1
pinseq=3
T 450 4700 9 8 1 1 0 0 1
pinlabel=COM
T 450 4700 5 8 0 1 0 2 1
pintype=out
}
P 3000 9200 3300 9200 1 0 1
{
T 3100 9250 5 8 1 1 0 0 1
pinnumber=33
T 3100 9150 5 8 0 1 0 2 1
pinseq=33
T 2950 9200 9 8 1 1 0 6 1
pinlabel=DAV
T 2950 9200 5 8 0 1 0 8 1
pintype=out
}
P 3000 8600 3300 8600 1 0 1
{
T 3100 8650 5 8 1 1 0 0 1
pinnumber=32
T 3100 8550 5 8 0 1 0 2 1
pinseq=32
T 2950 8600 9 8 1 1 0 6 1
pinlabel=NC0
T 2950 8600 5 8 0 1 0 8 1
pintype=out
}
P 3000 8300 3300 8300 1 0 1
{
T 3100 8350 5 8 1 1 0 0 1
pinnumber=31
T 3100 8250 5 8 0 1 0 2 1
pinseq=31
T 2950 8300 9 8 1 1 0 6 1
pinlabel=NC1
T 2950 8300 5 8 0 1 0 8 1
pintype=out
}
P 3000 8000 3300 8000 1 0 1
{
T 3100 8050 5 8 1 1 0 0 1
pinnumber=30
T 3100 7950 5 8 0 1 0 2 1
pinseq=30
T 2950 8000 9 8 1 1 0 6 1
pinlabel=D0
T 2950 8000 5 8 0 1 0 8 1
pintype=out
}
P 3000 7700 3300 7700 1 0 1
{
T 3100 7750 5 8 1 1 0 0 1
pinnumber=29
T 3100 7650 5 8 0 1 0 2 1
pinseq=29
T 2950 7700 9 8 1 1 0 6 1
pinlabel=D1
T 2950 7700 5 8 0 1 0 8 1
pintype=out
}
P 3000 7400 3300 7400 1 0 1
{
T 3100 7450 5 8 1 1 0 0 1
pinnumber=28
T 3100 7350 5 8 0 1 0 2 1
pinseq=28
T 2950 7400 9 8 1 1 0 6 1
pinlabel=D2
T 2950 7400 5 8 0 1 0 8 1
pintype=out
}
P 3000 7100 3300 7100 1 0 1
{
T 3100 7150 5 8 1 1 0 0 1
pinnumber=27
T 3100 7050 5 8 0 1 0 2 1
pinseq=27
T 2950 7100 9 8 1 1 0 6 1
pinlabel=D3
T 2950 7100 5 8 0 1 0 8 1
pintype=out
}
P 3000 6800 3300 6800 1 0 1
{
T 3100 6850 5 8 1 1 0 0 1
pinnumber=26
T 3100 6750 5 8 0 1 0 2 1
pinseq=26
T 2950 6800 9 8 1 1 0 6 1
pinlabel=D4
T 2950 6800 5 8 0 1 0 8 1
pintype=out
}
B 400 400 2600 9600 3 0 0 0 -1 -1 0 -1 -1 -1 -1 -1
T 3300 10000 8 10 0 0 0 0 1
device=MAX1208
P 100 2100 400 2100 1 0 0
{
T 300 2150 5 8 1 1 0 6 1
pinnumber=38
T 300 2050 5 8 0 1 0 8 1
pinseq=38
T 475 2100 9 8 1 1 0 0 1
pinlabel=REFOUT
T 475 2100 5 8 0 1 0 2 1
pintype=out
}
T 1800 6600 8 10 1 1 0 6 1
refdes=U?
T 1400 6140 9 10 1 1 0 0 1
MAX1208
P 100 1200 400 1200 1 0 0
{
T 300 1250 5 8 1 1 0 6 1
pinnumber=39
T 300 1150 5 8 0 1 0 8 1
pinseq=39
T 475 1200 9 8 1 1 0 0 1
pinlabel=REFIN
T 475 1200 5 8 0 1 0 2 1
pintype=in
}
P 3000 6500 3300 6500 1 0 1
{
T 3100 6550 5 8 1 1 0 0 1
pinnumber=25
T 3100 6450 5 8 0 1 0 2 1
pinseq=25
T 2950 6500 9 8 1 1 0 6 1
pinlabel=D5
T 2950 6500 5 8 0 1 0 8 1
pintype=out
}
P 3000 6200 3300 6200 1 0 1
{
T 3100 6250 5 8 1 1 0 0 1
pinnumber=24
T 3100 6150 5 8 0 1 0 2 1
pinseq=24
T 2950 6200 9 8 1 1 0 6 1
pinlabel=D6
T 2950 6200 5 8 0 1 0 8 1
pintype=out
}
P 3000 5900 3300 5900 1 0 1
{
T 3100 5950 5 8 1 1 0 0 1
pinnumber=23
T 3100 5850 5 8 0 1 0 2 1
pinseq=23
T 2950 5900 9 8 1 1 0 6 1
pinlabel=D7
T 2950 5900 5 8 0 1 0 8 1
pintype=out
}
P 3000 5600 3300 5600 1 0 1
{
T 3100 5650 5 8 1 1 0 0 1
pinnumber=22
T 3100 5550 5 8 0 1 0 2 1
pinseq=22
T 2950 5600 9 8 1 1 0 6 1
pinlabel=D8
T 2950 5600 5 8 0 1 0 8 1
pintype=out
}
P 3000 5300 3300 5300 1 0 1
{
T 3100 5350 5 8 1 1 0 0 1
pinnumber=21
T 3100 5250 5 8 0 1 0 2 1
pinseq=21
T 2950 5300 9 8 1 1 0 6 1
pinlabel=D9
T 2950 5300 5 8 0 1 0 8 1
pintype=out
}
P 3000 5000 3300 5000 1 0 1
{
T 3100 5050 5 8 1 1 0 0 1
pinnumber=20
T 3100 4950 5 8 0 1 0 2 1
pinseq=20
T 2950 5000 9 8 1 1 0 6 1
pinlabel=D10
T 2950 5000 5 8 0 1 0 8 1
pintype=out
}
P 3000 4700 3300 4700 1 0 1
{
T 3100 4750 5 8 1 1 0 0 1
pinnumber=19
T 3100 4650 5 8 0 1 0 2 1
pinseq=19
T 2950 4700 9 8 1 1 0 6 1
pinlabel=D11
T 2950 4700 5 8 0 1 0 8 1
pintype=out
}
P 3000 4100 3300 4100 1 0 1
{
T 3100 4150 5 8 1 1 0 0 1
pinnumber=18
T 3100 4050 5 8 0 1 0 2 1
pinseq=18
T 2950 4100 9 8 1 1 0 6 1
pinlabel=DOR
T 2950 4100 5 8 0 1 0 8 1
pintype=out
}
P 3000 3000 3300 3000 1 0 1
{
T 3100 3050 5 8 1 1 0 0 1
pinnumber=10
T 3100 2950 5 8 0 1 0 2 1
pinseq=10
T 2950 3000 9 8 1 1 0 6 1
pinlabel=CLKP
T 2950 3000 5 8 0 1 0 8 1
pintype=in
}
P 3000 1800 3300 1800 1 0 1
{
T 3100 1850 5 8 1 1 0 0 1
pinnumber=9
T 3100 1750 5 8 0 1 0 2 1
pinseq=9
T 2950 1800 9 8 1 1 0 6 1
pinlabel=CLKN
T 2950 1800 5 8 0 1 0 8 1
pintype=in
}
P 1000 400 1000 100 1 0 1
{
T 1050 300 5 8 1 1 270 0 1
pinnumber=4
T 950 300 5 8 0 1 270 2 1
pinseq=4
T 1000 450 9 8 1 1 270 6 1
pinlabel=GND
T 1000 450 5 8 0 1 270 8 1
pintype=pwr
}
P 1300 400 1300 100 1 0 1
{
T 1350 300 5 8 1 1 270 0 1
pinnumber=7
T 1250 300 5 8 0 1 270 2 1
pinseq=7
T 1300 450 9 8 1 1 270 6 1
pinlabel=GND
T 1300 450 5 8 0 1 270 8 1
pintype=pwr
}
P 1900 400 1900 100 1 0 1
{
T 1950 300 5 8 1 1 270 0 1
pinnumber=16
T 1850 300 5 8 0 1 270 2 1
pinseq=16
T 1900 450 9 8 1 1 270 6 1
pinlabel=OGND
T 1900 450 5 8 0 1 270 8 1
pintype=pwr
}
P 2200 400 2200 100 1 0 1
{
T 2250 300 5 8 1 1 270 0 1
pinnumber=35
T 2150 300 5 8 0 1 270 2 1
pinseq=35
T 2200 450 9 8 1 1 270 6 1
pinlabel=OGND
T 2200 450 5 8 0 1 270 8 1
pintype=pwr
}
P 600 10300 600 10000 1 0 0
{
T 650 10100 5 8 1 1 270 6 1
pinnumber=12
T 550 10100 5 8 0 1 270 8 1
pinseq=12
T 600 9950 9 8 1 1 270 0 1
pinlabel=VDD
T 600 9950 5 8 0 1 270 2 1
pintype=pwr
}
P 900 10300 900 10000 1 0 0
{
T 950 10100 5 8 1 1 270 6 1
pinnumber=13
T 850 10100 5 8 0 1 270 8 1
pinseq=13
T 900 9950 9 8 1 1 270 0 1
pinlabel=VDD
T 900 9950 5 8 0 1 270 2 1
pintype=pwr
}
P 1200 10300 1200 10000 1 0 0
{
T 1250 10100 5 8 1 1 270 6 1
pinnumber=14
T 1150 10100 5 8 0 1 270 8 1
pinseq=14
T 1200 9950 9 8 1 1 270 0 1
pinlabel=VDD
T 1200 9950 5 8 0 1 270 2 1
pintype=pwr
}
P 1500 10300 1500 10000 1 0 0
{
T 1550 10100 5 8 1 1 270 6 1
pinnumber=15
T 1450 10100 5 8 0 1 270 8 1
pinseq=15
T 1500 9950 9 8 1 1 270 0 1
pinlabel=VDD
T 1500 9950 5 8 0 1 270 2 1
pintype=pwr
}
P 1800 10300 1800 10000 1 0 0
{
T 1850 10100 5 8 1 1 270 6 1
pinnumber=36
T 1750 10100 5 8 0 1 270 8 1
pinseq=36
T 1800 9950 9 8 1 1 270 0 1
pinlabel=VDD
T 1800 9950 5 8 0 1 270 2 1
pintype=pwr
}
P 2300 10300 2300 10000 1 0 0
{
T 2350 10100 5 8 1 1 270 6 1
pinnumber=17
T 2250 10100 5 8 0 1 270 8 1
pinseq=17
T 2300 9950 9 8 1 1 270 0 1
pinlabel=OVDD
T 2300 9950 5 8 0 1 270 2 1
pintype=pwr
}
P 2600 10300 2600 10000 1 0 0
{
T 2650 10100 5 8 1 1 270 6 1
pinnumber=34
T 2550 10100 5 8 0 1 270 8 1
pinseq=34
T 2600 9950 9 8 1 1 270 0 1
pinlabel=OVDD
T 2600 9950 5 8 0 1 270 2 1
pintype=pwr
}
P 600 400 600 100 1 0 1
{
T 650 300 5 8 1 1 270 0 1
pinnumber=41
T 550 300 5 8 0 1 270 2 1
pinseq=41
T 600 450 9 8 1 1 270 6 1
pinlabel=PADDLE
T 600 450 5 8 0 1 270 8 1
pintype=pwr
}
T 1000 5400 8 10 1 1 0 0 1
footprint=TQFN40_6_EP
T 1600 5000 8 10 0 0 0 0 1
numslots=0
T 3800 5000 5 10 0 0 0 0 1
documentation=http://pdfserv.maxim-ic.com/en/ds/MAX1208.pdf
