v 20040111 2
P 300 1200 0 1200 1 0 1
{
T 200 1250 5 8 1 1 0 6 1
pinnumber=4
T 200 1150 5 8 0 1 0 8 1
pinseq=4
T 350 1200 9 8 1 1 0 0 1
pinlabel=LBI
T 350 1200 5 8 0 1 0 2 1
pintype=in
}
P 300 800 0 800 1 0 1
{
T 200 850 5 8 1 1 0 6 1
pinnumber=7
T 200 750 5 8 0 1 0 8 1
pinseq=7
T 350 800 9 8 1 1 0 0 1
pinlabel=SRC
T 350 800 5 8 0 1 0 2 1
pintype=in
}
P 2600 2000 2300 2000 1 0 0
{
T 2400 2050 5 8 1 1 0 0 1
pinnumber=3
T 2400 1950 5 8 0 1 0 2 1
pinseq=3
T 2250 2000 9 8 1 1 0 6 1
pinlabel=LBO
T 2250 2000 5 8 0 1 0 8 1
pintype=out
}
P 2600 1600 2300 1600 1 0 0
{
T 2400 1650 5 8 1 1 0 0 1
pinnumber=6
T 2400 1550 5 8 0 1 0 2 1
pinseq=6
T 2250 1600 9 8 1 1 0 6 1
pinlabel=GATE
T 2250 1600 5 8 0 1 0 8 1
pintype=out
}
B 300 0 2000 2200 3 0 0 0 -1 -1 0 -1 -1 -1 -1 -1
T 300 2650 5 10 0 0 0 0 1
device=MAX1614
P 300 400 0 400 1 0 1
{
T 200 450 5 8 1 1 0 6 1
pinnumber=8
T 200 350 5 8 0 1 0 8 1
pinseq=8
T 350 400 9 8 1 1 0 0 1
pinlabel=BATT
T 350 400 5 8 0 1 0 2 1
pintype=in
}
P 0 1600 200 1600 1 0 0
{
T 200 1650 5 8 1 1 0 6 1
pinnumber=2
T 200 1550 5 8 0 1 0 8 1
pinseq=2
T 350 1600 9 8 1 1 0 0 1
pinlabel=OFF
T 350 1600 5 8 0 1 0 2 1
pintype=in
}
V 250 1600 50 6 0 0 0 -1 -1 0 -1 -1 -1 -1 -1
P 0 2000 200 2000 1 0 0
{
T 200 2050 5 8 1 1 0 6 1
pinnumber=1
T 200 1950 5 8 0 1 0 8 1
pinseq=1
T 350 2000 9 8 1 1 0 0 1
pinlabel=ON
T 350 2000 5 8 0 1 0 2 1
pintype=in
}
V 250 2000 50 6 0 0 0 -1 -1 0 -1 -1 -1 -1 -1
T 2300 2300 8 10 1 1 0 6 1
refdes=U?
T 300 2850 5 10 0 0 0 0 1
footprint=uMAX8
T 300 3050 5 10 0 0 0 0 1
description=high-side, N-Channel MOSFET Switch Driver
T 300 2450 5 10 0 0 0 0 1
numslots=0
T 300 3250 5 10 0 0 0 0 1
documentation=http://pdfserv.maxim-ic.com/en/ds/MAX1614.pdf
T 300 2250 9 10 1 0 0 0 1
MAX1614
L 350 2125 575 2125 3 0 0 0 -1 -1
L 350 1725 625 1725 3 0 0 0 -1 -1
L 2250 2125 1900 2125 3 0 0 0 -1 -1
T 300 3450 5 10 0 0 0 0 1
symversion=1.0
