v 20031231 2
B 300 0 2000 4000 3 0 0 0 -1 -1 0 -1 -1 -1 -1 -1
T 2460 4160 5 10 0 0 0 0 1
device=MAX1055
P 300 3800 0 3800 1 0 1
{
T 110 3860 5 8 1 1 0 0 1
pinnumber=3
T 110 3860 5 8 0 0 0 0 1
pinseq=3
}
P 300 3400 0 3400 1 0 1
{
T 110 3460 5 8 1 1 0 0 1
pinnumber=4
T 110 3460 5 8 0 0 0 0 1
pinseq=4
}
P 300 3000 0 3000 1 0 1
{
T 110 3060 5 8 1 1 0 0 1
pinnumber=5
T 110 3060 5 8 0 0 0 0 1
pinseq=5
}
P 300 2600 0 2600 1 0 1
{
T 110 2660 5 8 1 1 0 0 1
pinnumber=7
T 110 2660 5 8 0 0 0 0 1
pinseq=7
}
P 300 2200 0 2200 1 0 1
{
T 110 2260 5 8 1 1 0 0 1
pinnumber=8
T 110 2260 5 8 0 0 0 0 1
pinseq=8
}
P 300 1800 0 1800 1 0 1
{
T 110 1860 5 8 1 1 0 0 1
pinnumber=10
T 110 1860 5 8 0 0 0 0 1
pinseq=10
}
P 300 1400 0 1400 1 0 1
{
T 110 1460 5 8 1 1 0 0 1
pinnumber=13
T 110 1460 5 8 0 0 0 0 1
pinseq=13
}
P 300 1000 0 1000 1 0 1
{
T 110 1060 5 8 1 1 0 0 1
pinnumber=17
T 110 1060 5 8 0 0 0 0 1
pinseq=17
}
P 2600 3800 2300 3800 1 0 0
{
T 2410 3860 5 8 1 1 0 0 1
pinnumber=1
T 2410 3860 5 8 0 0 0 0 1
pinseq=1
}
P 2600 3400 2300 3400 1 0 0
{
T 2410 3460 5 8 1 1 0 0 1
pinnumber=12
T 2410 3460 5 8 0 0 0 0 1
pinseq=12
}
P 2600 3000 2300 3000 1 0 0
{
T 2410 3060 5 8 1 1 0 0 1
pinnumber=14
T 2410 3060 5 8 0 0 0 0 1
pinseq=14
}
P 2600 2600 2300 2600 1 0 0
{
T 2410 2660 5 8 1 1 0 0 1
pinnumber=19
T 2410 2660 5 8 0 0 0 0 1
pinseq=19
}
T 1910 3710 9 10 1 0 0 0 1
REF
T 1860 3360 9 10 1 0 0 0 1
PDO
T 1760 2960 9 10 1 0 0 0 1
SYNC
T 1860 2560 9 10 1 0 0 0 1
OUT
T 410 3760 9 10 1 0 0 0 1
A0
T 410 3360 9 10 1 0 0 0 1
A1
T 410 2960 9 10 1 0 0 0 1
COSC
T 410 2560 9 10 1 0 0 0 1
DADJ
T 410 2160 9 10 1 0 0 0 1
FADJ
T 410 1760 9 10 1 0 0 0 1
IIN
T 410 1360 9 10 1 0 0 0 1
PDI
T 410 960 9 10 1 0 0 0 1
V+
T 410 610 9 10 1 0 0 0 1
V-
P 300 600 0 600 1 0 1
{
T 110 660 5 8 1 1 0 0 1
pinnumber=20
T 110 660 5 8 0 0 0 0 1
pinseq=20
}
T 360 4060 9 10 1 0 0 0 1
MAX1055
T 2300 4100 8 10 1 1 0 6 1
refdes=U?
