v 20050313 2
P 100 11300 400 11300 1 0 0
{
T 325 11350 5 10 1 1 0 6 1
pinnumber=2
T 100 11300 5 10 0 1 0 0 1
pinseq=2
T 300 11350 5 10 0 1 0 0 1
pintype=in
T 500 11350 5 10 1 1 0 0 1
pinlabel=INAP
}
B 400 400 4900 11800 3 0 0 0 -1 -1 0 -1 -1 -1 -1 -1
P 5600 7000 5300 7000 1 0 0
{
T 5500 7000 5 10 0 1 0 0 1
pintype=out
T 5350 7025 5 10 1 1 0 0 1
pinnumber=41
T 5500 7000 5 10 0 1 0 0 1
pinseq=41
T 4700 7000 5 10 1 1 0 1 1
pinlabel=DB11
}
P 5600 6800 5300 6800 1 0 0
{
T 5500 6800 5 10 0 1 0 0 1
pintype=out
T 5350 6825 5 10 1 1 0 0 1
pinnumber=40
T 5500 6800 5 10 0 1 0 0 1
pinseq=40
T 4700 6800 5 10 1 1 0 1 1
pinlabel=DB10
}
P 5600 6600 5300 6600 1 0 0
{
T 5500 6600 5 10 0 1 0 0 1
pintype=out
T 5350 6625 5 10 1 1 0 0 1
pinnumber=39
T 5500 6600 5 10 0 1 0 0 1
pinseq=39
T 4700 6600 5 10 1 1 0 1 1
pinlabel=DB9
}
P 5600 6400 5300 6400 1 0 0
{
T 5500 6400 5 10 0 1 0 0 1
pintype=out
T 5350 6425 5 10 1 1 0 0 1
pinnumber=38
T 5500 6400 5 10 0 1 0 0 1
pinseq=38
T 4700 6400 5 10 1 1 0 1 1
pinlabel=DB8
}
P 5600 6200 5300 6200 1 0 0
{
T 5500 6200 5 10 0 1 0 0 1
pintype=out
T 5350 6225 5 10 1 1 0 0 1
pinnumber=37
T 5500 6200 5 10 0 1 0 0 1
pinseq=37
T 4700 6200 5 10 1 1 0 1 1
pinlabel=DB7
}
P 5600 6000 5300 6000 1 0 0
{
T 5500 6000 5 10 0 1 0 0 1
pintype=out
T 5350 6025 5 10 1 1 0 0 1
pinnumber=36
T 5500 6000 5 10 0 1 0 0 1
pinseq=36
T 4700 6000 5 10 1 1 0 1 1
pinlabel=DB6
}
P 5600 5800 5300 5800 1 0 0
{
T 5500 5800 5 10 0 1 0 0 1
pintype=out
T 5350 5825 5 10 1 1 0 0 1
pinnumber=35
T 5500 5800 5 10 0 1 0 0 1
pinseq=35
T 4700 5800 5 10 1 1 0 1 1
pinlabel=DB5
}
P 5600 5600 5300 5600 1 0 0
{
T 5500 5600 5 10 0 1 0 0 1
pintype=out
T 5350 5625 5 10 1 1 0 0 1
pinnumber=34
T 5500 5600 5 10 0 1 0 0 1
pinseq=34
T 4700 5600 5 10 1 1 0 1 1
pinlabel=DB4
}
P 5600 5400 5300 5400 1 0 0
{
T 5500 5400 5 10 0 1 0 0 1
pintype=out
T 5350 5425 5 10 1 1 0 0 1
pinnumber=33
T 5500 5400 5 10 0 1 0 0 1
pinseq=33
T 4700 5400 5 10 1 1 0 1 1
pinlabel=DB3
}
P 5600 5200 5300 5200 1 0 0
{
T 5500 5200 5 10 0 1 0 0 1
pintype=out
T 5350 5225 5 10 1 1 0 0 1
pinnumber=32
T 5500 5200 5 10 0 1 0 0 1
pinseq=32
T 4700 5200 5 10 1 1 0 1 1
pinlabel=DB2
}
P 5600 5000 5300 5000 1 0 0
{
T 5500 5000 5 10 0 1 0 0 1
pintype=out
T 5350 5025 5 10 1 1 0 0 1
pinnumber=31
T 5500 5000 5 10 0 1 0 0 1
pinseq=31
T 4700 5000 5 10 1 1 0 1 1
pinlabel=DB1
}
P 5600 4800 5300 4800 1 0 0
{
T 5500 4800 5 10 0 1 0 0 1
pintype=out
T 5350 4825 5 10 1 1 0 0 1
pinnumber=30
T 5500 4800 5 10 0 1 0 0 1
pinseq=30
T 4700 4800 5 10 1 1 0 1 1
pinlabel=DB0
}
P 5600 4300 5300 4300 1 0 0
{
T 5500 4300 5 10 0 1 0 0 1
pintype=out
T 5350 4325 5 10 1 1 0 0 1
pinnumber=29
T 5500 4300 5 10 0 1 0 0 1
pinseq=29
T 4700 4300 5 10 1 1 0 1 1
pinlabel=NC1
}
P 5600 4100 5300 4100 1 0 0
{
T 5500 4100 5 10 0 1 0 0 1
pintype=out
T 5350 4125 5 10 1 1 0 0 1
pinnumber=28
T 5500 4100 5 10 0 1 0 0 1
pinseq=28
T 4700 4100 5 10 1 1 0 1 1
pinlabel=NC0
}
P 5600 7200 5300 7200 1 0 0
{
T 5500 7200 5 10 0 1 0 0 1
pintype=out
T 5350 7225 5 10 1 1 0 0 1
pinnumber=42
T 5500 7200 5 10 0 1 0 0 1
pinseq=42
T 4700 7200 5 10 1 1 0 1 1
pinlabel=DORB
}
P 5600 11400 5300 11400 1 0 0
{
T 5500 11400 5 10 0 1 0 0 1
pintype=out
T 5350 11425 5 10 1 1 0 0 1
pinnumber=58
T 5500 11400 5 10 0 1 0 0 1
pinseq=58
T 4700 11400 5 10 1 1 0 1 1
pinlabel=DA11
}
P 5600 11200 5300 11200 1 0 0
{
T 5500 11200 5 10 0 1 0 0 1
pintype=out
T 5350 11225 5 10 1 1 0 0 1
pinnumber=57
T 5500 11200 5 10 0 1 0 0 1
pinseq=57
T 4700 11200 5 10 1 1 0 1 1
pinlabel=DA10
}
P 5600 11000 5300 11000 1 0 0
{
T 5500 11000 5 10 0 1 0 0 1
pintype=out
T 5350 11025 5 10 1 1 0 0 1
pinnumber=56
T 5500 11000 5 10 0 1 0 0 1
pinseq=56
T 4700 11000 5 10 1 1 0 1 1
pinlabel=DA9
}
P 5600 10800 5300 10800 1 0 0
{
T 5500 10800 5 10 0 1 0 0 1
pintype=out
T 5350 10825 5 10 1 1 0 0 1
pinnumber=55
T 5500 10800 5 10 0 1 0 0 1
pinseq=55
T 4700 10800 5 10 1 1 0 1 1
pinlabel=DA8
}
P 5600 10600 5300 10600 1 0 0
{
T 5500 10600 5 10 0 1 0 0 1
pintype=out
T 5350 10625 5 10 1 1 0 0 1
pinnumber=54
T 5500 10600 5 10 0 1 0 0 1
pinseq=54
T 4700 10600 5 10 1 1 0 1 1
pinlabel=DA7
}
P 5600 10400 5300 10400 1 0 0
{
T 5500 10400 5 10 0 1 0 0 1
pintype=out
T 5350 10425 5 10 1 1 0 0 1
pinnumber=53
T 5500 10400 5 10 0 1 0 0 1
pinseq=53
T 4700 10400 5 10 1 1 0 1 1
pinlabel=DA6
}
P 5600 10200 5300 10200 1 0 0
{
T 5500 10200 5 10 0 1 0 0 1
pintype=out
T 5350 10225 5 10 1 1 0 0 1
pinnumber=52
T 5500 10200 5 10 0 1 0 0 1
pinseq=52
T 4700 10200 5 10 1 1 0 1 1
pinlabel=DA5
}
P 5600 10000 5300 10000 1 0 0
{
T 5500 10000 5 10 0 1 0 0 1
pintype=out
T 5350 10025 5 10 1 1 0 0 1
pinnumber=51
T 5500 10000 5 10 0 1 0 0 1
pinseq=51
T 4700 10000 5 10 1 1 0 1 1
pinlabel=DA4
}
P 5600 9800 5300 9800 1 0 0
{
T 5500 9800 5 10 0 1 0 0 1
pintype=out
T 5350 9825 5 10 1 1 0 0 1
pinnumber=50
T 5500 9800 5 10 0 1 0 0 1
pinseq=50
T 4700 9800 5 10 1 1 0 1 1
pinlabel=DA3
}
P 5600 9600 5300 9600 1 0 0
{
T 5500 9600 5 10 0 1 0 0 1
pintype=out
T 5350 9625 5 10 1 1 0 0 1
pinnumber=49
T 5500 9600 5 10 0 1 0 0 1
pinseq=49
T 4700 9600 5 10 1 1 0 1 1
pinlabel=DA2
}
P 5600 9400 5300 9400 1 0 0
{
T 5500 9400 5 10 0 1 0 0 1
pintype=out
T 5350 9425 5 10 1 1 0 0 1
pinnumber=48
T 5500 9400 5 10 0 1 0 0 1
pinseq=48
T 4700 9400 5 10 1 1 0 1 1
pinlabel=DA1
}
P 5600 9200 5300 9200 1 0 0
{
T 5500 9200 5 10 0 1 0 0 1
pintype=out
T 5350 9225 5 10 1 1 0 0 1
pinnumber=47
T 5500 9200 5 10 0 1 0 0 1
pinseq=47
T 4700 9200 5 10 1 1 0 1 1
pinlabel=DA0
}
P 5600 8700 5300 8700 1 0 0
{
T 5500 8700 5 10 0 1 0 0 1
pintype=out
T 5350 8725 5 10 1 1 0 0 1
pinnumber=46
T 5500 8700 5 10 0 1 0 0 1
pinseq=46
T 4700 8700 5 10 1 1 0 1 1
pinlabel=NC3
}
P 5600 8500 5300 8500 1 0 0
{
T 5500 8500 5 10 0 1 0 0 1
pintype=out
T 5350 8525 5 10 1 1 0 0 1
pinnumber=45
T 5500 8500 5 10 0 1 0 0 1
pinseq=45
T 4700 8500 5 10 1 1 0 1 1
pinlabel=NC2
}
P 5600 11600 5300 11600 1 0 0
{
T 5500 11600 5 10 0 1 0 0 1
pintype=out
T 5350 11625 5 10 1 1 0 0 1
pinnumber=59
T 5500 11600 5 10 0 1 0 0 1
pinseq=59
T 4700 11600 5 10 1 1 0 1 1
pinlabel=DORA
}
P 5600 8000 5300 8000 1 0 0
{
T 5500 8000 5 10 0 1 0 0 1
pintype=out
T 5350 8025 5 10 1 1 0 0 1
pinnumber=44
T 5500 8000 5 10 0 1 0 0 1
pinseq=44
T 4700 8000 5 10 1 1 0 1 1
pinlabel=DAV
}
L 4300 11400 4300 9000 3 100 0 0 -1 -1
L 4600 11400 4400 11400 3 0 0 0 -1 -1
L 4300 11300 4400 11400 3 0 0 0 -1 -1
L 3700 10100 3900 10300 3 0 0 0 -1 -1
L 4600 11200 4400 11200 3 0 0 0 -1 -1
L 4300 11100 4400 11200 3 0 0 0 -1 -1
L 4600 11000 4400 11000 3 0 0 0 -1 -1
L 4300 10900 4400 11000 3 0 0 0 -1 -1
L 4600 10800 4400 10800 3 0 0 0 -1 -1
L 4300 10700 4400 10800 3 0 0 0 -1 -1
L 4600 10600 4400 10600 3 0 0 0 -1 -1
L 4300 10500 4400 10600 3 0 0 0 -1 -1
L 4600 10400 4400 10400 3 0 0 0 -1 -1
L 4300 10300 4400 10400 3 0 0 0 -1 -1
L 4600 10200 4400 10200 3 0 0 0 -1 -1
L 4300 10100 4400 10200 3 0 0 0 -1 -1
L 4600 10000 4400 10000 3 0 0 0 -1 -1
L 4300 9900 4400 10000 3 0 0 0 -1 -1
L 4600 9800 4400 9800 3 0 0 0 -1 -1
L 4300 9700 4400 9800 3 0 0 0 -1 -1
L 4600 9600 4400 9600 3 0 0 0 -1 -1
L 4300 9500 4400 9600 3 0 0 0 -1 -1
L 4600 9400 4400 9400 3 0 0 0 -1 -1
L 4300 9300 4400 9400 3 0 0 0 -1 -1
L 4600 9200 4400 9200 3 0 0 0 -1 -1
L 4300 9100 4400 9200 3 0 0 0 -1 -1
L 3100 10200 4300 10200 3 100 0 0 -1 -1
T 3600 10300 9 10 1 0 0 0 1
12
L 4300 7000 4300 4600 3 100 0 0 -1 -1
L 4600 7000 4400 7000 3 0 0 0 -1 -1
L 4300 6900 4400 7000 3 0 0 0 -1 -1
L 3700 5700 3900 5900 3 0 0 0 -1 -1
L 4600 6800 4400 6800 3 0 0 0 -1 -1
L 4300 6700 4400 6800 3 0 0 0 -1 -1
L 4600 6600 4400 6600 3 0 0 0 -1 -1
L 4300 6500 4400 6600 3 0 0 0 -1 -1
L 4600 6400 4400 6400 3 0 0 0 -1 -1
L 4300 6300 4400 6400 3 0 0 0 -1 -1
L 4600 6200 4400 6200 3 0 0 0 -1 -1
L 4300 6100 4400 6200 3 0 0 0 -1 -1
L 4600 6000 4400 6000 3 0 0 0 -1 -1
L 4300 5900 4400 6000 3 0 0 0 -1 -1
L 4600 5800 4400 5800 3 0 0 0 -1 -1
L 4300 5700 4400 5800 3 0 0 0 -1 -1
L 4600 5600 4400 5600 3 0 0 0 -1 -1
L 4300 5500 4400 5600 3 0 0 0 -1 -1
L 4600 5400 4400 5400 3 0 0 0 -1 -1
L 4300 5300 4400 5400 3 0 0 0 -1 -1
L 4600 5200 4400 5200 3 0 0 0 -1 -1
L 4300 5100 4400 5200 3 0 0 0 -1 -1
L 4600 5000 4400 5000 3 0 0 0 -1 -1
L 4300 4900 4400 5000 3 0 0 0 -1 -1
L 4600 4800 4400 4800 3 0 0 0 -1 -1
L 4300 4700 4400 4800 3 0 0 0 -1 -1
L 3100 5800 4300 5800 3 100 0 0 -1 -1
T 3600 5900 9 10 1 0 0 0 1
12
L 1100 10200 1700 10800 3 0 0 0 -1 -1
L 1100 10200 1700 9600 3 0 0 0 -1 -1
L 3100 10800 1700 10800 3 0 0 0 -1 -1
L 3100 9600 1700 9600 3 0 0 0 -1 -1
L 3100 9600 3100 10800 3 0 0 0 -1 -1
L 1500 9800 700 9800 3 0 0 0 -1 -1
L 700 9800 700 9100 3 0 0 0 -1 -1
L 1500 10600 700 10600 3 0 0 0 -1 -1
L 700 10600 700 11300 3 0 0 0 -1 -1
L 700 11300 400 11300 3 0 0 0 -1 -1
P 100 9100 400 9100 1 0 0
{
T 325 9150 5 10 1 1 0 6 1
pinnumber=3
T 100 9100 5 10 0 1 0 0 1
pinseq=3
T 300 9150 5 10 0 1 0 0 1
pintype=in
T 500 9050 5 10 1 1 0 2 1
pinlabel=INAN
}
L 700 9100 400 9100 3 0 0 0 -1 -1
P 100 6900 400 6900 1 0 0
{
T 325 6950 5 10 1 1 0 6 1
pinnumber=16
T 100 6900 5 10 0 1 0 0 1
pinseq=16
T 300 6950 5 10 0 1 0 0 1
pintype=in
T 500 6950 5 10 1 1 0 0 1
pinlabel=INBP
}
L 1100 5800 1700 6400 3 0 0 0 -1 -1
L 1100 5800 1700 5200 3 0 0 0 -1 -1
L 3100 6400 1700 6400 3 0 0 0 -1 -1
L 3100 5200 1700 5200 3 0 0 0 -1 -1
L 3100 5200 3100 6400 3 0 0 0 -1 -1
L 1500 5400 700 5400 3 0 0 0 -1 -1
L 700 5400 700 4700 3 0 0 0 -1 -1
L 1500 6200 700 6200 3 0 0 0 -1 -1
L 700 6200 700 6900 3 0 0 0 -1 -1
L 700 6900 400 6900 3 0 0 0 -1 -1
P 100 4700 400 4700 1 0 0
{
T 325 4750 5 10 1 1 0 6 1
pinnumber=15
T 100 4700 5 10 0 1 0 0 1
pinseq=15
T 300 4750 5 10 0 1 0 0 1
pintype=in
T 500 4650 5 10 1 1 0 2 1
pinlabel=INBN
}
L 700 4700 400 4700 3 0 0 0 -1 -1
P 100 4200 400 4200 1 0 0
{
T 325 4250 5 10 1 1 0 6 1
pinnumber=11
T 100 4200 5 10 0 1 0 0 1
pinseq=11
T 300 4250 5 10 0 1 0 0 1
pintype=in
T 500 4200 5 10 1 1 0 1 1
pinlabel=REFPB
}
P 100 3100 400 3100 1 0 0
{
T 325 3150 5 10 1 1 0 6 1
pinnumber=10
T 100 3100 5 10 0 1 0 0 1
pinseq=10
T 300 3150 5 10 0 1 0 0 1
pintype=in
T 500 3100 5 10 1 1 0 1 1
pinlabel=REFNB
}
P 100 10200 400 10200 1 0 0
{
T 325 10250 5 10 1 1 0 6 1
pinnumber=6
T 100 10200 5 10 0 1 0 0 1
pinseq=6
T 300 10250 5 10 0 1 0 0 1
pintype=in
T 500 10200 5 10 1 1 0 1 1
pinlabel=COMA
}
P 100 5800 400 5800 1 0 0
{
T 325 5850 5 10 1 1 0 6 1
pinnumber=12
T 100 5800 5 10 0 1 0 0 1
pinseq=12
T 300 5850 5 10 0 1 0 0 1
pintype=in
T 500 5800 5 10 1 1 0 1 1
pinlabel=COMB
}
P 100 8600 400 8600 1 0 0
{
T 325 8650 5 10 1 1 0 6 1
pinnumber=7
T 100 8600 5 10 0 1 0 0 1
pinseq=7
T 300 8650 5 10 0 1 0 0 1
pintype=in
T 500 8600 5 10 1 1 0 1 1
pinlabel=REFPA
}
P 100 7500 400 7500 1 0 0
{
T 325 7550 5 10 1 1 0 6 1
pinnumber=8
T 100 7500 5 10 0 1 0 0 1
pinseq=8
T 300 7550 5 10 0 1 0 0 1
pintype=in
T 500 7500 5 10 1 1 0 1 1
pinlabel=REFNA
}
P 100 2300 400 2300 1 0 0
{
T 325 2350 5 10 1 1 0 6 1
pinnumber=67
T 100 2300 5 10 0 1 0 0 1
pinseq=67
T 300 2350 5 10 0 1 0 0 1
pintype=in
T 500 2300 5 10 1 1 0 1 1
pinlabel=REFOUT
}
P 100 1900 400 1900 1 0 0
{
T 325 1950 5 10 1 1 0 6 1
pinnumber=68
T 100 1900 5 10 0 1 0 0 1
pinseq=68
T 300 1950 5 10 0 1 0 0 1
pintype=in
T 500 1900 5 10 1 1 0 1 1
pinlabel=REFIN
}
P 100 1200 400 1200 1 0 0
{
T 325 1250 5 10 1 1 0 6 1
pinnumber=20
T 100 1200 5 10 0 1 0 0 1
pinseq=20
T 300 1250 5 10 0 1 0 0 1
pintype=in
T 500 1200 5 10 1 1 0 1 1
pinlabel=CLKP
}
P 100 800 400 800 1 0 0
{
T 325 850 5 10 1 1 0 6 1
pinnumber=19
T 100 800 5 10 0 1 0 0 1
pinseq=19
T 300 850 5 10 0 1 0 0 1
pintype=in
T 500 800 5 10 1 1 0 1 1
pinlabel=CLKN
}
P 5600 2800 5300 2800 1 0 0
{
T 5500 2800 5 10 0 1 0 0 1
pintype=in
T 5350 2825 5 10 1 1 0 0 1
pinnumber=18
T 5500 2800 5 10 0 1 0 0 1
pinseq=18
T 4500 2800 5 10 1 1 0 1 1
pinlabel=DIFFCLK
}
P 5600 2600 5300 2600 1 0 0
{
T 5500 2600 5 10 0 1 0 0 1
pintype=in
T 5350 2625 5 10 1 1 0 0 1
pinnumber=64
T 5500 2600 5 10 0 1 0 0 1
pinseq=64
T 4500 2600 5 10 1 1 0 1 1
pinlabel=G/TB
}
P 5600 2400 5300 2400 1 0 0
{
T 5500 2400 5 10 0 1 0 0 1
pintype=in
T 5350 2425 5 10 1 1 0 0 1
pinnumber=21
T 5500 2400 5 10 0 1 0 0 1
pinseq=21
T 4500 2400 5 10 1 1 0 1 1
pinlabel=DIV2
}
P 5600 2200 5300 2200 1 0 0
{
T 5500 2200 5 10 0 1 0 0 1
pintype=in
T 5350 2225 5 10 1 1 0 0 1
pinnumber=22
T 5500 2200 5 10 0 1 0 0 1
pinseq=22
T 4500 2200 5 10 1 1 0 1 1
pinlabel=DIV4
}
P 5600 2000 5300 2000 1 0 0
{
T 5500 2000 5 10 0 1 0 0 1
pintype=in
T 5350 2025 5 10 1 1 0 0 1
pinnumber=66
T 5500 2000 5 10 0 1 0 0 1
pinseq=66
T 4500 2000 5 10 1 1 0 1 1
pinlabel=SHREF
}
P 5600 1800 5300 1800 1 0 0
{
T 5500 1800 5 10 0 1 0 0 1
pintype=in
T 5350 1825 5 10 1 1 0 0 1
pinnumber=65
T 5500 1800 5 10 0 1 0 0 1
pinseq=65
T 4500 1800 5 10 1 1 0 1 1
pinlabel=PD
}
P 1300 12500 1300 12200 1 0 0
{
T 1275 12300 5 10 1 1 90 0 1
pinnumber=23
T 1300 12500 5 10 0 1 0 0 1
pinseq=23
T 1300 12500 5 10 0 1 0 0 1
pintype=pwr
T 1300 12100 5 10 1 1 90 7 1
pinlabel=VDD
}
P 1500 12500 1500 12200 1 0 0
{
T 1475 12300 5 10 1 1 90 0 1
pinnumber=24
T 1500 12500 5 10 0 1 0 0 1
pinseq=24
T 1500 12500 5 10 0 1 0 0 1
pintype=pwr
T 1500 12100 5 10 1 1 90 7 1
pinlabel=VDD
}
P 1700 12500 1700 12200 1 0 0
{
T 1675 12300 5 10 1 1 90 0 1
pinnumber=25
T 1700 12500 5 10 0 1 0 0 1
pinseq=25
T 1700 12500 5 10 0 1 0 0 1
pintype=pwr
T 1700 12100 5 10 1 1 90 7 1
pinlabel=VDD
}
P 1900 12500 1900 12200 1 0 0
{
T 1875 12300 5 10 1 1 90 0 1
pinnumber=26
T 1900 12500 5 10 0 1 0 0 1
pinseq=26
T 1900 12500 5 10 0 1 0 0 1
pintype=pwr
T 1900 12100 5 10 1 1 90 7 1
pinlabel=VDD
}
P 2100 12500 2100 12200 1 0 0
{
T 2075 12300 5 10 1 1 90 0 1
pinnumber=61
T 2100 12500 5 10 0 1 0 0 1
pinseq=61
T 2100 12500 5 10 0 1 0 0 1
pintype=pwr
T 2100 12100 5 10 1 1 90 7 1
pinlabel=VDD
}
P 2300 12500 2300 12200 1 0 0
{
T 2275 12300 5 10 1 1 90 0 1
pinnumber=62
T 2300 12500 5 10 0 1 0 0 1
pinseq=62
T 2300 12500 5 10 0 1 0 0 1
pintype=pwr
T 2300 12100 5 10 1 1 90 7 1
pinlabel=VDD
}
P 2500 12500 2500 12200 1 0 0
{
T 2475 12300 5 10 1 1 90 0 1
pinnumber=63
T 2500 12500 5 10 0 1 0 0 1
pinseq=63
T 2500 12500 5 10 0 1 0 0 1
pintype=pwr
T 2500 12100 5 10 1 1 90 7 1
pinlabel=VDD
}
P 3500 12500 3500 12200 1 0 0
{
T 3475 12300 5 10 1 1 90 0 1
pinnumber=27
T 3500 12500 5 10 0 1 0 0 1
pinseq=27
T 3500 12500 5 10 0 1 0 0 1
pintype=pwr
T 3500 12100 5 10 1 1 90 7 1
pinlabel=OVDD
}
P 3700 12500 3700 12200 1 0 0
{
T 3675 12300 5 10 1 1 90 0 1
pinnumber=43
T 3700 12500 5 10 0 1 0 0 1
pinseq=43
T 3700 12500 5 10 0 1 0 0 1
pintype=pwr
T 3700 12100 5 10 1 1 90 7 1
pinlabel=OVDD
}
P 3900 12500 3900 12200 1 0 0
{
T 3875 12300 5 10 1 1 90 0 1
pinnumber=60
T 3900 12500 5 10 0 1 0 0 1
pinseq=60
T 3900 12500 5 10 0 1 0 0 1
pintype=pwr
T 3900 12100 5 10 1 1 90 7 1
pinlabel=OVDD
}
P 2100 100 2100 400 1 0 0
{
T 2075 300 5 10 1 1 90 6 1
pinnumber=1
T 2100 100 5 10 0 1 180 0 1
pinseq=1
T 2100 100 5 10 0 1 180 0 1
pintype=pwr
T 2100 500 5 10 1 1 90 1 1
pinlabel=GND
}
P 2300 100 2300 400 1 0 0
{
T 2275 300 5 10 1 1 90 6 1
pinnumber=4
T 2300 100 5 10 0 1 180 0 1
pinseq=4
T 2300 100 5 10 0 1 180 0 1
pintype=pwr
T 2300 500 5 10 1 1 90 1 1
pinlabel=GND
}
P 2500 100 2500 400 1 0 0
{
T 2475 300 5 10 1 1 90 6 1
pinnumber=5
T 2500 100 5 10 0 1 180 0 1
pinseq=5
T 2500 100 5 10 0 1 180 0 1
pintype=pwr
T 2500 500 5 10 1 1 90 1 1
pinlabel=GND
}
P 2700 100 2700 400 1 0 0
{
T 2675 300 5 10 1 1 90 6 1
pinnumber=9
T 2700 100 5 10 0 1 180 0 1
pinseq=9
T 2700 100 5 10 0 1 180 0 1
pintype=pwr
T 2700 500 5 10 1 1 90 1 1
pinlabel=GND
}
P 2900 100 2900 400 1 0 0
{
T 2875 300 5 10 1 1 90 6 1
pinnumber=13
T 2900 100 5 10 0 1 180 0 1
pinseq=13
T 2900 100 5 10 0 1 180 0 1
pintype=pwr
T 2900 500 5 10 1 1 90 1 1
pinlabel=GND
}
P 3100 100 3100 400 1 0 0
{
T 3075 300 5 10 1 1 90 6 1
pinnumber=14
T 3100 100 5 10 0 1 180 0 1
pinseq=14
T 3100 100 5 10 0 1 180 0 1
pintype=pwr
T 3100 500 5 10 1 1 90 1 1
pinlabel=GND
}
P 3300 100 3300 400 1 0 0
{
T 3275 300 5 10 1 1 90 6 1
pinnumber=17
T 3300 100 5 10 0 1 180 0 1
pinseq=17
T 3300 100 5 10 0 1 180 0 1
pintype=pwr
T 3300 500 5 10 1 1 90 1 1
pinlabel=GND
}
L 400 7300 3800 7300 3 0 0 2 25 25
L 3800 7300 3800 7800 3 0 0 2 25 25
L 3800 7800 5300 7800 3 0 0 2 25 25
L 3800 2900 3800 3400 3 0 0 2 25 25
L 3800 3400 5300 3400 3 0 0 2 25 25
L 400 2900 3800 2900 3 0 0 2 25 25
P 3800 100 3800 400 1 0 0
{
T 3775 300 5 10 1 1 90 6 1
pinnumber=69
T 3800 100 5 10 0 1 180 0 1
pinseq=69
T 3800 100 5 10 0 1 180 0 1
pintype=pwr
T 3800 500 5 10 1 1 90 1 1
pinlabel=EP_GND
}
T 1500 11500 8 10 1 1 0 0 1
refdes=U?
T 1500 11200 8 10 1 1 0 0 1
device=MAX12527
T 1700 10200 9 10 1 0 0 0 1
ADC - CH. A
B 400 400 4900 11800 3 0 0 0 -1 -1 0 -1 -1 -1 -1 -1
T 1700 5800 9 10 1 0 0 0 1
ADC - CH. B
T 1500 10900 8 10 1 1 0 0 1
footprint=TQFN68_10_EP
B 400 400 4900 11800 3 0 0 0 -1 -1 0 -1 -1 -1 -1 -1
T 6400 5600 5 10 0 0 0 0 1
numslots=0
T 6400 5400 5 10 0 0 0 0 1
symversion=1.0
T 6400 5200 5 10 0 0 0 0 1
description=Dual, 65Msps, 12-Bit, IF/Baseband ADC 
T 6400 5000 5 10 0 0 0 0 1
documentation=http://pdfserv.maxim-ic.com/en/ds/MAX12527.pdf
T 6400 5800 5 10 0 0 0 0 1
device=MAX12527
