v 20041228 2
T 100 2025 5 10 0 0 0 0 1
device=MAX6314
P 1100 300 1100 0 1 0 1
{
T 1150 100 5 8 1 1 0 0 1
pinnumber=1
T 1150 100 5 8 0 1 0 2 1
pinseq=1
T 1100 500 5 8 0 1 0 3 1
pintype=pwr
T 1100 350 9 8 1 1 0 3 1
pinlabel=GND
}
P 2100 1000 2300 1000 1 0 1
{
T 2100 1050 5 8 1 1 0 0 1
pinnumber=2
T 2100 950 5 8 0 1 0 2 1
pinseq=2
T 1950 1000 5 8 0 1 0 8 1
pintype=io
T 1950 1000 9 8 1 1 0 6 1
pinlabel=RESET
}
P 0 1000 200 1000 1 0 0
{
T 200 1050 5 8 1 1 0 6 1
pinnumber=3
T 200 950 5 8 0 1 0 8 1
pinseq=3
T 350 1000 5 8 0 1 0 2 1
pintype=in
T 350 1000 9 8 1 1 0 0 1
pinlabel=MR
}
P 1100 1900 1100 1600 1 0 0
{
T 1150 1700 5 8 1 1 0 0 1
pinnumber=4
T 1150 1700 5 8 0 1 0 2 1
pinseq=4
T 1100 1400 5 8 0 1 0 5 1
pintype=in
T 1100 1550 9 8 1 1 0 5 1
pinlabel=Vcc
}
B 300 300 1700 1300 3 0 0 0 -1 -1 0 0 -1 -1 -1 -1
T 100 2450 5 10 0 0 0 0 1
footprint=SOT143
T 2000 1650 8 10 1 1 0 6 1
refdes=U?
T 100 2250 5 10 0 0 0 0 1
description=68HC11/bidirectional-compatible uP reset circuit
T 100 1850 5 10 0 0 0 0 1
numslots=0
T 100 2650 5 10 0 0 0 0 1
documentation=http://pdfserv.maxim-ic.com/en/ds/MAX6314.pdf
T 100 1650 9 10 1 0 0 0 1
MAX6314
V 250 1000 50 6 0 0 0 -1 -1 0 -1 -1 -1 -1 -1
L 350 1125 550 1125 3 0 0 0 -1 -1
V 2050 1000 50 6 0 0 0 -1 -1 0 -1 -1 -1 -1 -1
L 1950 1125 1425 1125 3 0 0 0 -1 -1
