v 20041228 2
B 0 300 1500 1100 3 0 0 0 -1 -1 0 0 -1 -1 -1 -1
T 100 2000 5 10 0 0 0 0 1
device=MAX6018
P 700 1700 700 1400 1 0 0
{
T 750 1500 5 8 1 1 0 0 1
pinnumber=1
T 750 1500 5 8 0 1 0 2 1
pinseq=1
T 700 1200 5 8 0 1 0 5 1
pintype=pwr
T 700 1350 9 8 1 1 0 5 1
pinlabel=Vcc
}
P 1500 900 1800 900 1 0 1
{
T 1600 950 5 8 1 1 0 0 1
pinnumber=2
T 1600 850 5 8 0 1 0 2 1
pinseq=2
T 1450 900 5 8 0 1 0 8 1
pintype=out
T 1450 900 9 8 1 1 0 6 1
pinlabel=OUT
}
P 700 0 700 300 1 0 0
{
T 750 100 5 8 1 1 0 0 1
pinnumber=3
T 750 100 5 8 0 1 0 2 1
pinseq=3
T 700 500 5 8 0 1 0 3 1
pintype=pwr
T 700 350 9 8 1 1 0 3 1
pinlabel=GND
}
T 100 2200 5 10 0 0 0 0 1
footprint=SOT23
T 1500 1500 8 10 1 1 0 6 1
refdes=U?
T 100 2650 5 10 0 0 0 0 1
description=precision, micropower, low-dropout, 1.8V voltage reference
T 100 2450 5 10 0 0 0 0 1
numslots=0
T 100 2850 5 10 0 0 0 0 1
documentation=http://pdfserv.maxim-ic.com/en/ds/MAX6018.pdf
T 150 775 9 10 1 0 0 0 1
MAX6018
