v 20041228 2
B 300 300 1800 3000 3 0 0 0 -1 -1 0 0 -1 -1 -1 -1
T 300 3750 5 10 0 0 0 0 1
device=MAX807
T 2100 3400 8 10 1 1 0 6 1
refdes=U?
P 300 600 0 600 1 0 1
{
T 200 650 5 8 1 1 0 6 1
pinnumber=1
T 200 550 5 8 0 1 0 8 1
pinseq=1
T 350 600 9 8 1 1 0 0 1
pinlabel=PFI
T 350 600 5 8 0 1 0 2 1
pintype=in
}
P 300 900 0 900 1 0 1
{
T 200 950 5 8 1 1 0 6 1
pinnumber=2
T 200 850 5 8 0 1 0 8 1
pinseq=2
T 350 900 9 8 1 1 0 0 1
pinlabel=PFO
T 350 900 5 8 0 1 0 2 1
pintype=out
}
P 1200 3300 1200 3600 1 0 1
{
T 1250 3400 5 8 1 1 0 0 1
pinnumber=3
T 1250 3400 5 8 0 1 0 2 1
pinseq=3
T 1200 3250 9 8 1 1 0 5 1
pinlabel=Vcc
T 1200 3100 5 8 0 1 0 5 1
pintype=pwr
}
P 300 1200 0 1200 1 0 1
{
T 200 1250 5 8 1 1 0 6 1
pinnumber=4
T 200 1150 5 8 0 1 0 8 1
pinseq=4
T 350 1200 9 8 1 1 0 0 1
pinlabel=WDI
T 350 1200 5 8 0 1 0 2 1
pintype=in
}
P 1200 300 1200 0 1 0 1
{
T 1250 100 5 8 1 1 0 0 1
pinnumber=5
T 1250 100 5 8 0 1 0 2 1
pinseq=5
T 1200 350 9 8 1 1 0 3 1
pinlabel=GND
T 1200 500 5 8 0 1 0 3 1
pintype=pwr
}
P 300 1800 0 1800 1 0 1
{
T 200 1850 5 8 1 1 0 6 1
pinnumber=6
T 200 1750 5 8 0 1 0 8 1
pinseq=6
T 350 1800 9 8 1 1 0 0 1
pinlabel=MR
T 350 1800 5 8 0 1 0 2 1
pintype=in
}
P 300 2700 0 2700 1 0 1
{
T 200 2750 5 8 1 1 0 6 1
pinnumber=7
T 200 2650 5 8 0 1 0 8 1
pinseq=7
T 350 2700 9 8 1 1 0 0 1
pinlabel=LOW LINE
T 350 2700 5 8 0 1 0 2 1
pintype=out
}
P 2100 2400 2400 2400 1 0 1
{
T 2200 2450 5 8 1 1 0 0 1
pinnumber=8
T 2200 2350 5 8 0 1 0 2 1
pinseq=8
T 2050 2400 9 8 1 1 0 6 1
pinlabel=RESET
T 2050 2400 5 8 0 1 0 8 1
pintype=out
}
P 2100 2100 2400 2100 1 0 1
{
T 2200 2150 5 8 1 1 0 0 1
pinnumber=9
T 2200 2050 5 8 0 1 0 2 1
pinseq=9
T 2050 2100 9 8 1 1 0 6 1
pinlabel=RESET
T 2050 2100 5 8 0 1 0 8 1
pintype=out
}
P 300 1500 0 1500 1 0 1
{
T 200 1550 5 8 1 1 0 6 1
pinnumber=10
T 200 1450 5 8 0 1 0 8 1
pinseq=10
T 350 1500 9 8 1 1 0 0 1
pinlabel=WDO
T 350 1500 5 8 0 1 0 2 1
pintype=out
}
P 300 2400 0 2400 1 0 1
{
T 200 2450 5 8 1 1 0 6 1
pinnumber=11
T 200 2350 5 8 0 1 0 8 1
pinseq=11
T 350 2400 9 8 1 1 0 0 1
pinlabel=CE OUT
T 350 2400 5 8 0 1 0 2 1
pintype=out
}
P 300 2100 0 2100 1 0 1
{
T 200 2150 5 8 1 1 0 6 1
pinnumber=12
T 200 2050 5 8 0 1 0 8 1
pinseq=12
T 350 2100 9 8 1 1 0 0 1
pinlabel=CE IN
T 350 2100 5 8 0 1 0 2 1
pintype=in
}
P 2100 1200 2400 1200 1 0 1
{
T 2200 1250 5 8 1 1 0 0 1
pinnumber=13
T 2200 1150 5 8 0 1 0 2 1
pinseq=13
T 2050 1200 9 8 1 1 0 6 1
pinlabel=BATT ON
T 2050 1200 5 8 0 1 0 8 1
pintype=out
}
P 2100 1500 2400 1500 1 0 1
{
T 2200 1550 5 8 1 1 0 0 1
pinnumber=14
T 2200 1450 5 8 0 1 0 2 1
pinseq=14
T 2050 1500 9 8 1 1 0 6 1
pinlabel=BATT
T 2050 1500 5 8 0 1 0 8 1
pintype=in
}
P 2100 900 2400 900 1 0 1
{
T 2200 950 5 8 1 1 0 0 1
pinnumber=15
T 2200 850 5 8 0 1 0 2 1
pinseq=15
T 2050 900 9 8 1 1 0 6 1
pinlabel=BATT OK
T 2050 900 5 8 0 1 0 8 1
pintype=out
}
P 2100 3000 2400 3000 1 0 1
{
T 2200 3050 5 8 1 1 0 0 1
pinnumber=16
T 2200 2950 5 8 0 1 0 2 1
pinseq=16
T 2050 3000 9 8 1 1 0 6 1
pinlabel=OUT
T 2050 3000 5 8 0 1 0 8 1
pintype=out
}
L 350 2825 1100 2825 3 0 0 0 -1 -1
L 350 2525 600 2525 3 0 0 0 -1 -1
L 350 2225 600 2225 3 0 0 0 -1 -1
L 350 1925 600 1925 3 0 0 0 -1 -1
L 350 1625 750 1625 3 0 0 0 -1 -1
L 350 1025 650 1025 3 0 0 0 -1 -1
L 1500 2225 2050 2225 3 0 0 0 -1 -1
T 300 4150 5 10 0 0 0 0 1
footprint=DIP16
T 300 4350 5 10 0 0 0 0 1
description=uP supervisory circuit with 1.5% reset accuracy
T 300 3950 5 10 0 0 0 0 1
numslots=0
T 300 4550 5 10 0 0 0 0 1
documentation=http://pdfserv.maxim-ic.com/en/ds/MAX807L-MAX807N.pdf
T 300 3350 3 10 1 0 0 0 1
MAX807
