v 20041228 2
L 900 1800 1300 1000 3 0 0 0 -1 -1
L 900 1800 500 1000 3 0 0 0 -1 -1
L 1300 1000 900 1000 3 0 0 0 -1 -1
L 900 1000 500 1000 3 0 0 0 -1 -1
L 1025 1375 925 1375 3 0 0 0 -1 -1
L 950 1375 875 1275 3 0 0 0 -1 -1
L 875 1275 775 1275 3 0 0 0 -1 -1
L 925 1375 850 1275 3 0 0 0 -1 -1
L 1050 1125 1100 1125 3 0 0 0 -1 -1
L 725 1150 725 1100 3 0 0 0 -1 -1
L 700 1125 750 1125 3 0 0 0 -1 -1
L 2300 1800 2700 1000 3 0 0 0 -1 -1
L 2300 1800 1900 1000 3 0 0 0 -1 -1
L 2700 1000 2300 1000 3 0 0 0 -1 -1
L 2300 1000 1900 1000 3 0 0 0 -1 -1
L 2425 1375 2325 1375 3 0 0 0 -1 -1
L 2350 1375 2275 1275 3 0 0 0 -1 -1
L 2275 1275 2175 1275 3 0 0 0 -1 -1
L 2325 1375 2250 1275 3 0 0 0 -1 -1
L 2150 1125 2100 1125 3 0 0 0 -1 -1
L 2475 1150 2475 1100 3 0 0 0 -1 -1
L 2500 1125 2450 1125 3 0 0 0 -1 -1
L 1100 1400 1200 1500 3 0 0 0 -1 -1
L 1200 1500 2000 1500 3 0 0 0 -1 -1
L 2000 1500 2100 1400 3 0 0 0 -1 -1
L 900 1800 900 2000 3 0 0 0 -1 -1
L 900 2000 200 2000 3 0 0 0 -1 -1
L 2300 1800 2300 2000 3 0 0 0 -1 -1
L 2300 2000 3000 2000 3 0 0 0 -1 -1
L 1100 700 1100 1000 3 0 0 0 -1 -1
L 700 1000 700 800 3 0 0 0 -1 -1
L 700 800 200 800 3 0 0 0 -1 -1
L 2500 1000 2500 800 3 0 0 0 -1 -1
L 2500 800 3000 800 3 0 0 0 -1 -1
B 200 200 2800 2300 3 0 0 0 -1 -1 0 -1 -1 -1 -1 -1
P 3000 2000 3200 2000 1 0 1
{
T 3050 2050 5 8 1 1 0 0 1
pinnumber=8
T 3000 1950 5 8 0 1 0 2 1
pinseq=8
T 2950 2050 9 8 1 1 0 6 1
pinlabel=OUTB
T 2850 2000 5 8 0 1 0 8 1
pintype=out
}
P 0 2000 200 2000 1 0 0
{
T 150 2050 5 8 1 1 0 6 1
pinnumber=1
T 200 1950 5 8 0 1 0 8 1
pinseq=1
T 250 2050 9 8 1 1 0 0 1
pinlabel=OUTA
T 350 2000 5 8 0 1 0 2 1
pintype=out
}
P 1600 2500 1600 2700 1 0 1
{
T 1600 2450 9 8 1 1 0 5 1
pinlabel=V+
T 1650 2550 5 8 1 1 0 0 1
pinnumber=7
T 1650 2500 5 8 0 1 0 2 1
pinseq=7
T 1600 2200 5 8 0 1 0 5 1
pintype=pwr
}
P 1600 0 1600 200 1 0 0
{
T 1600 250 9 8 1 1 0 3 1
pinlabel=V-
T 1650 50 5 8 1 1 0 0 1
pinnumber=2
T 1650 100 5 8 0 1 0 2 1
pinseq=2
T 1600 500 5 8 0 1 0 3 1
pintype=pwr
}
P 0 800 200 800 1 0 0
{
T 150 850 5 8 1 1 0 6 1
pinnumber=3
T 200 750 5 8 0 1 0 8 1
pinseq=3
T 250 850 9 8 1 1 0 0 1
pinlabel=INA+
T 350 800 5 8 0 1 0 2 1
pintype=in
}
P 3000 800 3200 800 1 0 1
{
T 3050 850 5 8 1 1 0 0 1
pinnumber=4
T 3000 750 5 8 0 1 0 2 1
pinseq=4
T 2950 850 9 8 1 1 0 6 1
pinlabel=INB+
T 2850 800 5 8 0 1 0 8 1
pintype=in
}
L 1600 1500 1600 500 3 0 0 0 -1 -1
L 200 500 1600 500 3 0 0 0 -1 -1
P 0 500 200 500 1 0 0
{
T 150 550 5 8 1 1 0 6 1
pinnumber=5
T 200 450 5 8 0 1 0 8 1
pinseq=5
T 250 550 9 8 1 1 0 0 1
pinlabel=HYST
T 350 500 5 8 0 1 0 2 1
pintype=in
}
L 1100 700 1100 400 3 0 0 0 -1 -1
L 1100 400 3000 400 3 0 0 0 -1 -1
L 2100 1000 2100 400 3 0 0 0 -1 -1
P 3000 400 3200 400 1 0 1
{
T 3050 450 5 8 1 1 0 0 1
pinnumber=6
T 3000 350 5 8 0 1 0 2 1
pinseq=6
T 2950 450 9 8 1 1 0 6 1
pinlabel=REF
T 2850 400 5 8 0 1 0 8 1
pintype=out
}
T 3000 2600 8 10 1 1 0 6 1
refdes=U?
T 200 2850 5 10 0 0 0 0 1
device=MAX982
T 200 3250 5 10 0 0 0 0 1
footprint=DIP8
T 200 3450 5 10 0 0 0 0 1
description=ultra-low-power, open-drain, single/dual-supply comparator
T 200 3050 5 10 0 0 0 0 1
numslots=0
T 200 3650 5 10 0 0 0 0 1
documentation=http://pdfserv.maxim-ic.com/en/ds/MAX971-MAX984.pdf
T 200 2600 9 10 1 0 0 0 1
MAX982
