v 20031231 2
P 0 10600 525 10600 1 0 0
{
T 250 10625 5 8 1 1 0 0 1
pinnumber=29
T 250 10625 5 8 0 0 0 0 1
pinseq=29
T 650 10575 9 8 1 1 0 0 1
pinlabel=I/O
}
P 0 10400 525 10400 1 0 0
{
T 250 10425 5 8 1 1 0 0 1
pinnumber=30
T 250 10425 5 8 0 0 0 0 1
pinseq=30
T 650 10375 9 8 1 1 0 0 1
pinlabel=I/O
}
P 0 10200 525 10200 1 0 0
{
T 275 10225 5 8 1 1 0 0 1
pinnumber=31
T 275 10225 5 8 0 0 0 0 1
pinseq=31
T 650 10175 9 8 1 1 0 0 1
pinlabel=I/O
}
P 0 9600 525 9600 1 0 0
{
T 250 9625 5 8 1 1 0 0 1
pinnumber=38
T 250 9625 5 8 0 0 0 0 1
pinseq=38
T 650 9575 9 8 1 1 0 0 1
pinlabel=I/O
}
P 0 9400 525 9400 1 0 0
{
T 250 9425 5 8 1 1 0 0 1
pinnumber=39
T 250 9425 5 8 0 0 0 0 1
pinseq=39
T 650 9375 9 8 1 1 0 0 1
pinlabel=I/O
}
P 0 9200 525 9200 1 0 0
{
T 250 9225 5 8 1 1 0 0 1
pinnumber=40
T 250 9225 5 8 0 0 0 0 1
pinseq=40
T 650 9175 9 8 1 1 0 0 1
pinlabel=I/O
}
P 0 9000 525 9000 1 0 0
{
T 275 9025 5 8 1 1 0 0 1
pinnumber=41
T 275 9025 5 8 0 0 0 0 1
pinseq=41
T 650 8975 9 8 1 1 0 0 1
pinlabel=I/O
}
P 0 8800 525 8800 1 0 0
{
T 225 8825 5 8 1 1 0 0 1
pinnumber=44
T 225 8825 5 8 0 0 0 0 1
pinseq=44
T 650 8775 9 8 1 1 0 0 1
pinlabel=I/O
}
P 0 8600 525 8600 1 0 0
{
T 250 8625 5 8 1 1 0 0 1
pinnumber=45
T 250 8625 5 8 0 0 0 0 1
pinseq=45
T 650 8575 9 8 1 1 0 0 1
pinlabel=I/O
}
P 0 8400 525 8400 1 0 0
{
T 225 8425 5 8 1 1 0 0 1
pinnumber=46
T 225 8425 5 8 0 0 0 0 1
pinseq=46
T 650 8375 9 8 1 1 0 0 1
pinlabel=I/O
}
P 0 8200 525 8200 1 0 0
{
T 250 8225 5 8 1 1 0 0 1
pinnumber=47
T 250 8225 5 8 0 0 0 0 1
pinseq=47
T 650 8175 9 8 1 1 0 0 1
pinlabel=I/O
}
P 0 8000 525 8000 1 0 0
{
T 250 8025 5 8 1 1 0 0 1
pinnumber=53
T 250 8025 5 8 0 0 0 0 1
pinseq=53
T 650 7975 9 8 1 1 0 0 1
pinlabel=I/O
}
P 0 7800 525 7800 1 0 0
{
T 250 7825 5 8 1 1 0 0 1
pinnumber=54
T 250 7825 5 8 0 0 0 0 1
pinseq=54
T 650 7775 9 8 1 1 0 0 1
pinlabel=I/O
}
P 0 7600 525 7600 1 0 0
{
T 250 7625 5 8 1 1 0 0 1
pinnumber=55
T 250 7625 5 8 0 0 0 0 1
pinseq=55
T 650 7575 9 8 1 1 0 0 1
pinlabel=I/O
}
P 0 7400 525 7400 1 0 0
{
T 250 7425 5 8 1 1 0 0 1
pinnumber=56
T 250 7425 5 8 0 0 0 0 1
pinseq=56
T 650 7375 9 8 1 1 0 0 1
pinlabel=I/O
}
P 0 7200 525 7200 1 0 0
{
T 250 7225 5 8 1 1 0 0 1
pinnumber=57
T 250 7225 5 8 0 0 0 0 1
pinseq=57
T 650 7175 9 8 1 1 0 0 1
pinlabel=I/O
}
P 0 7000 525 7000 1 0 0
{
T 250 7025 5 8 1 1 0 0 1
pinnumber=58
T 250 7025 5 8 0 0 0 0 1
pinseq=58
T 650 6975 9 8 1 1 0 0 1
pinlabel=I/O
}
P 0 6800 525 6800 1 0 0
{
T 250 6825 5 8 1 1 0 0 1
pinnumber=60
T 250 6825 5 8 0 0 0 0 1
pinseq=60
T 650 6775 9 8 1 1 0 0 1
pinlabel=I/O
}
P 0 6600 525 6600 1 0 0
{
T 275 6625 5 8 1 1 0 0 1
pinnumber=61
T 275 6625 5 8 0 0 0 0 1
pinseq=61
T 650 6575 9 8 1 1 0 0 1
pinlabel=I/O
}
P 0 6400 525 6400 1 0 0
{
T 225 6425 5 8 1 1 0 0 1
pinnumber=62
T 225 6425 5 8 0 0 0 0 1
pinseq=62
T 650 6375 9 8 1 1 0 0 1
pinlabel=I/O
}
P 0 6200 525 6200 1 0 0
{
T 250 6225 5 8 1 1 0 0 1
pinnumber=63
T 250 6225 5 8 0 0 0 0 1
pinseq=63
T 650 6175 9 8 1 1 0 0 1
pinlabel=I/O
}
P 0 6000 525 6000 1 0 0
{
T 225 6025 5 8 1 1 0 0 1
pinnumber=64
T 225 6025 5 8 0 0 0 0 1
pinseq=64
T 650 5975 9 8 1 1 0 0 1
pinlabel=I/O
}
P 0 5800 525 5800 1 0 0
{
T 250 5825 5 8 1 1 0 0 1
pinnumber=65
T 250 5825 5 8 0 0 0 0 1
pinseq=65
T 650 5775 9 8 1 1 0 0 1
pinlabel=I/O
}
P 0 5600 525 5600 1 0 0
{
T 250 5625 5 8 1 1 0 0 1
pinnumber=67
T 250 5625 5 8 0 0 0 0 1
pinseq=67
T 650 5575 9 8 1 1 0 0 1
pinlabel=I/O
}
P 0 5400 525 5400 1 0 0
{
T 250 5425 5 8 1 1 0 0 1
pinnumber=68
T 250 5425 5 8 0 0 0 0 1
pinseq=68
T 650 5350 9 8 1 1 0 0 1
pinlabel=I/O
}
P 0 5200 525 5200 1 0 0
{
T 250 5225 5 8 1 1 0 0 1
pinnumber=69
T 250 5225 5 8 0 0 0 0 1
pinseq=69
T 650 5150 9 8 1 1 0 0 1
pinlabel=I/O
}
P 0 5000 525 5000 1 0 0
{
T 250 5025 5 8 1 1 0 0 1
pinnumber=70
T 250 5025 5 8 0 0 0 0 1
pinseq=70
T 650 4950 9 8 1 1 0 0 1
pinlabel=I/O
}
P 0 4800 525 4800 1 0 0
{
T 275 4825 5 8 1 1 0 0 1
pinnumber=71
T 275 4825 5 8 0 0 0 0 1
pinseq=71
T 650 4750 9 8 1 1 0 0 1
pinlabel=I/O
}
P 0 4600 525 4600 1 0 0
{
T 250 4625 5 8 1 1 0 0 1
pinnumber=73
T 250 4625 5 8 0 0 0 0 1
pinseq=73
T 650 4550 9 8 1 1 0 0 1
pinlabel=I/O
}
P 0 4400 525 4400 1 0 0
{
T 250 4425 5 8 1 1 0 0 1
pinnumber=74
T 250 4425 5 8 0 0 0 0 1
pinseq=74
T 650 4350 9 8 1 1 0 0 1
pinlabel=I/O
}
P 0 4200 525 4200 1 0 0
{
T 250 4225 5 8 1 1 0 0 1
pinnumber=75
T 250 4225 5 8 0 0 0 0 1
pinseq=75
T 650 4150 9 8 1 1 0 0 1
pinlabel=I/O
}
P 0 4000 525 4000 1 0 0
{
T 250 4025 5 8 1 1 0 0 1
pinnumber=83
T 250 4025 5 8 0 0 0 0 1
pinseq=83
T 650 3950 9 8 1 1 0 0 1
pinlabel=I/O
}
P 0 3800 525 3800 1 0 0
{
T 250 3825 5 8 1 1 0 0 1
pinnumber=85
T 250 3825 5 8 0 0 0 0 1
pinseq=85
T 650 3750 9 8 1 1 0 0 1
pinlabel=I/O
}
P 0 3600 525 3600 1 0 0
{
T 250 3625 5 8 1 1 0 0 1
pinnumber=86
T 250 3625 5 8 0 0 0 0 1
pinseq=86
T 650 3550 9 8 1 1 0 0 1
pinlabel=I/O
}
P 0 3400 525 3400 1 0 0
{
T 250 3425 5 8 1 1 0 0 1
pinnumber=87
T 250 3425 5 8 0 0 0 0 1
pinseq=87
T 650 3350 9 8 1 1 0 0 1
pinlabel=I/O
}
P 0 3200 525 3200 1 0 0
{
T 250 3225 5 8 1 1 0 0 1
pinnumber=88
T 250 3225 5 8 0 0 0 0 1
pinseq=88
T 650 3150 9 8 1 1 0 0 1
pinlabel=I/O
}
P 0 3000 525 3000 1 0 0
{
T 250 3025 5 8 1 1 0 0 1
pinnumber=89
T 250 3025 5 8 0 0 0 0 1
pinseq=89
T 650 2950 9 8 1 1 0 0 1
pinlabel=I/O
}
P 0 2800 525 2800 1 0 0
{
T 250 2825 5 8 1 1 0 0 1
pinnumber=90
T 250 2825 5 8 0 0 0 0 1
pinseq=90
T 650 2750 9 8 1 1 0 0 1
pinlabel=I/O
}
P 0 2600 525 2600 1 0 0
{
T 250 2625 5 8 1 1 0 0 1
pinnumber=92
T 250 2625 5 8 0 0 0 0 1
pinseq=92
T 650 2550 9 8 1 1 0 0 1
pinlabel=I/O
}
P 0 2400 525 2400 1 0 0
{
T 250 2425 5 8 1 1 0 0 1
pinnumber=93
T 250 2425 5 8 0 0 0 0 1
pinseq=93
T 650 2350 9 8 1 1 0 0 1
pinlabel=I/O
}
P 0 2200 525 2200 1 0 0
{
T 250 2225 5 8 1 1 0 0 1
pinnumber=94
T 250 2225 5 8 0 0 0 0 1
pinseq=94
T 650 2150 9 8 1 1 0 0 1
pinlabel=I/O
}
P 0 2000 525 2000 1 0 0
{
T 250 2025 5 8 1 1 0 0 1
pinnumber=95
T 250 2025 5 8 0 0 0 0 1
pinseq=95
T 650 1950 9 8 1 1 0 0 1
pinlabel=I/O
}
P 0 1800 525 1800 1 0 0
{
T 250 1825 5 8 1 1 0 0 1
pinnumber=96
T 250 1825 5 8 0 0 0 0 1
pinseq=96
T 650 1750 9 8 1 1 0 0 1
pinlabel=I/O
}
P 0 1600 525 1600 1 0 0
{
T 250 1625 5 8 1 1 0 0 1
pinnumber=97
T 250 1625 5 8 0 0 0 0 1
pinseq=97
T 650 1550 9 8 1 1 0 0 1
pinlabel=I/O
}
P 0 1400 525 1400 1 0 0
{
T 250 1425 5 8 1 1 0 0 1
pinnumber=99
T 250 1425 5 8 0 0 0 0 1
pinseq=99
T 650 1350 9 8 1 1 0 0 1
pinlabel=I/O
}
P 0 1200 525 1200 1 0 0
{
T 200 1225 5 8 1 1 0 0 1
pinnumber=100
T 200 1225 5 8 0 0 0 0 1
pinseq=100
T 650 1150 9 8 1 1 0 0 1
pinlabel=I/O
}
P 0 1000 525 1000 1 0 0
{
T 225 1025 5 8 1 1 0 0 1
pinnumber=101
T 225 1025 5 8 0 0 0 0 1
pinseq=101
T 650 950 9 8 1 1 0 0 1
pinlabel=I/O
}
P 0 800 525 800 1 0 0
{
T 200 825 5 8 1 1 0 0 1
pinnumber=102
T 200 825 5 8 0 0 0 0 1
pinseq=102
T 650 750 9 8 1 1 0 0 1
pinlabel=I/O
}
P 0 600 525 600 1 0 0
{
T 200 625 5 8 1 1 0 0 1
pinnumber=103
T 200 625 5 8 0 0 0 0 1
pinseq=103
T 650 550 9 8 1 1 0 0 1
pinlabel=I/O
}
P 0 11200 525 11200 1 0 0
{
T 250 11225 5 8 1 1 0 0 1
pinnumber=26
T 250 11225 5 8 0 0 0 0 1
pinseq=26
T 650 11150 9 8 1 1 0 0 1
pinlabel=I/O
}
P 0 11000 525 11000 1 0 0
{
T 250 11025 5 8 1 1 0 0 1
pinnumber=27
T 250 11025 5 8 0 0 0 0 1
pinseq=27
T 650 10975 9 8 1 1 0 0 1
pinlabel=I/O
}
P 0 10800 525 10800 1 0 0
{
T 250 10825 5 8 1 1 0 0 1
pinnumber=28
T 250 10825 5 8 0 0 0 0 1
pinseq=28
T 650 10775 9 8 1 1 0 0 1
pinlabel=I/O
}
P 0 11800 525 11800 1 0 0
{
T 300 11825 5 8 1 1 0 0 1
pinnumber=18
T 300 11825 5 8 0 0 0 0 1
pinseq=18
T 650 11750 9 8 1 1 0 0 1
pinlabel=I/O
}
P 0 11600 525 11600 1 0 0
{
T 225 11625 5 8 1 1 0 0 1
pinnumber=24
T 225 11625 5 8 0 0 0 0 1
pinseq=24
T 650 11550 9 8 1 1 0 0 1
pinlabel=I/O
}
P 0 11400 525 11400 1 0 0
{
T 250 11425 5 8 1 1 0 0 1
pinnumber=25
T 250 11425 5 8 0 0 0 0 1
pinseq=25
T 650 11350 9 8 1 1 0 0 1
pinlabel=I/O
}
P 0 12000 525 12000 1 0 0
{
T 300 12025 5 8 1 1 0 0 1
pinnumber=17
T 300 12025 5 8 0 0 0 0 1
pinseq=17
T 650 11950 9 8 1 1 0 0 1
pinlabel=I/O
}
P 0 12200 525 12200 1 0 0
{
T 300 12225 5 8 1 1 0 0 1
pinnumber=16
T 300 12225 5 8 0 0 0 0 1
pinseq=16
T 650 12150 9 8 1 1 0 0 1
pinlabel=I/O  RDY / /BSY
}
P 0 13000 525 13000 1 0 0
{
T 300 13025 5 8 1 1 0 0 1
pinnumber=12
T 300 13025 5 8 0 0 0 0 1
pinseq=12
T 650 12950 9 8 1 1 0 0 1
pinlabel=I/O
}
P 0 13200 525 13200 1 0 0
{
T 325 13225 5 8 1 1 0 0 1
pinnumber=11
T 325 13225 5 8 0 0 0 0 1
pinseq=11
T 650 13150 9 8 1 1 0 0 1
pinlabel=I/O
}
P 0 13400 525 13400 1 0 0
{
T 300 13425 5 8 1 1 0 0 1
pinnumber=10
T 300 13425 5 8 0 0 0 0 1
pinseq=10
T 650 13350 9 8 1 1 0 0 1
pinlabel=I/O  CLKUSR
}
P 0 14000 525 14000 1 0 0
{
T 200 14025 5 8 1 1 0 0 1
pinnumber=184
T 200 14025 5 8 0 0 0 0 1
pinseq=184
T 650 13950 9 8 1 1 0 0 1
pinlabel=IN
}
P 0 14200 525 14200 1 0 0
{
T 200 14225 5 8 1 1 0 0 1
pinnumber=182
T 200 14225 5 8 0 0 0 0 1
pinseq=182
T 650 14150 9 8 1 1 0 0 1
pinlabel=IN
}
P 0 14400 525 14400 1 0 0
{
T 250 14425 5 8 1 1 0 0 1
pinnumber=80
T 250 14425 5 8 0 0 0 0 1
pinseq=80
T 650 14350 9 8 1 1 0 0 1
pinlabel=IN
}
P 0 14600 525 14600 1 0 0
{
T 250 14625 5 8 1 1 0 0 1
pinnumber=78
T 250 14625 5 8 0 0 0 0 1
pinseq=78
T 650 14550 9 8 1 1 0 0 1
pinlabel=IN
}
P 0 14800 525 14800 1 0 0
{
T 200 14825 5 8 1 1 0 0 1
pinnumber=183
T 200 14825 5 8 0 0 0 0 1
pinseq=183
T 650 14750 9 8 1 1 0 0 1
pinlabel=IN CLK
}
P 0 15000 525 15000 1 0 0
{
T 250 15025 5 8 1 1 0 0 1
pinnumber=79
T 250 15025 5 8 0 0 0 0 1
pinseq=79
T 650 14950 9 8 1 1 0 0 1
pinlabel=IN CLK
}
P 0 15600 525 15600 1 0 0
{
T 200 15625 5 8 1 1 0 0 1
pinnumber=107
T 200 15625 5 8 0 0 0 0 1
pinseq=107
T 650 15550 9 8 1 1 0 0 1
pinlabel=MSEL1
}
P 0 15800 525 15800 1 0 0
{
T 200 15825 5 8 1 1 0 0 1
pinnumber=108
T 200 15825 5 8 0 0 0 0 1
pinseq=108
T 650 15750 9 8 1 1 0 0 1
pinlabel=MSEL0
}
P 0 16400 525 16400 1 0 0
{
T 325 16425 5 8 1 1 0 0 1
pinnumber=2
T 325 16425 5 8 0 0 0 0 1
pinseq=2
T 650 16350 9 8 1 1 0 0 1
pinlabel=CONF_DONE
}
P 0 16800 525 16800 1 0 0
{
T 225 16825 5 8 1 1 0 0 1
pinnumber=155
T 225 16825 5 8 0 0 0 0 1
pinseq=155
T 650 16750 9 8 1 1 0 0 1
pinlabel=DCLK
}
P 0 17000 525 17000 1 0 0
{
T 225 17025 5 8 1 1 0 0 1
pinnumber=156
T 225 17025 5 8 0 0 0 0 1
pinseq=156
T 650 16950 9 8 1 1 0 0 1
pinlabel=DATA0
}
B 525 250 6725 17000 3 0 0 0 -1 -1 0 -1 -1 -1 -1 -1
T 8050 17300 5 8 0 0 0 0 1
device=EPF10K10QC208
V 475 16600 50 6 0 0 0 -1 -1 0 -1 -1 -1 -1 -1
P 0 16600 425 16600 1 0 0
{
T 225 16625 5 8 1 1 0 0 1
pinnumber=52
T 225 16625 5 8 0 0 0 0 1
pinseq=52
T 650 16550 9 8 1 1 0 0 1
pinlabel=/STATUS
}
V 475 16200 50 6 0 0 0 -1 -1 0 -1 -1 -1 -1 -1
P 0 16200 425 16200 1 0 0
{
T 200 16225 5 8 1 1 0 0 1
pinnumber=105
T 200 16225 5 8 0 0 0 0 1
pinseq=105
T 650 16150 9 8 1 1 0 0 1
pinlabel=/CONFIG
}
V 475 16000 50 6 0 0 0 -1 -1 0 -1 -1 -1 -1 -1
P 0 16000 425 16000 1 0 0
{
T 200 16025 5 8 1 1 0 0 1
pinnumber=154
T 200 16025 5 8 0 0 0 0 1
pinseq=154
T 650 15950 9 8 1 1 0 0 1
pinlabel=/CE
}
P 7800 16200 7250 16200 1 0 0
{
T 7375 16225 5 8 1 1 0 0 1
pinnumber=50
T 7375 16225 5 8 0 0 0 0 1
pinseq=50
T 6800 16150 9 8 1 1 0 0 1
pinlabel=TMS
}
V 7300 17000 50 6 0 0 0 -1 -1 0 -1 -1 -1 -1 -1
P 7800 17000 7350 17000 1 0 0
{
T 7440 17025 5 8 1 1 0 0 1
pinnumber=3
T 7440 17025 5 8 0 0 0 0 1
pinseq=3
T 6700 16950 9 8 1 1 0 0 1
pinlabel=/CEO
}
P 7800 16600 7250 16600 1 0 0
{
T 7450 16625 5 8 1 1 0 0 1
pinnumber=1
T 7450 16625 5 8 0 0 0 0 1
pinseq=1
T 6800 16550 9 8 1 1 0 0 1
pinlabel=TCK
}
P 7800 16400 7250 16400 1 0 0
{
T 7425 16425 5 8 1 1 0 0 1
pinnumber=4
T 7425 16425 5 8 0 0 0 0 1
pinseq=4
T 6800 16350 9 8 1 1 0 0 1
pinlabel=TDO
}
V 7300 16000 50 6 0 0 0 -1 -1 0 -1 -1 -1 -1 -1
P 7800 16000 7350 16000 1 0 0
{
T 7390 16025 5 8 1 1 0 0 1
pinnumber=51
T 7390 16025 5 8 0 0 0 0 1
pinseq=51
T 6650 15950 9 8 1 1 0 0 1
pinlabel=/TAST
}
P 7800 15800 7250 15800 1 0 0
{
T 7375 15825 5 8 1 1 0 0 1
pinnumber=153
T 7375 15825 5 8 0 0 0 0 1
pinseq=153
T 6850 15750 9 8 1 1 0 0 1
pinlabel=TDI
}
P 7800 15200 7250 15200 1 0 0
{
T 7375 15225 5 8 1 1 0 0 1
pinnumber=19
T 7375 15225 5 8 0 0 0 0 1
pinseq=19
T 6050 15150 9 8 1 1 0 0 1
pinlabel=INIT_DONE I/O
}
P 7800 14200 7250 14200 1 0 0
{
T 7350 14225 5 8 1 1 0 0 1
pinnumber=206
T 7350 14225 5 8 0 0 0 0 1
pinseq=206
T 6525 14150 9 8 1 1 0 0 1
pinlabel=/WS I/O
}
P 7800 14600 7250 14600 1 0 0
{
T 7350 14625 5 8 1 1 0 0 1
pinnumber=208
T 7350 14625 5 8 0 0 0 0 1
pinseq=208
T 6575 14550 9 8 1 1 0 0 1
pinlabel=/CS I/O
}
P 7800 14400 7250 14400 1 0 0
{
T 7350 14425 5 8 1 1 0 0 1
pinnumber=207
T 7350 14425 5 8 0 0 0 0 1
pinseq=207
T 6650 14350 9 8 1 1 0 0 1
pinlabel=CS I/O
}
P 7800 13600 7250 13600 1 0 0
{
T 7350 13625 5 8 1 1 0 0 1
pinnumber=203
T 7350 13625 5 8 0 0 0 0 1
pinseq=203
T 6900 13550 9 8 1 1 0 0 1
pinlabel=I/O
}
P 7800 14000 7250 14000 1 0 0
{
T 7350 14025 5 8 1 1 0 0 1
pinnumber=205
T 7350 14025 5 8 0 0 0 0 1
pinseq=205
T 6900 13950 9 8 1 1 0 0 1
pinlabel=I/O
}
P 7800 13800 7250 13800 1 0 0
{
T 7350 13825 5 8 1 1 0 0 1
pinnumber=204
T 7350 13825 5 8 0 0 0 0 1
pinseq=204
T 6650 13750 9 8 1 1 0 0 1
pinlabel=RS I/O
}
P 7800 13000 7250 13000 1 0 0
{
T 7350 13025 5 8 1 1 0 0 1
pinnumber=199
T 7350 13025 5 8 0 0 0 0 1
pinseq=199
T 6900 12950 9 8 1 1 0 0 1
pinlabel=I/O
}
P 7800 13400 7250 13400 1 0 0
{
T 7350 13425 5 8 1 1 0 0 1
pinnumber=202
T 7350 13425 5 8 0 0 0 0 1
pinseq=202
T 6900 13350 9 8 1 1 0 0 1
pinlabel=I/O
}
P 7800 13200 7250 13200 1 0 0
{
T 7350 13225 5 8 1 1 0 0 1
pinnumber=200
T 7350 13225 5 8 0 0 0 0 1
pinseq=200
T 6900 13150 9 8 1 1 0 0 1
pinlabel=I/O
}
P 7800 12400 7250 12400 1 0 0
{
T 7350 12425 5 8 1 1 0 0 1
pinnumber=196
T 7350 12425 5 8 0 0 0 0 1
pinseq=196
T 6900 12350 9 8 1 1 0 0 1
pinlabel=I/O
}
P 7800 12800 7250 12800 1 0 0
{
T 7350 12825 5 8 1 1 0 0 1
pinnumber=198
T 7350 12825 5 8 0 0 0 0 1
pinseq=198
T 6900 12750 9 8 1 1 0 0 1
pinlabel=I/O
}
P 7800 12600 7250 12600 1 0 0
{
T 7350 12625 5 8 1 1 0 0 1
pinnumber=197
T 7350 12625 5 8 0 0 0 0 1
pinseq=197
T 6900 12550 9 8 1 1 0 0 1
pinlabel=I/O
}
P 7800 11800 7250 11800 1 0 0
{
T 7350 11825 5 8 1 1 0 0 1
pinnumber=192
T 7350 11825 5 8 0 0 0 0 1
pinseq=192
T 6900 11750 9 8 1 1 0 0 1
pinlabel=I/O
}
P 7800 12200 7250 12200 1 0 0
{
T 7350 12225 5 8 1 1 0 0 1
pinnumber=195
T 7350 12225 5 8 0 0 0 0 1
pinseq=195
T 6900 12150 9 8 1 1 0 0 1
pinlabel=I/O
}
P 7800 12000 7250 12000 1 0 0
{
T 7350 12025 5 8 1 1 0 0 1
pinnumber=193
T 7350 12025 5 8 0 0 0 0 1
pinseq=193
T 6900 11950 9 8 1 1 0 0 1
pinlabel=I/O
}
P 7800 11200 7250 11200 1 0 0
{
T 7350 11225 5 8 1 1 0 0 1
pinnumber=189
T 7350 11225 5 8 0 0 0 0 1
pinseq=189
T 6900 11150 9 8 1 1 0 0 1
pinlabel=I/O
}
P 7800 11600 7250 11600 1 0 0
{
T 7375 11625 5 8 1 1 0 0 1
pinnumber=191
T 7375 11625 5 8 0 0 0 0 1
pinseq=191
T 6900 11550 9 8 1 1 0 0 1
pinlabel=I/O
}
P 7800 11400 7250 11400 1 0 0
{
T 7350 11425 5 8 1 1 0 0 1
pinnumber=190
T 7350 11425 5 8 0 0 0 0 1
pinseq=190
T 6900 11350 9 8 1 1 0 0 1
pinlabel=I/O
}
P 7800 11000 7250 11000 1 0 0
{
T 7350 11025 5 8 1 1 0 0 1
pinnumber=187
T 7350 11025 5 8 0 0 0 0 1
pinseq=187
T 6900 10950 9 8 1 1 0 0 1
pinlabel=I/O
}
P 7800 10400 7250 10400 1 0 0
{
T 7375 10425 5 8 1 1 0 0 1
pinnumber=179
T 7375 10425 5 8 0 0 0 0 1
pinseq=179
T 6900 10350 9 8 1 1 0 0 1
pinlabel=I/O
}
P 7800 10800 7250 10800 1 0 0
{
T 7350 10825 5 8 1 1 0 0 1
pinnumber=186
T 7350 10825 5 8 0 0 0 0 1
pinseq=186
T 6175 10750 9 8 1 1 0 0 1
pinlabel=DEV_OE I/O
}
P 7800 10600 7250 10600 1 0 0
{
T 7350 10625 5 8 1 1 0 0 1
pinnumber=180
T 7350 10625 5 8 0 0 0 0 1
pinseq=180
T 6025 10550 9 8 1 1 0 0 1
pinlabel=/DEV_CLA I/O
}
P 7800 9800 7250 9800 1 0 0
{
T 7350 9825 5 8 1 1 0 0 1
pinnumber=175
T 7350 9825 5 8 0 0 0 0 1
pinseq=175
T 6900 9750 9 8 1 1 0 0 1
pinlabel=I/O
}
P 7800 10200 7250 10200 1 0 0
{
T 7350 10225 5 8 1 1 0 0 1
pinnumber=177
T 7350 10225 5 8 0 0 0 0 1
pinseq=177
T 6900 10150 9 8 1 1 0 0 1
pinlabel=I/O
}
P 7800 10000 7250 10000 1 0 0
{
T 7350 10025 5 8 1 1 0 0 1
pinnumber=176
T 7350 10025 5 8 0 0 0 0 1
pinseq=176
T 6900 9950 9 8 1 1 0 0 1
pinlabel=I/O
}
P 7800 9200 7250 9200 1 0 0
{
T 7350 9225 5 8 1 1 0 0 1
pinnumber=172
T 7350 9225 5 8 0 0 0 0 1
pinseq=172
T 6900 9150 9 8 1 1 0 0 1
pinlabel=I/O
}
P 7800 9600 7250 9600 1 0 0
{
T 7350 9625 5 8 1 1 0 0 1
pinnumber=174
T 7350 9625 5 8 0 0 0 0 1
pinseq=174
T 6900 9550 9 8 1 1 0 0 1
pinlabel=I/O
}
P 7800 9400 7250 9400 1 0 0
{
T 7350 9425 5 8 1 1 0 0 1
pinnumber=173
T 7350 9425 5 8 0 0 0 0 1
pinseq=173
T 6900 9350 9 8 1 1 0 0 1
pinlabel=I/O
}
P 7800 9000 7250 9000 1 0 0
{
T 7350 9025 5 8 1 1 0 0 1
pinnumber=170
T 7350 9025 5 8 0 0 0 0 1
pinseq=170
T 6900 8950 9 8 1 1 0 0 1
pinlabel=I/O
}
P 7800 8400 7250 8400 1 0 0
{
T 7375 8425 5 8 1 1 0 0 1
pinnumber=167
T 7375 8425 5 8 0 0 0 0 1
pinseq=167
T 6900 8350 9 8 1 1 0 0 1
pinlabel=I/O
}
P 7800 8800 7250 8800 1 0 0
{
T 7350 8825 5 8 1 1 0 0 1
pinnumber=169
T 7350 8825 5 8 0 0 0 0 1
pinseq=169
T 6900 8750 9 8 1 1 0 0 1
pinlabel=I/O
}
P 7800 8600 7250 8600 1 0 0
{
T 7350 8625 5 8 1 1 0 0 1
pinnumber=168
T 7350 8625 5 8 0 0 0 0 1
pinseq=168
T 6900 8550 9 8 1 1 0 0 1
pinlabel=I/O
}
P 7800 7800 7250 7800 1 0 0
{
T 7350 7825 5 8 1 1 0 0 1
pinnumber=163
T 7350 7825 5 8 0 0 0 0 1
pinseq=163
T 6900 7750 9 8 1 1 0 0 1
pinlabel=I/O
}
P 7800 8200 7250 8200 1 0 0
{
T 7350 8225 5 8 1 1 0 0 1
pinnumber=166
T 7350 8225 5 8 0 0 0 0 1
pinseq=166
T 6325 8150 9 8 1 1 0 0 1
pinlabel=DATA7 I/O
}
P 7800 8000 7250 8000 1 0 0
{
T 7350 8025 5 8 1 1 0 0 1
pinnumber=164
T 7350 8025 5 8 0 0 0 0 1
pinseq=164
T 6325 7950 9 8 1 1 0 0 1
pinlabel=DATA6 I/O
}
P 7800 7200 7250 7200 1 0 0
{
T 7350 7225 5 8 1 1 0 0 1
pinnumber=160
T 7350 7225 5 8 0 0 0 0 1
pinseq=160
T 6900 7150 9 8 1 1 0 0 1
pinlabel=I/O
}
P 7800 7600 7250 7600 1 0 0
{
T 7350 7625 5 8 1 1 0 0 1
pinnumber=162
T 7350 7625 5 8 0 0 0 0 1
pinseq=162
T 6325 7550 9 8 1 1 0 0 1
pinlabel=DATA5 I/O
}
P 7800 7400 7250 7400 1 0 0
{
T 7375 7425 5 8 1 1 0 0 1
pinnumber=161
T 7375 7425 5 8 0 0 0 0 1
pinseq=161
T 6325 7350 9 8 1 1 0 0 1
pinlabel=DATA4 I/O
}
P 7800 7000 7250 7000 1 0 0
{
T 7350 7025 5 8 1 1 0 0 1
pinnumber=159
T 7350 7025 5 8 0 0 0 0 1
pinseq=159
T 6325 6950 9 8 1 1 0 0 1
pinlabel=DATA3 I/O
}
P 7800 6400 7250 6400 1 0 0
{
T 7350 6425 5 8 1 1 0 0 1
pinnumber=150
T 7350 6425 5 8 0 0 0 0 1
pinseq=150
T 6900 6350 9 8 1 1 0 0 1
pinlabel=I/O
}
P 7800 6800 7250 6800 1 0 0
{
T 7350 6825 5 8 1 1 0 0 1
pinnumber=158
T 7350 6825 5 8 0 0 0 0 1
pinseq=158
T 6325 6750 9 8 1 1 0 0 1
pinlabel=DATA2 I/O
}
P 7800 6600 7250 6600 1 0 0
{
T 7350 6625 5 8 1 1 0 0 1
pinnumber=157
T 7350 6625 5 8 0 0 0 0 1
pinseq=157
T 6325 6550 9 8 1 1 0 0 1
pinlabel=DATA1 I/O
}
P 7800 5800 7250 5800 1 0 0
{
T 7350 5825 5 8 1 1 0 0 1
pinnumber=147
T 7350 5825 5 8 0 0 0 0 1
pinseq=147
T 6900 5750 9 8 1 1 0 0 1
pinlabel=I/O
}
P 7800 6200 7250 6200 1 0 0
{
T 7350 6225 5 8 1 1 0 0 1
pinnumber=149
T 7350 6225 5 8 0 0 0 0 1
pinseq=149
T 6900 6150 9 8 1 1 0 0 1
pinlabel=I/O
}
P 7800 6000 7250 6000 1 0 0
{
T 7350 6025 5 8 1 1 0 0 1
pinnumber=148
T 7350 6025 5 8 0 0 0 0 1
pinseq=148
T 6900 5950 9 8 1 1 0 0 1
pinlabel=I/O
}
P 7800 5200 7250 5200 1 0 0
{
T 7350 5225 5 8 1 1 0 0 1
pinnumber=142
T 7350 5225 5 8 0 0 0 0 1
pinseq=142
T 6900 5150 9 8 1 1 0 0 1
pinlabel=I/O
}
P 7800 5600 7250 5600 1 0 0
{
T 7350 5625 5 8 1 1 0 0 1
pinnumber=144
T 7350 5625 5 8 0 0 0 0 1
pinseq=144
T 6900 5550 9 8 1 1 0 0 1
pinlabel=I/O
}
P 7800 5400 7250 5400 1 0 0
{
T 7350 5425 5 8 1 1 0 0 1
pinnumber=143
T 7350 5425 5 8 0 0 0 0 1
pinseq=143
T 6900 5350 9 8 1 1 0 0 1
pinlabel=I/O
}
P 7800 5000 7250 5000 1 0 0
{
T 7350 5025 5 8 1 1 0 0 1
pinnumber=141
T 7350 5025 5 8 0 0 0 0 1
pinseq=141
T 6900 4950 9 8 1 1 0 0 1
pinlabel=I/O
}
P 7800 4400 7250 4400 1 0 0
{
T 7350 4425 5 8 1 1 0 0 1
pinnumber=136
T 7350 4425 5 8 0 0 0 0 1
pinseq=136
T 6900 4350 9 8 1 1 0 0 1
pinlabel=I/O
}
P 7800 4200 7250 4200 1 0 0
{
T 7350 4225 5 8 1 1 0 0 1
pinnumber=135
T 7350 4225 5 8 0 0 0 0 1
pinseq=135
T 6900 4150 9 8 1 1 0 0 1
pinlabel=I/O
}
P 7800 4000 7250 4000 1 0 0
{
T 7350 4025 5 8 1 1 0 0 1
pinnumber=134
T 7350 4025 5 8 0 0 0 0 1
pinseq=134
T 6900 3950 9 8 1 1 0 0 1
pinlabel=I/O
}
P 7800 3800 7250 3800 1 0 0
{
T 7350 3825 5 8 1 1 0 0 1
pinnumber=133
T 7350 3825 5 8 0 0 0 0 1
pinseq=133
T 6900 3750 9 8 1 1 0 0 1
pinlabel=I/O
}
P 7800 3600 7250 3600 1 0 0
{
T 7350 3625 5 8 1 1 0 0 1
pinnumber=132
T 7350 3625 5 8 0 0 0 0 1
pinseq=132
T 6900 3550 9 8 1 1 0 0 1
pinlabel=I/O
}
P 7800 3400 7250 3400 1 0 0
{
T 7350 3425 5 8 1 1 0 0 1
pinnumber=131
T 7350 3425 5 8 0 0 0 0 1
pinseq=131
T 6900 3350 9 8 1 1 0 0 1
pinlabel=I/O
}
P 7800 3200 7250 3200 1 0 0
{
T 7350 3225 5 8 1 1 0 0 1
pinnumber=128
T 7350 3225 5 8 0 0 0 0 1
pinseq=128
T 6900 3150 9 8 1 1 0 0 1
pinlabel=I/O
}
P 7800 3000 7250 3000 1 0 0
{
T 7350 3025 5 8 1 1 0 0 1
pinnumber=127
T 7350 3025 5 8 0 0 0 0 1
pinseq=127
T 6900 2950 9 8 1 1 0 0 1
pinlabel=I/O
}
P 7800 2400 7250 2400 1 0 0
{
T 7325 2425 5 8 1 1 0 0 1
pinnumber=122
T 7325 2425 5 8 0 0 0 0 1
pinseq=122
T 6900 2350 9 8 1 1 0 0 1
pinlabel=I/O
}
P 7800 2200 7250 2200 1 0 0
{
T 7350 2225 5 8 1 1 0 0 1
pinnumber=121
T 7350 2225 5 8 0 0 0 0 1
pinseq=121
T 6900 2150 9 8 1 1 0 0 1
pinlabel=I/O
}
P 7800 2000 7250 2000 1 0 0
{
T 7325 2025 5 8 1 1 0 0 1
pinnumber=120
T 7325 2025 5 8 0 0 0 0 1
pinseq=120
T 6900 1950 9 8 1 1 0 0 1
pinlabel=I/O
}
P 7800 1800 7250 1800 1 0 0
{
T 7350 1825 5 8 1 1 0 0 1
pinnumber=119
T 7350 1825 5 8 0 0 0 0 1
pinseq=119
T 6900 1750 9 8 1 1 0 0 1
pinlabel=I/O
}
P 7800 1600 7250 1600 1 0 0
{
T 7350 1625 5 8 1 1 0 0 1
pinnumber=116
T 7350 1625 5 8 0 0 0 0 1
pinseq=116
T 6900 1550 9 8 1 1 0 0 1
pinlabel=I/O
}
P 7800 1400 7250 1400 1 0 0
{
T 7350 1425 5 8 1 1 0 0 1
pinnumber=115
T 7350 1425 5 8 0 0 0 0 1
pinseq=115
T 6900 1350 9 8 1 1 0 0 1
pinlabel=I/O
}
P 7800 600 7250 600 1 0 0
{
T 7350 625 5 8 1 1 0 0 1
pinnumber=112
T 7350 625 5 8 0 0 0 0 1
pinseq=112
T 6900 550 9 8 1 1 0 0 1
pinlabel=I/O
}
P 7800 400 7250 400 1 0 0
{
T 7350 425 5 8 1 1 0 0 1
pinnumber=111
T 7350 425 5 8 0 0 0 0 1
pinseq=111
T 6900 350 9 8 1 1 0 0 1
pinlabel=I/O
}
P 0 400 525 400 1 0 0
{
T 200 425 5 8 1 1 0 0 1
pinnumber=104
T 200 425 5 8 0 0 0 0 1
pinseq=104
T 650 350 9 8 1 1 0 0 1
pinlabel=I/O
}
P 0 12800 525 12800 1 0 0
{
T 300 12825 5 8 1 1 0 0 1
pinnumber=13
T 300 12825 5 8 0 0 0 0 1
pinseq=13
T 650 12750 9 8 1 1 0 0 1
pinlabel=I/O
}
T 500 0 9 10 1 0 0 0 1
EPF10K10QC208
T 7200 17300 8 10 1 1 0 6 1
refdes=U?
