v 20031231 2
P 200 0 200 200 1 0 0
{
T 250 50 5 6 0 1 0 0 1
pinnumber=1
T 250 50 5 6 0 0 0 0 1
pinseq=1
T 250 50 5 6 0 1 0 0 1 
pinlabel=1
T 250 50 5 6 0 1 0 0 1 
pintype=pwr
}
L 50 200 350 200 3 0 0 0 -1 -1
T 75 250 9 8 1 0 0 0 1
-12V
T 300 0 8 8 0 0 0 0 1
net=-12V:1
