v 20031231 2
T 200 200 5 6 0 0 0 0 1
device=GND
T 100 300 5 6 0 0 0 0 1
orcad_xsize=2
T 100 400 5 6 0 0 0 0 1
orcad_ysize=1
P 0 100 0 0 1 0 1
{
T 0 200 3 6 1 1 0 0 1
pinnumber=1
T 0 200 3 6 0 0 0 0 1
pinseq=1
T 200 500 3 6 0 0 0 0 1
pintype=pwr
T 176 600 3 6 0 0 0 0 1
pinlabel=PWR
}
V 0 200 100 3 0 0 0 -1 -1 0 -1 -1 -1 -1 -1
