PROTEL NETLIST 2.0
[
DESIGNATOR
AMP1
FOOTPRINT
none
PARTTYPE
cascade-amp
DESCRIPTION
cascade-amp
Part Field 1
*
Part Field 2
*
Part Field 3
*
Part Field 4
*
Part Field 5
*
Part Field 6
*
Part Field 7
*
Part Field 8
*
Part Field 9
*
Part Field 10
*
Part Field 11
*
Part Field 12
*
Part Field 13
*
Part Field 14
*
Part Field 15
*
Part Field 16
*
LIBRARYFIELD1

LIBRARYFIELD2

LIBRARYFIELD3

LIBRARYFIELD4

LIBRARYFIELD5

LIBRARYFIELD6

LIBRARYFIELD7

LIBRARYFIELD8

]
[
DESIGNATOR
AMP2
FOOTPRINT
none
PARTTYPE
cascade-amp
DESCRIPTION
cascade-amp
Part Field 1
*
Part Field 2
*
Part Field 3
*
Part Field 4
*
Part Field 5
*
Part Field 6
*
Part Field 7
*
Part Field 8
*
Part Field 9
*
Part Field 10
*
Part Field 11
*
Part Field 12
*
Part Field 13
*
Part Field 14
*
Part Field 15
*
Part Field 16
*
LIBRARYFIELD1

LIBRARYFIELD2

LIBRARYFIELD3

LIBRARYFIELD4

LIBRARYFIELD5

LIBRARYFIELD6

LIBRARYFIELD7

LIBRARYFIELD8

]
[
DESIGNATOR
DEF1
FOOTPRINT
none
PARTTYPE
cascade-defaults
DESCRIPTION
cascade-defaults
Part Field 1
*
Part Field 2
*
Part Field 3
*
Part Field 4
*
Part Field 5
*
Part Field 6
*
Part Field 7
*
Part Field 8
*
Part Field 9
*
Part Field 10
*
Part Field 11
*
Part Field 12
*
Part Field 13
*
Part Field 14
*
Part Field 15
*
Part Field 16
*
LIBRARYFIELD1

LIBRARYFIELD2

LIBRARYFIELD3

LIBRARYFIELD4

LIBRARYFIELD5

LIBRARYFIELD6

LIBRARYFIELD7

LIBRARYFIELD8

]
[
DESIGNATOR
DEFAULTS
FOOTPRINT
unknown
PARTTYPE
cascade-defaults-top
DESCRIPTION
cascade-defaults-top
Part Field 1
*
Part Field 2
*
Part Field 3
*
Part Field 4
*
Part Field 5
*
Part Field 6
*
Part Field 7
*
Part Field 8
*
Part Field 9
*
Part Field 10
*
Part Field 11
*
Part Field 12
*
Part Field 13
*
Part Field 14
*
Part Field 15
*
Part Field 16
*
LIBRARYFIELD1

LIBRARYFIELD2

LIBRARYFIELD3

LIBRARYFIELD4

LIBRARYFIELD5

LIBRARYFIELD6

LIBRARYFIELD7

LIBRARYFIELD8

]
[
DESIGNATOR
FL1
FOOTPRINT
none
PARTTYPE
cascade-filter
DESCRIPTION
cascade-filter
Part Field 1
*
Part Field 2
*
Part Field 3
*
Part Field 4
*
Part Field 5
*
Part Field 6
*
Part Field 7
*
Part Field 8
*
Part Field 9
*
Part Field 10
*
Part Field 11
*
Part Field 12
*
Part Field 13
*
Part Field 14
*
Part Field 15
*
Part Field 16
*
LIBRARYFIELD1

LIBRARYFIELD2

LIBRARYFIELD3

LIBRARYFIELD4

LIBRARYFIELD5

LIBRARYFIELD6

LIBRARYFIELD7

LIBRARYFIELD8

]
[
DESIGNATOR
MX1
FOOTPRINT
none
PARTTYPE
cascade-mixer
DESCRIPTION
cascade-mixer
Part Field 1
*
Part Field 2
*
Part Field 3
*
Part Field 4
*
Part Field 5
*
Part Field 6
*
Part Field 7
*
Part Field 8
*
Part Field 9
*
Part Field 10
*
Part Field 11
*
Part Field 12
*
Part Field 13
*
Part Field 14
*
Part Field 15
*
Part Field 16
*
LIBRARYFIELD1

LIBRARYFIELD2

LIBRARYFIELD3

LIBRARYFIELD4

LIBRARYFIELD5

LIBRARYFIELD6

LIBRARYFIELD7

LIBRARYFIELD8

]
[
DESIGNATOR
SOURCE
FOOTPRINT
none
PARTTYPE
cascade-source
DESCRIPTION
cascade-source
Part Field 1
*
Part Field 2
*
Part Field 3
*
Part Field 4
*
Part Field 5
*
Part Field 6
*
Part Field 7
*
Part Field 8
*
Part Field 9
*
Part Field 10
*
Part Field 11
*
Part Field 12
*
Part Field 13
*
Part Field 14
*
Part Field 15
*
Part Field 16
*
LIBRARYFIELD1

LIBRARYFIELD2

LIBRARYFIELD3

LIBRARYFIELD4

LIBRARYFIELD5

LIBRARYFIELD6

LIBRARYFIELD7

LIBRARYFIELD8

]
[
DESIGNATOR
T1
FOOTPRINT
none
PARTTYPE
cascade-transformer
DESCRIPTION
cascade-transformer
Part Field 1
*
Part Field 2
*
Part Field 3
*
Part Field 4
*
Part Field 5
*
Part Field 6
*
Part Field 7
*
Part Field 8
*
Part Field 9
*
Part Field 10
*
Part Field 11
*
Part Field 12
*
Part Field 13
*
Part Field 14
*
Part Field 15
*
Part Field 16
*
LIBRARYFIELD1

LIBRARYFIELD2

LIBRARYFIELD3

LIBRARYFIELD4

LIBRARYFIELD5

LIBRARYFIELD6

LIBRARYFIELD7

LIBRARYFIELD8

]
(
unnamed_net6
AMP2-1 cascade-amp-1 PASSIVE
T1-2 cascade-transformer-2 PASSIVE 
)
(
unnamed_net5
MX1-2 cascade-mixer-2 PASSIVE
T1-1 cascade-transformer-1 PASSIVE 
)
(
unnamed_net4
FL1-2 cascade-filter-2 PASSIVE
MX1-1 cascade-mixer-1 PASSIVE 
)
(
unnamed_net3
DEF1-2 cascade-defaults-2 PASSIVE
FL1-1 cascade-filter-1 PASSIVE 
)
(
unnamed_net2
AMP1-2 cascade-amp-2 PASSIVE
DEF1-1 cascade-defaults-1 PASSIVE 
)
(
unnamed_net1
AMP1-1 cascade-amp-1 PASSIVE
SOURCE-1 cascade-source-1 PASSIVE 
)
(
GND
DEFAULTS-1 cascade-defaults-top-1 PASSIVE 
)
