v 20031231 2
P 0 600 300 600 1 0 0
{
T 200 650 5 8 1 1 0 6 1
pinnumber=2
T 200 550 5 8 0 1 0 8 1
pinseq=1
T 350 600 9 8 1 1 0 0 1
pinlabel=A
T 350 600 5 8 0 1 0 2 1
pintype=in
}
P 2000 600 1700 600 1 0 0
{
T 1800 650 5 8 1 1 0 0 1
pinnumber=3
T 1800 550 5 8 0 1 0 2 1
pinseq=2
T 1650 600 9 8 1 1 0 6 1
pinlabel=Y
T 1650 600 5 8 0 1 0 8 1
pintype=tri
}
P 0 200 300 200 1 0 0
{
T 200 250 5 8 1 1 0 6 1
pinnumber=1
T 200 150 5 8 0 1 0 8 1
pinseq=3
T 350 200 9 8 1 1 0 0 1
pinlabel=EN
T 350 200 5 8 0 1 0 2 1
pintype=in
}
B 300 0 1400 900 3 0 0 0 -1 -1 0 -1 -1 -1 -1 -1
T 2100 1540 5 10 0 0 0 0 1
device=74126
T 2100 1340 5 10 0 0 0 0 1
footprint=DIP14
T 2100 1140 5 10 0 0 0 0 1
numslots=4
T 2100 940 5 10 0 0 0 0 1
slotdef=1:2,3,1
T 2100 740 5 10 0 0 0 0 1
slotdef=2:5,6,4
T 2100 540 5 10 0 0 0 0 1
slotdef=3:9,8,10
T 2100 340 5 10 0 0 0 0 1
slotdef=4:12,11,13
T 1700 1000 8 10 1 1 0 6 1
refdes=U?
T 2100 1750 5 10 0 0 0 0 1
description=4 busline drivers
T 2100 1950 5 10 0 0 0 0 1
net=Vcc:14
T 2100 2150 5 10 0 0 0 0 1
net=GND:7
T 300 940 9 10 1 0 0 0 1
74126
T 2100 2350 5 10 0 0 0 0 1
documentation=http://www-s.ti.com/sc/ds/sn74hc126.pdf
