v 20031231 2
P 0 1300 200 1300 1 0 0
{
T 200 1350 5 8 1 1 0 6 1
pinnumber=1
T 200 1250 5 8 0 1 0 8 1
pinseq=1
T 350 1300 9 8 1 1 0 0 1
pinlabel=A
T 350 1300 5 8 0 1 0 2 1
pintype=in
}
P 2000 1300 1700 1300 1 0 0
{
T 1800 1350 5 8 1 1 0 0 1
pinnumber=13
T 1800 1250 5 8 0 1 0 2 1
pinseq=2
T 1650 1300 9 8 1 1 0 6 1
pinlabel=Q
T 1650 1300 5 8 0 1 0 8 1
pintype=out
}
P 0 900 300 900 1 0 0
{
T 200 950 5 8 1 1 0 6 1
pinnumber=2
T 200 850 5 8 0 1 0 8 1
pinseq=3
T 350 900 9 8 1 1 0 0 1
pinlabel=B
T 350 900 5 8 0 1 0 2 1
pintype=in
}
P 2000 500 1700 500 1 0 0
{
T 1800 550 5 8 1 1 0 0 1
pinnumber=14
T 1800 450 5 8 0 1 0 2 1
pinseq=6
T 1650 500 9 8 1 1 0 6 1
pinlabel=Ce
T 1650 500 5 8 0 1 0 8 1
pintype=pas
}
P 0 500 200 500 1 0 0
{
T 200 550 5 8 1 1 0 6 1
pinnumber=3
T 200 450 5 8 0 1 0 8 1
pinseq=5
T 350 500 9 8 1 1 0 0 1
pinlabel=CLR
T 350 500 5 8 0 1 0 2 1
pintype=in
}
P 2000 100 1700 100 1 0 0
{
T 1800 150 5 8 1 1 0 0 1
pinnumber=15
T 1800 50 5 8 0 1 0 2 1
pinseq=7
T 1650 100 9 8 1 1 0 6 1
pinlabel=Re/Ce
T 1650 100 5 8 0 1 0 8 1
pintype=pas
}
B 300 0 1400 1600 3 0 0 0 -1 -1 0 -1 -1 -1 -1 -1
T 300 1840 5 10 0 0 0 0 1
device=74123
T 300 2040 5 10 0 0 0 0 1
footprint=DIP16
T 300 2640 5 10 0 0 0 0 1
numslots=2
T 300 2440 5 10 0 0 0 0 1
slotdef=1:1,13,2,4,3,14,15
T 300 2240 5 10 0 0 0 0 1
slotdef=2:9,5,10,12,11,6,7
T 1700 1700 8 10 1 1 0 6 1
refdes=U?
P 2000 900 1700 900 1 0 0
{
T 1800 950 5 8 1 1 0 0 1
pinnumber=4
T 1800 850 5 8 0 1 0 2 1
pinseq=4
T 1650 900 9 8 1 1 0 6 1
pinlabel=Q
T 1650 900 5 8 0 1 0 8 1
pintype=out
}
T 300 3050 5 10 0 0 0 0 1
description=2 retriggerable monoflops with clear
T 300 3250 5 10 0 0 0 0 1
net=Vcc:16
T 300 3450 5 10 0 0 0 0 1
net=GND:8
T 300 1640 9 10 1 0 0 0 1
74123
L 350 625 625 625 3 0 0 0 -1 -1
L 1550 1025 1650 1025 3 0 0 0 -1 -1
V 250 1300 50 6 0 0 0 -1 -1 0 -1 -1 -1 -1 -1
T 300 2840 5 10 0 0 0 0 1
slot=1
V 250 500 50 6 0 0 0 -1 -1 0 -1 -1 -1 -1 -1
T 300 3650 5 10 0 0 0 0 1
documentation=http://www.semiconductors.philips.com/acrobat/datasheets/74HC_HCT123_CNV_2.pdf
