v 20031231 2
P 0 1400 300 1400 1 0 0
{
T 200 1450 5 8 1 1 0 6 1
pinnumber=2
T 200 1350 5 8 0 1 0 8 1
pinseq=1
T 350 1400 9 8 1 1 0 0 1
pinlabel=A0
T 350 1400 5 8 0 1 0 2 1
pintype=in
}
P 2000 1400 1800 1400 1 0 0
{
T 1800 1450 5 8 1 1 0 0 1
pinnumber=4
T 1800 1350 5 8 0 1 0 2 1
pinseq=2
T 1650 1400 9 8 1 1 0 6 1
pinlabel=Q0
T 1650 1400 5 8 0 1 0 8 1
pintype=out
}
V 1750 1400 50 6 0 0 0 -1 -1 0 -1 -1 -1 -1 -1
P 0 1000 300 1000 1 0 0
{
T 200 1050 5 8 1 1 0 6 1
pinnumber=3
T 200 950 5 8 0 1 0 8 1
pinseq=3
T 350 1000 9 8 1 1 0 0 1
pinlabel=A1
T 350 1000 5 8 0 1 0 2 1
pintype=in
}
P 2000 1000 1800 1000 1 0 0
{
T 1800 1050 5 8 1 1 0 0 1
pinnumber=5
T 1800 950 5 8 0 1 0 2 1
pinseq=4
T 1650 1000 9 8 1 1 0 6 1
pinlabel=Q1
T 1650 1000 5 8 0 1 0 8 1
pintype=out
}
V 1750 1000 50 6 0 0 0 -1 -1 0 -1 -1 -1 -1 -1
P 2000 600 1800 600 1 0 0
{
T 1800 650 5 8 1 1 0 0 1
pinnumber=6
T 1800 550 5 8 0 1 0 2 1
pinseq=5
T 1650 600 9 8 1 1 0 6 1
pinlabel=Q2
T 1650 600 5 8 0 1 0 8 1
pintype=out
}
V 1750 600 50 6 0 0 0 -1 -1 0 -1 -1 -1 -1 -1
P 0 200 200 200 1 0 0
{
T 200 250 5 8 1 1 0 6 1
pinnumber=1
T 200 150 5 8 0 1 0 8 1
pinseq=6
T 350 200 9 8 1 1 0 0 1
pinlabel=E
T 350 200 5 8 0 1 0 2 1
pintype=in
}
V 250 200 50 6 0 0 0 -1 -1 0 -1 -1 -1 -1 -1
P 2000 200 1800 200 1 0 0
{
T 1800 250 5 8 1 1 0 0 1
pinnumber=7
T 1800 150 5 8 0 1 0 2 1
pinseq=7
T 1650 200 9 8 1 1 0 6 1
pinlabel=Q3
T 1650 200 5 8 0 1 0 8 1
pintype=out
}
V 1750 200 50 6 0 0 0 -1 -1 0 -1 -1 -1 -1 -1
B 300 0 1400 1700 3 0 0 0 -1 -1 0 -1 -1 -1 -1 -1
T 300 2140 5 10 0 0 0 0 1
device=74139
T 300 1940 5 10 0 0 0 0 1
footprint=DIP16
T 300 2740 5 10 0 0 0 0 1
numslots=2
T 300 2540 5 10 0 0 0 0 1
slotdef=1:2,4,3,5,6,1,7
T 300 2340 5 10 0 0 0 0 1
slotdef=2:14,12,13,11,10,15,9
T 1700 1800 8 10 1 1 0 6 1
refdes=U?
T 300 3150 5 10 0 0 0 0 1
description=2 2-to-4 decoder/demultiplexer
T 300 3350 5 10 0 0 0 0 1
net=Vcc:16
T 300 3550 5 10 0 0 0 0 1
net=GND:8
T 300 1740 9 10 1 0 0 0 1
74139
T 300 2940 5 10 0 0 0 0 1
slot=1
T 300 3750 5 10 0 0 0 0 1
documentation=http://www-s.ti.com/sc/ds/sn74hc139.pdf
