v 20031231 2
P 0 2300 300 2300 1 0 0
{
T 200 2350 5 8 1 1 0 6 1
pinnumber=1
T 200 2250 5 8 0 1 0 8 1
pinseq=1
T 350 2300 9 8 1 1 0 0 1
pinlabel=A
T 350 2300 5 8 0 1 0 2 1
pintype=in
}
P 0 2000 300 2000 1 0 0
{
T 200 2050 5 8 1 1 0 6 1
pinnumber=2
T 200 1950 5 8 0 1 0 8 1
pinseq=2
T 350 2000 9 8 1 1 0 0 1
pinlabel=B
T 350 2000 5 8 0 1 0 2 1
pintype=in
}
P 0 1700 300 1700 1 0 0
{
T 200 1750 5 8 1 1 0 6 1
pinnumber=3
T 200 1650 5 8 0 1 0 8 1
pinseq=3
T 350 1700 9 8 1 1 0 0 1
pinlabel=C
T 350 1700 5 8 0 1 0 2 1
pintype=in
}
V 250 500 50 6 0 0 0 -1 -1 0 -1 -1 -1 -1 -1
P 0 500 200 500 1 0 0
{
T 200 550 5 8 1 1 0 6 1
pinnumber=4
T 200 450 5 8 0 1 0 8 1
pinseq=4
T 350 500 9 8 1 1 0 0 1
pinlabel=G2A
T 350 500 5 8 0 1 0 2 1
pintype=in
}
V 250 200 50 6 0 0 0 -1 -1 0 -1 -1 -1 -1 -1
P 0 200 200 200 1 0 0
{
T 200 250 5 8 1 1 0 6 1
pinnumber=5
T 200 150 5 8 0 1 0 8 1
pinseq=5
T 350 200 9 8 1 1 0 0 1
pinlabel=G2B
T 350 200 5 8 0 1 0 2 1
pintype=in
}
P 0 800 300 800 1 0 0
{
T 200 850 5 8 1 1 0 6 1
pinnumber=6
T 200 750 5 8 0 1 0 8 1
pinseq=6
T 350 800 9 8 1 1 0 0 1
pinlabel=G1
T 350 800 5 8 0 1 0 2 1
pintype=in
}
V 1750 2300 50 6 0 0 0 -1 -1 0 -1 -1 -1 -1 -1
P 1800 2300 2000 2300 1 0 1
{
T 1800 2350 5 8 1 1 0 0 1
pinnumber=15
T 1800 2250 5 8 0 1 0 2 1
pinseq=15
T 1650 2300 9 8 1 1 0 6 1
pinlabel=Y0
T 1650 2300 5 8 0 1 0 8 1
pintype=out
}
V 1750 2000 50 6 0 0 0 -1 -1 0 -1 -1 -1 -1 -1
P 1800 2000 2000 2000 1 0 1
{
T 1800 2050 5 8 1 1 0 0 1
pinnumber=14
T 1800 1950 5 8 0 1 0 2 1
pinseq=14
T 1650 2000 9 8 1 1 0 6 1
pinlabel=Y1
T 1650 2000 5 8 0 1 0 8 1
pintype=out
}
V 1750 1700 50 6 0 0 0 -1 -1 0 -1 -1 -1 -1 -1
P 1800 1700 2000 1700 1 0 1
{
T 1800 1750 5 8 1 1 0 0 1
pinnumber=13
T 1800 1650 5 8 0 1 0 2 1
pinseq=13
T 1650 1700 9 8 1 1 0 6 1
pinlabel=Y2
T 1650 1700 5 8 0 1 0 8 1
pintype=out
}
V 1750 1400 50 6 0 0 0 -1 -1 0 -1 -1 -1 -1 -1
P 1800 1400 2000 1400 1 0 1
{
T 1800 1450 5 8 1 1 0 0 1
pinnumber=12
T 1800 1350 5 8 0 1 0 2 1
pinseq=12
T 1650 1400 9 8 1 1 0 6 1
pinlabel=Y3
T 1650 1400 5 8 0 1 0 8 1
pintype=out
}
V 1750 1100 50 6 0 0 0 -1 -1 0 -1 -1 -1 -1 -1
P 1800 1100 2000 1100 1 0 1
{
T 1800 1150 5 8 1 1 0 0 1
pinnumber=11
T 1800 1050 5 8 0 1 0 2 1
pinseq=11
T 1650 1100 9 8 1 1 0 6 1
pinlabel=Y4
T 1650 1100 5 8 0 1 0 8 1
pintype=out
}
V 1750 800 50 6 0 0 0 -1 -1 0 -1 -1 -1 -1 -1
P 1800 800 2000 800 1 0 1
{
T 1800 850 5 8 1 1 0 0 1
pinnumber=10
T 1800 750 5 8 0 1 0 2 1
pinseq=10
T 1650 800 9 8 1 1 0 6 1
pinlabel=Y5
T 1650 800 5 8 0 1 0 8 1
pintype=out
}
V 1750 500 50 6 0 0 0 -1 -1 0 -1 -1 -1 -1 -1
P 1800 500 2000 500 1 0 1
{
T 1800 550 5 8 1 1 0 0 1
pinnumber=9
T 1800 450 5 8 0 1 0 2 1
pinseq=9
T 1650 500 9 8 1 1 0 6 1
pinlabel=Y6
T 1650 500 5 8 0 1 0 8 1
pintype=out
}
P 1800 200 2000 200 1 0 1
{
T 1800 250 5 8 1 1 0 0 1
pinnumber=7
T 1800 150 5 8 0 1 0 2 1
pinseq=7
T 1650 200 9 8 1 1 0 6 1
pinlabel=Y7
T 1650 200 5 8 0 1 0 8 1
pintype=out
}
V 1750 200 50 6 0 0 0 -1 -1 0 -1 -1 -1 -1 -1
B 300 0 1400 2600 3 0 0 0 -1 -1 0 -1 -1 -1 -1 -1
T 300 2850 5 10 0 0 0 0 1
device=74138
T 1700 2700 8 10 1 1 0 6 1
refdes=U?
T 300 3250 5 10 0 0 0 0 1
footprint=DIP16
T 300 3450 5 10 0 0 0 0 1
description=3 to 8 decoder/demultiplexer
T 300 3050 5 10 0 0 0 0 1
numslots=0
T 300 3650 5 10 0 0 0 0 1
net=Vcc:16
T 300 3850 5 10 0 0 0 0 1
net=GND:8
T 300 2640 9 10 1 0 0 0 1
74138
T 300 4050 5 10 0 0 0 0 1
documentation=http://www-s.ti.com/sc/ds/sn74hc138.pdf
