v 20031231 2
V 250 2400 50 6 0 0 0 -1 -1 0 -1 -1 -1 -1 -1
P 0 2400 200 2400 1 0 0
{
T 200 2450 5 8 1 1 0 6 1
pinnumber=1
T 200 2350 5 8 0 1 0 8 1
pinseq=1
T 350 2400 9 8 1 1 0 0 1
pinlabel=G1
T 350 2400 5 8 0 1 0 2 1
pintype=in
}
P 0 2100 300 2100 1 0 0
{
T 200 2150 5 8 1 1 0 6 1
pinnumber=2
T 200 2050 5 8 0 1 0 8 1
pinseq=2
T 350 2100 9 8 1 1 0 0 1
pinlabel=A1
T 350 2100 5 8 0 1 0 2 1
pintype=in
}
P 0 1800 300 1800 1 0 0
{
T 200 1850 5 8 1 1 0 6 1
pinnumber=3
T 200 1750 5 8 0 1 0 8 1
pinseq=3
T 350 1800 9 8 1 1 0 0 1
pinlabel=B1
T 350 1800 5 8 0 1 0 2 1
pintype=in
}
V 1750 2400 50 6 0 0 0 -1 -1 0 -1 -1 -1 -1 -1
P 1800 2400 2000 2400 1 0 1
{
T 1800 2450 5 8 1 1 0 0 1
pinnumber=4
T 1800 2350 5 8 0 1 0 2 1
pinseq=4
T 1650 2400 9 8 1 1 0 6 1
pinlabel=1Y0
T 1650 2400 5 8 0 1 0 8 1
pintype=out
}
V 1750 2100 50 6 0 0 0 -1 -1 0 -1 -1 -1 -1 -1
P 1800 2100 2000 2100 1 0 1
{
T 1800 2150 5 8 1 1 0 0 1
pinnumber=5
T 1800 2050 5 8 0 1 0 2 1
pinseq=5
T 1650 2100 9 8 1 1 0 6 1
pinlabel=1Y1
T 1650 2100 5 8 0 1 0 8 1
pintype=out
}
V 1750 1800 50 6 0 0 0 -1 -1 0 -1 -1 -1 -1 -1
P 1800 1800 2000 1800 1 0 1
{
T 1800 1850 5 8 1 1 0 0 1
pinnumber=6
T 1800 1750 5 8 0 1 0 2 1
pinseq=6
T 1650 1800 9 8 1 1 0 6 1
pinlabel=1Y2
T 1650 1800 5 8 0 1 0 8 1
pintype=out
}
V 1750 1500 50 6 0 0 0 -1 -1 0 -1 -1 -1 -1 -1
P 1800 1500 2000 1500 1 0 1
{
T 1800 1550 5 8 1 1 0 0 1
pinnumber=7
T 1800 1450 5 8 0 1 0 2 1
pinseq=7
T 1650 1500 9 8 1 1 0 6 1
pinlabel=1Y3
T 1650 1500 5 8 0 1 0 8 1
pintype=out
}
V 250 1100 50 6 0 0 0 -1 -1 0 -1 -1 -1 -1 -1
P 0 1100 200 1100 1 0 0
{
T 200 1150 5 8 1 1 0 6 1
pinnumber=15
T 200 1050 5 8 0 1 0 8 1
pinseq=15
T 350 1100 9 8 1 1 0 0 1
pinlabel=G2
T 350 1100 5 8 0 1 0 2 1
pintype=in
}
P 0 800 300 800 1 0 0
{
T 200 850 5 8 1 1 0 6 1
pinnumber=14
T 200 750 5 8 0 1 0 8 1
pinseq=14
T 350 800 9 8 1 1 0 0 1
pinlabel=A2
T 350 800 5 8 0 1 0 2 1
pintype=in
}
P 0 500 300 500 1 0 0
{
T 200 550 5 8 1 1 0 6 1
pinnumber=13
T 200 450 5 8 0 1 0 8 1
pinseq=13
T 350 500 9 8 1 1 0 0 1
pinlabel=B2
T 350 500 5 8 0 1 0 2 1
pintype=in
}
V 1750 1100 50 6 0 0 0 -1 -1 0 -1 -1 -1 -1 -1
P 1800 1100 2000 1100 1 0 1
{
T 1800 1150 5 8 1 1 0 0 1
pinnumber=12
T 1800 1050 5 8 0 1 0 2 1
pinseq=12
T 1650 1100 9 8 1 1 0 6 1
pinlabel=2Y0
T 1650 1100 5 8 0 1 0 8 1
pintype=out
}
V 1750 800 50 6 0 0 0 -1 -1 0 -1 -1 -1 -1 -1
P 1800 800 2000 800 1 0 1
{
T 1800 850 5 8 1 1 0 0 1
pinnumber=11
T 1800 750 5 8 0 1 0 2 1
pinseq=11
T 1650 800 9 8 1 1 0 6 1
pinlabel=2Y1
T 1650 800 5 8 0 1 0 8 1
pintype=out
}
V 1750 500 50 6 0 0 0 -1 -1 0 -1 -1 -1 -1 -1
P 1800 500 2000 500 1 0 1
{
T 1800 550 5 8 1 1 0 0 1
pinnumber=10
T 1800 450 5 8 0 1 0 2 1
pinseq=10
T 1650 500 9 8 1 1 0 6 1
pinlabel=2Y2
T 1650 500 5 8 0 1 0 8 1
pintype=out
}
V 1750 200 50 6 0 0 0 -1 -1 0 -1 -1 -1 -1 -1
P 1800 200 2000 200 1 0 1
{
T 1800 250 5 8 1 1 0 0 1
pinnumber=9
T 1800 150 5 8 0 1 0 2 1
pinseq=9
T 1650 200 9 8 1 1 0 6 1
pinlabel=2Y3
T 1650 200 5 8 0 1 0 8 1
pintype=out
}
B 300 0 1400 2700 3 0 0 0 -1 -1 0 -1 -1 -1 -1 -1
T 300 2950 5 10 0 0 0 0 1
device=74139
T 1700 2800 8 10 1 1 0 6 1
refdes=U?
T 300 3150 5 10 0 0 0 0 1
footprint=DIP16
T 300 3350 5 10 0 0 0 0 1
description=2 2-to-4 decoder/demultiplexer
T 300 3950 5 10 0 0 0 0 1
numslots=0
T 300 3550 5 10 0 0 0 0 1
net=Vcc:16
T 300 3750 5 10 0 0 0 0 1
net=GND:8
T 300 2740 9 10 1 0 0 0 1
74139
T 300 4150 5 10 0 0 0 0 1
documentation=http://www-s.ti.com/sc/ds/sn74hc139.pdf
