v 20031231 2
V 250 3000 50 6 0 0 0 -1 -1 0 -1 -1 -1 -1 -1
P 0 3000 200 3000 1 0 0
{
T 200 3050 5 8 1 1 0 6 1
pinnumber=1
T 200 2950 5 8 0 1 0 8 1
pinseq=1
T 350 3000 9 8 1 1 0 0 1
pinlabel=EN1
T 350 3000 5 8 0 1 0 2 1
pintype=in
}
P 0 3400 300 3400 1 0 0
{
T 200 3450 5 8 1 1 0 6 1
pinnumber=2
T 200 3350 5 8 0 1 0 8 1
pinseq=2
T 350 3400 9 8 1 1 0 0 1
pinlabel=B
T 350 3400 5 8 0 1 0 2 1
pintype=in
}
P 0 1800 300 1800 1 0 0
{
T 200 1850 5 8 1 1 0 6 1
pinnumber=3
T 200 1750 5 8 0 1 0 8 1
pinseq=3
T 350 1800 9 8 1 1 0 0 1
pinlabel=1C3
T 350 1800 5 8 0 1 0 2 1
pintype=in
}
P 0 2100 300 2100 1 0 0
{
T 200 2150 5 8 1 1 0 6 1
pinnumber=4
T 200 2050 5 8 0 1 0 8 1
pinseq=4
T 350 2100 9 8 1 1 0 0 1
pinlabel=1C2
T 350 2100 5 8 0 1 0 2 1
pintype=in
}
P 0 2400 300 2400 1 0 0
{
T 200 2450 5 8 1 1 0 6 1
pinnumber=5
T 200 2350 5 8 0 1 0 8 1
pinseq=5
T 350 2400 9 8 1 1 0 0 1
pinlabel=1C1
T 350 2400 5 8 0 1 0 2 1
pintype=in
}
P 0 2700 300 2700 1 0 0
{
T 200 2750 5 8 1 1 0 6 1
pinnumber=6
T 200 2650 5 8 0 1 0 8 1
pinseq=6
T 350 2700 9 8 1 1 0 0 1
pinlabel=1C0
T 350 2700 5 8 0 1 0 2 1
pintype=in
}
P 1700 3000 2000 3000 1 0 1
{
T 1800 3050 5 8 1 1 0 0 1
pinnumber=7
T 1800 2950 5 8 0 1 0 2 1
pinseq=7
T 1650 3000 9 8 1 1 0 6 1
pinlabel=1Y
T 1650 3000 5 8 0 1 0 8 1
pintype=out
}
V 250 1400 50 6 0 0 0 -1 -1 0 -1 -1 -1 -1 -1
P 0 1400 200 1400 1 0 0
{
T 200 1450 5 8 1 1 0 6 1
pinnumber=15
T 200 1350 5 8 0 1 0 8 1
pinseq=15
T 350 1400 9 8 1 1 0 0 1
pinlabel=EN2
T 350 1400 5 8 0 1 0 2 1
pintype=in
}
P 0 3700 300 3700 1 0 0
{
T 200 3750 5 8 1 1 0 6 1
pinnumber=14
T 200 3650 5 8 0 1 0 8 1
pinseq=14
T 350 3700 9 8 1 1 0 0 1
pinlabel=A
T 350 3700 5 8 0 1 0 2 1
pintype=in
}
P 0 200 300 200 1 0 0
{
T 200 250 5 8 1 1 0 6 1
pinnumber=13
T 200 150 5 8 0 1 0 8 1
pinseq=13
T 350 200 9 8 1 1 0 0 1
pinlabel=2C3
T 350 200 5 8 0 1 0 2 1
pintype=in
}
P 0 500 300 500 1 0 0
{
T 200 550 5 8 1 1 0 6 1
pinnumber=12
T 200 450 5 8 0 1 0 8 1
pinseq=12
T 350 500 9 8 1 1 0 0 1
pinlabel=2C2
T 350 500 5 8 0 1 0 2 1
pintype=in
}
P 0 800 300 800 1 0 0
{
T 200 850 5 8 1 1 0 6 1
pinnumber=11
T 200 750 5 8 0 1 0 8 1
pinseq=11
T 350 800 9 8 1 1 0 0 1
pinlabel=2C1
T 350 800 5 8 0 1 0 2 1
pintype=in
}
P 0 1100 300 1100 1 0 0
{
T 200 1150 5 8 1 1 0 6 1
pinnumber=10
T 200 1050 5 8 0 1 0 8 1
pinseq=10
T 350 1100 9 8 1 1 0 0 1
pinlabel=2C0
T 350 1100 5 8 0 1 0 2 1
pintype=in
}
P 1700 1400 2000 1400 1 0 1
{
T 1800 1450 5 8 1 1 0 0 1
pinnumber=9
T 1800 1350 5 8 0 1 0 2 1
pinseq=9
T 1650 1400 9 8 1 1 0 6 1
pinlabel=2Y
T 1650 1400 5 8 0 1 0 8 1
pintype=out
}
B 300 0 1400 4000 3 0 0 0 -1 -1 0 -1 -1 -1 -1 -1
T 300 4250 5 10 0 0 0 0 1
device=74153
T 1700 4100 8 10 1 1 0 6 1
refdes=U?
T 300 4450 5 10 0 0 0 0 1
footprint=DIP16
T 300 4650 5 10 0 0 0 0 1
description=2 4-to-1 multiplexer
T 300 5250 5 10 0 0 0 0 1
numslots=0
T 300 4850 5 10 0 0 0 0 1
net=Vcc:16
T 300 5050 5 10 0 0 0 0 1
net=GND:8
T 300 4050 9 10 1 0 0 0 1
74153
L 350 3125 600 3125 3 0 0 0 -1 -1
L 350 1525 650 1525 3 0 0 0 -1 -1
T 300 5450 5 10 0 0 0 0 1
documentation=http://www-s.ti.com/sc/ds/sn74hc153.pdf
