v 20031231 2
P 1800 3700 2000 3700 1 0 1
{
T 1800 3750 5 8 1 1 0 0 1
pinnumber=11
T 1800 3650 5 8 0 1 0 2 1
pinseq=11
T 1650 3700 9 8 1 1 0 6 1
pinlabel=DO3
T 1650 3700 5 8 0 1 0 8 1
pintype=tri
}
P 1800 3300 2000 3300 1 0 1
{
T 1800 3350 5 8 1 1 0 0 1
pinnumber=9
T 1800 3250 5 8 0 1 0 2 1
pinseq=9
T 1650 3300 9 8 1 1 0 6 1
pinlabel=DO2
T 1650 3300 5 8 0 1 0 8 1
pintype=tri
}
P 1800 2900 2000 2900 1 0 1
{
T 1800 2950 5 8 1 1 0 0 1
pinnumber=7
T 1800 2850 5 8 0 1 0 2 1
pinseq=7
T 1650 2900 9 8 1 1 0 6 1
pinlabel=DO1
T 1650 2900 5 8 0 1 0 8 1
pintype=tri
}
P 1800 2500 2000 2500 1 0 1
{
T 1800 2550 5 8 1 1 0 0 1
pinnumber=5
T 1800 2450 5 8 0 1 0 2 1
pinseq=5
T 1650 2500 9 8 1 1 0 6 1
pinlabel=DO0
T 1650 2500 5 8 0 1 0 8 1
pintype=tri
}
P 0 500 200 500 1 0 0
{
T 200 550 5 8 1 1 0 6 1
pinnumber=3
T 200 450 5 8 0 1 0 8 1
pinseq=3
T 350 500 9 8 1 1 0 0 1
pinlabel=W
T 350 500 5 8 0 1 0 2 1
pintype=in
}
P 0 900 300 900 1 0 0
{
T 200 950 5 8 1 1 0 6 1
pinnumber=1
T 200 850 5 8 0 1 0 8 1
pinseq=1
T 350 900 9 8 1 1 0 0 1
pinlabel=A0
T 350 900 5 8 0 1 0 2 1
pintype=in
}
P 0 2900 300 2900 1 0 0
{
T 200 2950 5 8 1 1 0 6 1
pinnumber=6
T 200 2850 5 8 0 1 0 8 1
pinseq=6
T 350 2900 9 8 1 1 0 0 1
pinlabel=DI1
T 350 2900 5 8 0 1 0 2 1
pintype=in
}
P 0 2500 300 2500 1 0 0
{
T 200 2550 5 8 1 1 0 6 1
pinnumber=4
T 200 2450 5 8 0 1 0 8 1
pinseq=4
T 350 2500 9 8 1 1 0 0 1
pinlabel=DI0
T 350 2500 5 8 0 1 0 2 1
pintype=in
}
P 0 2100 300 2100 1 0 0
{
T 200 2150 5 8 1 1 0 6 1
pinnumber=13
T 200 2050 5 8 0 1 0 8 1
pinseq=13
T 350 2100 9 8 1 1 0 0 1
pinlabel=A3
T 350 2100 5 8 0 1 0 2 1
pintype=in
}
P 0 1700 300 1700 1 0 0
{
T 200 1750 5 8 1 1 0 6 1
pinnumber=14
T 200 1650 5 8 0 1 0 8 1
pinseq=14
T 350 1700 9 8 1 1 0 0 1
pinlabel=A2
T 350 1700 5 8 0 1 0 2 1
pintype=in
}
P 0 1300 300 1300 1 0 0
{
T 200 1350 5 8 1 1 0 6 1
pinnumber=15
T 200 1250 5 8 0 1 0 8 1
pinseq=15
T 350 1300 9 8 1 1 0 0 1
pinlabel=A1
T 350 1300 5 8 0 1 0 2 1
pintype=in
}
V 250 100 50 6 0 0 0 -1 -1 0 -1 -1 -1 -1 -1
P 200 100 0 100 1 0 1
{
T 200 150 5 8 1 1 0 6 1
pinnumber=2
T 200 50 5 8 0 1 0 8 1
pinseq=2
T 350 100 9 8 1 1 0 0 1
pinlabel=G
T 350 100 5 8 0 1 0 2 1
pintype=in
}
P 0 3300 300 3300 1 0 0
{
T 200 3350 5 8 1 1 0 6 1
pinnumber=10
T 200 3250 5 8 0 1 0 8 1
pinseq=10
T 350 3300 9 8 1 1 0 0 1
pinlabel=DI2
T 350 3300 5 8 0 1 0 2 1
pintype=in
}
P 0 3700 300 3700 1 0 0
{
T 200 3750 5 8 1 1 0 6 1
pinnumber=12
T 200 3650 5 8 0 1 0 8 1
pinseq=12
T 350 3700 9 8 1 1 0 0 1
pinlabel=DI3
T 350 3700 5 8 0 1 0 2 1
pintype=in
}
B 300 0 1400 4000 3 0 0 0 -1 -1 0 -1 -1 -1 -1 -1
T 300 4250 5 10 0 0 0 0 1
device=74189
T 1700 4100 8 10 1 1 0 6 1
refdes=U?
V 250 500 50 6 0 0 0 -1 -1 0 -1 -1 -1 -1 -1
V 1750 2500 50 6 0 0 0 -1 -1 0 -1 -1 -1 -1 -1
V 1750 2900 50 6 0 0 0 -1 -1 0 -1 -1 -1 -1 -1
V 1750 3300 50 6 0 0 0 -1 -1 0 -1 -1 -1 -1 -1
V 1750 3700 50 6 0 0 0 -1 -1 0 -1 -1 -1 -1 -1
T 300 4450 5 10 0 0 0 0 1
footprint=DIP16
T 300 4650 5 10 0 0 0 0 1
description=64-bit RAM with tristate outputs
T 300 5250 5 10 0 0 0 0 1
numslots=0
T 300 4850 5 10 0 0 0 0 1
net=Vcc:16
T 300 5050 5 10 0 0 0 0 1
net=GND:8
T 300 4050 9 10 1 1 0 0 1
74189
