v 20031231 2
P 0 100 300 100 1 0 0
{
T 200 150 5 8 1 1 0 6 1
pinnumber=1
T 200 50 5 8 0 1 0 8 1
pinseq=1
T 350 100 9 8 1 1 0 0 1
pinlabel=DIR
T 350 100 5 8 0 1 0 2 1
pintype=in
}
P 0 2800 300 2800 1 0 0
{
T 200 2850 5 8 1 1 0 6 1
pinnumber=2
T 200 2750 5 8 0 1 0 8 1
pinseq=2
T 350 2800 9 8 1 1 0 0 1
pinlabel=A1
T 350 2800 5 8 0 1 0 2 1
pintype=tri
}
P 0 2500 300 2500 1 0 0
{
T 200 2550 5 8 1 1 0 6 1
pinnumber=3
T 200 2450 5 8 0 1 0 8 1
pinseq=3
T 350 2500 9 8 1 1 0 0 1
pinlabel=A2
T 350 2500 5 8 0 1 0 2 1
pintype=tri
}
P 0 2200 300 2200 1 0 0
{
T 200 2250 5 8 1 1 0 6 1
pinnumber=4
T 200 2150 5 8 0 1 0 8 1
pinseq=4
T 350 2200 9 8 1 1 0 0 1
pinlabel=A3
T 350 2200 5 8 0 1 0 2 1
pintype=tri
}
P 0 1900 300 1900 1 0 0
{
T 200 1950 5 8 1 1 0 6 1
pinnumber=5
T 200 1850 5 8 0 1 0 8 1
pinseq=5
T 350 1900 9 8 1 1 0 0 1
pinlabel=A4
T 350 1900 5 8 0 1 0 2 1
pintype=tri
}
P 0 1600 300 1600 1 0 0
{
T 200 1650 5 8 1 1 0 6 1
pinnumber=6
T 200 1550 5 8 0 1 0 8 1
pinseq=6
T 350 1600 9 8 1 1 0 0 1
pinlabel=A5
T 350 1600 5 8 0 1 0 2 1
pintype=tri
}
P 0 1300 300 1300 1 0 0
{
T 200 1350 5 8 1 1 0 6 1
pinnumber=7
T 200 1250 5 8 0 1 0 8 1
pinseq=7
T 350 1300 9 8 1 1 0 0 1
pinlabel=A6
T 350 1300 5 8 0 1 0 2 1
pintype=tri
}
P 0 1000 300 1000 1 0 0
{
T 200 1050 5 8 1 1 0 6 1
pinnumber=8
T 200 950 5 8 0 1 0 8 1
pinseq=8
T 350 1000 9 8 1 1 0 0 1
pinlabel=A7
T 350 1000 5 8 0 1 0 2 1
pintype=tri
}
P 0 700 300 700 1 0 0
{
T 200 750 5 8 1 1 0 6 1
pinnumber=9
T 200 650 5 8 0 1 0 8 1
pinseq=9
T 350 700 9 8 1 1 0 0 1
pinlabel=A8
T 350 700 5 8 0 1 0 2 1
pintype=tri
}
V 250 400 50 6 0 0 0 -1 -1 0 -1 -1 -1 -1 -1
P 0 400 200 400 1 0 0
{
T 200 450 5 8 1 1 0 6 1
pinnumber=19
T 200 350 5 8 0 1 0 8 1
pinseq=19
T 350 400 9 8 1 1 0 0 1
pinlabel=ENABLE
T 350 400 5 8 0 1 0 2 1
pintype=in
}
P 1700 2800 2000 2800 1 0 1
{
T 1800 2850 5 8 1 1 0 0 1
pinnumber=18
T 1800 2750 5 8 0 1 0 2 1
pinseq=18
T 1650 2800 9 8 1 1 0 6 1
pinlabel=B1
T 1650 2800 5 8 0 1 0 8 1
pintype=tri
}
P 1700 2500 2000 2500 1 0 1
{
T 1800 2550 5 8 1 1 0 0 1
pinnumber=17
T 1800 2450 5 8 0 1 0 2 1
pinseq=17
T 1650 2500 9 8 1 1 0 6 1
pinlabel=B2
T 1650 2500 5 8 0 1 0 8 1
pintype=tri
}
P 1700 2200 2000 2200 1 0 1
{
T 1800 2250 5 8 1 1 0 0 1
pinnumber=16
T 1800 2150 5 8 0 1 0 2 1
pinseq=16
T 1650 2200 9 8 1 1 0 6 1
pinlabel=B3
T 1650 2200 5 8 0 1 0 8 1
pintype=tri
}
P 1700 1900 2000 1900 1 0 1
{
T 1800 1950 5 8 1 1 0 0 1
pinnumber=15
T 1800 1850 5 8 0 1 0 2 1
pinseq=15
T 1650 1900 9 8 1 1 0 6 1
pinlabel=B4
T 1650 1900 5 8 0 1 0 8 1
pintype=tri
}
P 1700 1600 2000 1600 1 0 1
{
T 1800 1650 5 8 1 1 0 0 1
pinnumber=14
T 1800 1550 5 8 0 1 0 2 1
pinseq=14
T 1650 1600 9 8 1 1 0 6 1
pinlabel=B5
T 1650 1600 5 8 0 1 0 8 1
pintype=tri
}
P 1700 1300 2000 1300 1 0 1
{
T 1800 1350 5 8 1 1 0 0 1
pinnumber=13
T 1800 1250 5 8 0 1 0 2 1
pinseq=13
T 1650 1300 9 8 1 1 0 6 1
pinlabel=B6
T 1650 1300 5 8 0 1 0 8 1
pintype=tri
}
P 1700 1000 2000 1000 1 0 1
{
T 1800 1050 5 8 1 1 0 0 1
pinnumber=12
T 1800 950 5 8 0 1 0 2 1
pinseq=12
T 1650 1000 9 8 1 1 0 6 1
pinlabel=B7
T 1650 1000 5 8 0 1 0 8 1
pintype=tri
}
P 1700 700 2000 700 1 0 1
{
T 1800 750 5 8 1 1 0 0 1
pinnumber=11
T 1800 650 5 8 0 1 0 2 1
pinseq=11
T 1650 700 9 8 1 1 0 6 1
pinlabel=B8
T 1650 700 5 8 0 1 0 8 1
pintype=tri
}
B 300 -100 1400 3200 3 0 0 0 -1 -1 0 -1 -1 -1 -1 -1
T 300 3350 5 10 0 0 0 0 1
device=74245
T 1700 3200 8 10 1 1 0 6 1
refdes=U?
T 300 3550 5 10 0 0 0 0 1
footprint=DIP20
T 300 3750 5 10 0 0 0 0 1
description=octal transceiver (tristate)
T 300 4350 5 10 0 0 0 0 1
numslots=0
T 300 3950 5 10 0 0 0 0 1
net=Vcc:20
T 300 4150 5 10 0 0 0 0 1
net=GND:10
T 300 3140 9 10 1 0 0 0 1
74245
L 350 525 975 525 3 0 0 0 -1 -1
T 300 4550 5 10 0 0 0 0 1
documentation=http://www-s.ti.com/sc/ds/sn74hc245.pdf
