v 20031231 2
P 0 3400 300 3400 1 0 0
{
T 200 3450 5 8 1 1 0 6 1
pinnumber=3
T 200 3350 5 8 0 1 0 8 1
pinseq=1
T 350 3400 9 8 1 1 0 0 1
pinlabel=J1
T 350 3400 5 8 0 1 0 2 1
pintype=in
}
P 2000 3400 1700 3400 1 0 0
{
T 1800 3450 5 8 1 1 0 0 1
pinnumber=8
T 1800 3350 5 8 0 1 0 2 1
pinseq=2
T 1650 3400 9 8 1 1 0 6 1
pinlabel=Q
T 1650 3400 5 8 0 1 0 8 1
pintype=out
}
P 0 3000 300 3000 1 0 0
{
T 200 3050 5 8 1 1 0 6 1
pinnumber=4
T 200 2950 5 8 0 1 0 8 1
pinseq=3
T 350 3000 9 8 1 1 0 0 1
pinlabel=J2
T 350 3000 5 8 0 1 0 2 1
pintype=in
}
P 2000 3000 1800 3000 1 0 0
{
T 1800 3050 5 8 1 1 0 0 1
pinnumber=6
T 1800 2950 5 8 0 1 0 2 1
pinseq=4
T 1650 3000 9 8 1 1 0 6 1
pinlabel=Q
T 1650 3000 5 8 0 1 0 8 1
pintype=out
}
V 1750 3000 50 6 0 0 0 -1 -1 0 -1 -1 -1 -1 -1
P 0 2600 300 2600 1 0 0
{
T 200 2650 5 8 1 1 0 6 1
pinnumber=5
T 200 2550 5 8 0 1 0 8 1
pinseq=5
T 350 2600 9 8 1 1 0 0 1
pinlabel=J3
T 350 2600 5 8 0 1 0 2 1
pintype=in
}
P 0 2200 300 2200 1 0 0
{
T 200 2250 5 8 1 1 0 6 1
pinnumber=9
T 200 2150 5 8 0 1 0 8 1
pinseq=6
T 350 2200 9 8 1 1 0 0 1
pinlabel=K1
T 350 2200 5 8 0 1 0 2 1
pintype=in
}
P 0 1800 300 1800 1 0 0
{
T 200 1850 5 8 1 1 0 6 1
pinnumber=10
T 200 1750 5 8 0 1 0 8 1
pinseq=7
T 350 1800 9 8 1 1 0 0 1
pinlabel=K2
T 350 1800 5 8 0 1 0 2 1
pintype=in
}
P 0 1400 300 1400 1 0 0
{
T 200 1450 5 8 1 1 0 6 1
pinnumber=11
T 200 1350 5 8 0 1 0 8 1
pinseq=8
T 350 1400 9 8 1 1 0 0 1
pinlabel=K3
T 350 1400 5 8 0 1 0 2 1
pintype=in
}
P 0 1000 200 1000 1 0 0
{
T 200 1050 5 8 1 1 0 6 1
pinnumber=2
T 200 950 5 8 0 1 0 8 1
pinseq=9
T 350 1000 9 8 1 1 0 0 1
pinlabel=RST
T 350 1000 5 8 0 1 0 2 1
pintype=in
}
V 250 1000 50 6 0 0 0 -1 -1 0 -1 -1 -1 -1 -1
P 0 600 200 600 1 0 0
{
T 200 650 5 8 1 1 0 6 1
pinnumber=13
T 200 550 5 8 0 1 0 8 1
pinseq=10
T 350 600 9 8 1 1 0 0 1
pinlabel=SET
T 350 600 5 8 0 1 0 2 1
pintype=in
}
V 250 600 50 6 0 0 0 -1 -1 0 -1 -1 -1 -1 -1
P 0 200 300 200 1 0 0
{
T 200 250 5 8 1 1 0 6 1
pinnumber=12
T 200 150 5 8 0 1 0 8 1
pinseq=11
T 375 200 9 8 1 1 0 0 1
pinlabel=CLK
T 375 200 5 8 0 1 0 2 1
pintype=clk
}
B 300 0 1400 3700 3 0 0 0 -1 -1 0 -1 -1 -1 -1 -1
T 300 4140 5 10 0 0 0 0 1
device=7472
T 300 3940 5 10 0 0 0 0 1
footprint=DIP14
T 1700 3800 8 10 1 1 0 6 1
refdes=U?
T 300 4350 5 10 0 0 0 0 1
description=JK-master-slave flip-flop with 3 AND-ed J and K inputs
T 300 4550 5 10 0 0 0 0 1
net=Vcc:14
T 300 4750 5 10 0 0 0 0 1
net=GND:7
T 300 3740 9 10 1 0 0 0 1
7472
L 1550 3125 1650 3125 3 0 0 0 -1 -1
L 350 1125 625 1125 3 0 0 0 -1 -1
L 350 725 650 725 3 0 0 0 -1 -1
L 300 250 375 200 3 0 0 0 -1 -1
L 375 200 300 150 3 0 0 0 -1 -1
T 300 4950 5 10 0 0 0 0 1
numslots=0
