v 20031231 2
P 0 3000 300 3000 1 0 0
{
T 200 3050 5 8 1 1 0 6 1
pinnumber=3
T 200 2950 5 8 0 1 0 8 1
pinseq=1
T 350 3000 9 8 1 1 0 0 1
pinlabel=J1
T 350 3000 5 8 0 1 0 2 1
pintype=in
}
P 2000 3000 1700 3000 1 0 0
{
T 1800 3050 5 8 1 1 0 0 1
pinnumber=13
T 1800 2950 5 8 0 1 0 2 1
pinseq=2
T 1650 3000 9 8 1 1 0 6 1
pinlabel=Q1
T 1650 3000 5 8 0 1 0 8 1
pintype=out
}
P 0 2600 300 2600 1 0 0
{
T 200 2650 5 8 1 1 0 6 1
pinnumber=14
T 200 2550 5 8 0 1 0 8 1
pinseq=3
T 350 2600 9 8 1 1 0 0 1
pinlabel=K1
T 350 2600 5 8 0 1 0 2 1
pintype=in
}
P 2000 2600 1800 2600 1 0 0
{
T 1800 2650 5 8 1 1 0 0 1
pinnumber=12
T 1800 2550 5 8 0 1 0 2 1
pinseq=4
T 1650 2600 9 8 1 1 0 6 1
pinlabel=Q1
T 1650 2600 5 8 0 1 0 8 1
pintype=out
}
P 0 2200 200 2200 1 0 0
{
T 200 2250 5 8 1 1 0 6 1
pinnumber=2
T 200 2150 5 8 0 1 0 8 1
pinseq=5
T 350 2200 9 8 1 1 0 0 1
pinlabel=SET1
T 350 2200 5 8 0 1 0 2 1
pintype=in
}
V 250 2200 50 6 0 0 0 -1 -1 0 -1 -1 -1 -1 -1
P 0 1800 300 1800 1 0 0
{
T 200 1850 5 8 1 1 0 6 1
pinnumber=10
T 200 1750 5 8 0 1 0 8 1
pinseq=6
T 350 1800 9 8 1 1 0 0 1
pinlabel=J2
T 350 1800 5 8 0 1 0 2 1
pintype=in
}
P 2000 1800 1700 1800 1 0 0
{
T 1800 1850 5 8 1 1 0 0 1
pinnumber=8
T 1800 1750 5 8 0 1 0 2 1
pinseq=7
T 1650 1800 9 8 1 1 0 6 1
pinlabel=Q2
T 1650 1800 5 8 0 1 0 8 1
pintype=out
}
P 0 1400 300 1400 1 0 0
{
T 200 1450 5 8 1 1 0 6 1
pinnumber=7
T 200 1350 5 8 0 1 0 8 1
pinseq=8
T 350 1400 9 8 1 1 0 0 1
pinlabel=K2
T 350 1400 5 8 0 1 0 2 1
pintype=in
}
P 2000 1400 1800 1400 1 0 0
{
T 1800 1450 5 8 1 1 0 0 1
pinnumber=9
T 1800 1350 5 8 0 1 0 2 1
pinseq=9
T 1650 1400 9 8 1 1 0 6 1
pinlabel=Q2
T 1650 1400 5 8 0 1 0 8 1
pintype=out
}
P 0 1000 200 1000 1 0 0
{
T 200 1050 5 8 1 1 0 6 1
pinnumber=6
T 200 950 5 8 0 1 0 8 1
pinseq=10
T 350 1000 9 8 1 1 0 0 1
pinlabel=SET2
T 350 1000 5 8 0 1 0 2 1
pintype=in
}
V 250 1000 50 6 0 0 0 -1 -1 0 -1 -1 -1 -1 -1
P 0 600 200 600 1 0 0
{
T 200 650 5 8 1 1 0 6 1
pinnumber=5
T 200 550 5 8 0 1 0 8 1
pinseq=11
T 350 600 9 8 1 1 0 0 1
pinlabel=RST
T 350 600 5 8 0 1 0 2 1
pintype=in
}
V 250 600 50 6 0 0 0 -1 -1 0 -1 -1 -1 -1 -1
P 0 200 200 200 1 0 0
{
T 200 250 5 8 1 1 0 6 1
pinnumber=1
T 200 150 5 8 0 1 0 8 1
pinseq=12
T 375 200 9 8 1 1 0 0 1
pinlabel=CLK
T 375 200 5 8 0 1 0 2 1
pintype=clk
}
V 250 200 50 6 0 0 0 -1 -1 0 -1 -1 -1 -1 -1
B 300 0 1400 3300 3 0 0 0 -1 -1 0 -1 -1 -1 -1 -1
T 300 3740 5 10 0 0 0 0 1
device=7478
T 300 3540 5 10 0 0 0 0 1
footprint=DIP14
T 1700 3400 8 10 1 1 0 6 1
refdes=U?
T 300 3950 5 10 0 0 0 0 1
description=2 JK-flip-flops with preset, common clock and clear
T 300 4150 5 10 0 0 0 0 1
net=Vcc:4
T 300 4350 5 10 0 0 0 0 1
net=GND:11
T 300 3340 9 10 1 0 0 0 1
7478
L 1500 2725 1650 2725 3 0 0 0 -1 -1
L 1450 1525 1650 1525 3 0 0 0 -1 -1
L 350 2325 675 2325 3 0 0 0 -1 -1
L 350 1125 725 1125 3 0 0 0 -1 -1
L 350 725 625 725 3 0 0 0 -1 -1
L 375 325 650 325 3 0 0 0 -1 -1
L 300 250 375 200 3 0 0 0 -1 -1
L 375 200 300 150 3 0 0 0 -1 -1
V 1750 1400 50 6 0 0 0 -1 -1 0 -1 -1 -1 -1 -1
V 1750 2600 50 6 0 0 0 -1 -1 0 -1 -1 -1 -1 -1
T 300 4550 5 10 0 0 0 0 1
numslots=0
