v 20031231 2
L 260 200 600 200 3 0 0 0 -1 -1
L 260 800 600 800 3 0 0 0 -1 -1
T 700 900 5 10 0 0 0 0 1
device=7486
T 700 1100 5 10 0 0 0 0 1
slot=1
T 700 1300 5 10 0 0 0 0 1
numslots=4
T 700 1500 5 10 0 0 0 0 1
slotdef=1:1,2,3
T 700 1700 5 10 0 0 0 0 1
slotdef=2:4,5,6
T 700 1900 5 10 0 0 0 0 1
slotdef=3:9,10,8
T 700 2100 5 10 0 0 0 0 1
slotdef=4:12,13,11
A 0 500 400 312 97 3 0 0 0 -1 -1
A -100 500 400 312 97 3 0 0 0 -1 -1
P 300 700 0 700 1 0 1
{
T 150 750 5 8 1 1 0 6 1
pinnumber=1
T 150 650 5 8 0 1 0 8 1
pinseq=1
T 350 700 9 8 0 1 0 0 1
pinlabel=A
T 350 700 5 8 0 1 0 2 1
pintype=in
}
P 300 300 0 300 1 0 1
{
T 150 350 5 8 1 1 0 6 1
pinnumber=2
T 150 250 5 8 0 1 0 8 1
pinseq=2
T 350 300 9 8 0 1 0 0 1
pinlabel=B
T 350 300 5 8 0 1 0 2 1
pintype=in
}
P 988 500 1300 500 1 0 1
{
T 1100 550 5 8 1 1 0 0 1
pinnumber=3
T 1100 450 5 8 0 1 0 2 1
pinseq=3
T 950 500 9 8 0 1 0 6 1
pinlabel=Y
T 950 500 5 8 0 1 0 8 1
pintype=out
}
A 600 600 400 270 76 3 0 0 0 -1 -1
A 600 400 400 14 76 3 0 0 0 -1 -1
T 300 900 8 10 1 1 0 0 1
refdes=U?
T 700 2300 5 10 0 0 0 0 1
footprint=DIP14
T 700 2500 5 10 0 0 0 0 1
description=4 XOR gates with 2 inputs
T 700 2700 5 10 0 0 0 0 1
net=Vcc:14
T 700 2900 5 10 0 0 0 0 1
net=GND:7
T 300 0 9 8 1 0 0 0 1
7486
T 700 3100 5 10 0 0 0 0 1
documentation=http://www-s.ti.com/sc/ds/sn74hc86.pdf
