v 20041228 2
B 300 300 1700 1800 3 0 0 0 -1 -1 0 -1 -1 -1 -1 -1
P 2000 1800 2300 1800 1 0 1
{
T 2150 1850 5 8 1 1 0 0 1
pinnumber=2
T 2150 1850 5 8 0 0 0 0 1
pinseq=2
T 1850 1800 9 10 1 1 0 6 1
pinlabel=Uin+
}
P 2000 1400 2300 1400 1 0 1
{
T 2150 1450 5 8 1 1 0 0 1
pinnumber=3
T 2150 1450 5 8 0 0 0 0 1
pinseq=3
T 1850 1400 9 10 1 1 0 6 1
pinlabel=Uin-
}
P 2000 1000 2300 1000 1 0 1
{
T 2150 1050 5 8 1 1 0 0 1
pinnumber=5
T 2150 1050 5 8 0 0 0 0 1
pinseq=5
T 1850 1000 9 10 1 1 0 6 1
pinlabel=VREF
}
P 1400 300 1400 0 1 0 1
{
T 1450 150 5 8 1 1 270 0 1
pinnumber=8
T 1450 150 5 8 0 0 270 0 1
pinseq=8
T 1400 450 9 10 1 1 270 6 1
pinlabel=Vcc
}
P 300 1800 0 1800 1 0 1
{
T 200 1850 5 8 1 1 0 6 1
pinnumber=7
T 200 1850 5 8 0 0 0 6 1
pinseq=7
T 400 1800 9 10 1 1 0 0 1
pinlabel=CLK
}
P 300 1400 0 1400 1 0 1
{
T 200 1450 5 8 1 1 0 6 1
pinnumber=6
T 200 1450 5 8 0 0 0 6 1
pinseq=6
T 400 1400 9 10 1 1 0 0 1
pinlabel=D0
}
V 250 1000 50 6 0 0 0 -1 -1 0 -1 -1 -1 -1 -1
P 200 1000 0 1000 1 0 1
{
T 200 1050 5 8 1 1 0 6 1
pinnumber=1
T 200 1050 5 8 0 0 0 6 1
pinseq=1
T 400 1000 9 10 1 1 0 0 1
pinlabel=/CS
}
T 400 2700 8 10 0 0 0 0 1
device=ADC0831
T 300 2150 9 10 1 0 0 0 1
ADC0831
T 2000 2200 8 10 1 1 0 6 1
refdes=U?
P 800 300 800 0 1 0 1
{
T 850 150 5 8 1 1 270 0 1
pinnumber=4
T 850 150 5 8 0 0 270 0 1
pinseq=4
T 800 450 9 10 1 1 270 6 1
pinlabel=GND
}
T 400 2900 8 10 0 0 0 0 1
symversion=1.0
