v 20031231 2
P 800 1400 800 1100 1 0 0
{
T 650 1150 5 8 1 1 0 0 1
pinnumber=3
T 650 1300 5 8 0 1 0 0 1
pinseq=3
T 300 1150 5 10 0 1 0 0 1
pintype=pas
T 900 1150 9 10 1 1 0 0 1
pinlabel=RH
}
P 800 0 800 300 1 0 0
{
T 700 150 5 8 1 1 0 0 1
pinnumber=1
T 700 0 5 8 0 1 0 0 1
pinseq=1
T 350 150 5 10 0 1 0 0 1
pintype=pwr
T 850 150 9 10 1 1 0 0 1
pinlabel=GND
}
P 100 700 400 700 1 0 0
{
T 250 800 5 8 1 1 0 0 1
pinnumber=2
T 250 950 5 8 0 1 0 0 1
pinseq=2
T 50 800 5 10 0 1 0 0 1
pintype=io
T 0 500 9 10 1 1 0 0 1
pinlabel=1-W
}
L 800 1000 900 950 3 0 0 0 -1 -1
L 900 950 700 850 3 0 0 0 -1 -1
L 700 850 900 750 3 0 0 0 -1 -1
L 900 750 700 650 3 0 0 0 -1 -1
L 700 650 900 550 3 0 0 0 -1 -1
L 900 550 700 450 3 0 0 0 -1 -1
L 700 450 800 400 3 0 0 0 -1 -1
A 800 700 400 60 240 3 0 0 0 -1 -1
L 1000 1050 1000 350 3 0 0 0 -1 -1
L 800 400 550 400 3 0 0 0 -1 -1
L 550 400 550 700 3 0 0 0 -1 -1
L 550 700 700 700 3 0 0 0 -1 -1
L 700 700 600 750 3 0 0 0 -1 -1
L 700 700 600 650 3 0 0 0 -1 -1
T 200 1600 5 10 0 0 0 0 1
device=DS2890
T 200 1800 5 10 0 0 0 0 1
description=1-wire digital potentiometer
L 800 1000 800 1100 3 0 0 0 -1 -1
L 800 400 800 300 3 0 0 0 -1 -1
T 1100 900 8 10 1 1 0 0 1
refdes=U?
T 200 2000 5 10 0 0 0 0 1
footprint=TO-92
T 200 2200 5 10 0 0 0 0 1
numslots=0
T 1100 700 9 10 1 0 0 0 1
DS2890
