v 20031231 2
L 600 200 500 0 3 0 0 0 -1 -1
L 500 0 400 200 3 0 0 0 -1 -1
L 400 200 300 0 3 0 0 0 -1 -1
L 300 0 200 200 3 0 0 0 -1 -1
T 300 400 5 10 0 0 0 0 1
device=resistor
L 600 200 700 0 3 0 0 0 -1 -1
L 700 0 750 100 3 0 0 0 -1 -1
P 900 100 750 100 1 0 0
{
T 800 150 5 8 0 1 0 0 1
pinnumber=?
T 800 150 5 8 0 1 0 0 1
pinfunction=1
T 800 150 5 8 0 0 0 0 1
pinseq=2
T 800 150 5 8 0 1 0 0 1 
pinlabel=2
T 800 150 5 8 0 1 0 0 1 
pintype=pas
}
P 0 100 152 100 1 0 0
{
T 100 150 5 8 0 1 0 0 1
pinnumber=?
T 100 150 5 8 0 1 0 0 1
pinfunction=2
T 100 150 5 8 0 0 0 0 1
pinseq=1
T 100 150 5 8 0 1 0 0 1 
pinlabel=1
T 100 150 5 8 0 1 0 0 1 
pintype=pas
}
L 200 200 150 100 3 0 0 0 -1 -1
T 200 300 8 10 1 1 0 0 1
refdes=R?
T 0 0 8 10 0 1 0 0 1
value=?
T 0 0 8 10 0 1 0 0 1
uuid=?
T 0 0 8 10 0 1 0 0 1
slotrewrite=refdes,value
T 0 0 8 10 0 1 0 0 1
slotname=?
T 0 0 8 10 0 1 0 0 1
slotowner=?
