refdes:refdes:value:device:qty
X1:X1:unknown:LVD:1
Vdd:Vdd:DC 3.3V:VOLTAGE_SOURCE:1
V1:V1:pulse 3.3 0 1u 10p 10p 1.25u 2.5u:vpulse:1
Rt:Rt:1k:RESISTOR:1
Rlp:Rlp:1meg:RESISTOR:1
Rlm:Rlm:500k:RESISTOR:1
Rb:Rb:5.6k:RESISTOR:1
M1:M1:unknown:PMOS_TRANSISTOR:1
Cp:Cp:20p:CAPACITOR:1
Cm:Cm:20p:CAPACITOR:1
A1:A1:unknown:model:1
